rtl/user_domain/spi_hello.vcd
$version Generated by VerilatedVcd $end
$timescale 1ps $end
 $scope module $rootio $end
 $upscope $end
 $scope module spi_hello_tb $end
  $var wire 1 4 clk $end
  $var wire 1 # rst_n $end
  $var wire 1 $ req $end
  $var wire 32 % addr [31:0] $end
  $var wire 32 & wdata [31:0] $end
  $var wire 1 ' we $end
  $var wire 1 $ gnt $end
  $var wire 1 ( rvalid $end
  $var wire 32 ) rdata [31:0] $end
  $var wire 1 5 sck $end
  $var wire 1 * mosi $end
  $var wire 1 + cs $end
  $scope module dut $end
   $var wire 1 4 clk_i $end
   $var wire 1 # rst_ni $end
   $var wire 1 $ req_i $end
   $var wire 1 ' we_i $end
   $var wire 32 % addr_i [31:0] $end
   $var wire 32 & wdata_i [31:0] $end
   $var wire 1 $ gnt_o $end
   $var wire 1 ( rvalid_o $end
   $var wire 32 ) rdata_o [31:0] $end
   $var wire 1 5 sck_o $end
   $var wire 1 * mosi_o $end
   $var wire 1 + cs_o $end
   $var wire 32 6 SPI_CTRL_ADDR [31:0] $end
   $var wire 32 7 SPI_TX_ADDR [31:0] $end
   $var wire 32 8 SPI_STATUS_ADDR [31:0] $end
   $var wire 8 , tx_reg [7:0] $end
   $var wire 3 - bit_cnt_q [2:0] $end
   $var wire 3 . bit_cnt_d [2:0] $end
   $var wire 1 / start_flag $end
   $var wire 1 0 busy $end
   $var wire 1 1 done $end
   $var wire 2 2 state_q [1:0] $end
   $var wire 2 3 state_d [1:0] $end
  $upscope $end
 $upscope $end
$enddefinitions $end


#0
0#
0$
b00000000000000000000000000000000 %
b00000000000000000000000000000000 &
0'
0(
b00000000000000000000000000000000 )
0*
1+
b00000000 ,
b000 -
b000 .
0/
00
01
b00 2
b00 3
04
05
b00000000000000000000000000000000 6
b00000000000000000000000000000100 7
b00000000000000000000000000001000 8
#5000
14
#10000
04
#15000
14
#20000
1#
04
#25000
14
#30000
04
#35000
14
#40000
1$
b00000000000000000000000000000100 %
1'
04
#45000
14
#50000
b00000000000000000000000000000000 %
b00000000000000000000000000000001 &
04
#55000
1/
b01 3
14
#60000
0$
04
#65000
b111 .
b01 2
b10 3
14
#70000
04
#75000
b00000000000000000000000000000001 )
0+
b111 -
b110 .
10
b10 2
14
15
#80000
04
05
#85000
b110 -
b101 .
14
15
#90000
04
05
#95000
b101 -
b100 .
14
15
#100000
04
05
#105000
b100 -
b011 .
14
15
#110000
04
05
#115000
b011 -
b010 .
14
15
#120000
04
05
#125000
b010 -
b001 .
14
15
#130000
04
05
#135000
b001 -
b000 .
14
15
#140000
04
05
#145000
b000 -
b11 3
14
15
#150000
04
05
#155000
b00000000000000000000000000000010 )
1+
00
11
b11 2
b00 3
14
#160000
04
#165000
b00000000000000000000000000000000 )
0/
01
b00 2
14
