rtl/user_domain/tb_obi_spi_direct.vcd
$version Generated by VerilatedVcd $end
$timescale 1ps $end
 $scope module $rootio $end
 $upscope $end
 $scope module tb_obi_spi_direct $end
  $var real 64 D CLK_PERIOD $end
  $var real 64 F RESET_DURATION $end
  $var wire 32 H OBI_TIMEOUT [31:0] $end
  $var wire 32 I SPI_DONE_TIMEOUT [31:0] $end
  $var wire 32 J SPI_CTRL_ADDR [31:0] $end
  $var wire 32 K SPI_TX_ADDR [31:0] $end
  $var wire 32 L SPI_STATUS_ADDR [31:0] $end
  $var wire 1 A clk $end
  $var wire 1 # rst_ni $end
  $var wire 1 $ req $end
  $var wire 32 % addr [31:0] $end
  $var wire 32 & wdata [31:0] $end
  $var wire 4 ' be [3:0] $end
  $var wire 1 ( we $end
  $var wire 1 B gnt $end
  $var wire 1 - rvalid $end
  $var wire 32 . rdata [31:0] $end
  $var wire 32 ) status_after_done [31:0] $end
  $var wire 32 * final_status [31:0] $end
  $var wire 1 / sck_o $end
  $var wire 1 0 mosi_o $end
  $var wire 1 M cs_no $end
  $var wire 1 + req_ongoing $end
  $scope module dut $end
   $var wire 1 A clk_i $end
   $var wire 1 # rst_ni $end
   $var wire 1 $ req_i $end
   $var wire 1 ( we_i $end
   $var wire 4 ' be_i [3:0] $end
   $var wire 32 % addr_i [31:0] $end
   $var wire 32 & wdata_i [31:0] $end
   $var wire 1 B gnt_o $end
   $var wire 1 - rvalid_o $end
   $var wire 32 . rdata_o [31:0] $end
   $var wire 1 / sck_o $end
   $var wire 1 0 mosi_o $end
   $var wire 1 1 cs_no $end
   $var wire 32 N ADDR_WIDTH [31:0] $end
   $var wire 32 N DATA_WIDTH [31:0] $end
   $var wire 32 O SPI_DATA_BITS [31:0] $end
   $var wire 32 P SPI_CLK_DIVIDER [31:0] $end
   $var wire 12 Q SPI_CTRL_ADDR_OFFSET [11:0] $end
   $var wire 12 R SPI_TX_ADDR_OFFSET [11:0] $end
   $var wire 12 S SPI_STATUS_ADDR_OFFSET [11:0] $end
   $var wire 2 2 state_q [1:0] $end
   $var wire 2 3 state_d [1:0] $end
   $var wire 1 4 start_flag_q $end
   $var wire 1 5 start_flag_d $end
   $var wire 8 6 tx_data_q [7:0] $end
   $var wire 8 6 tx_data_d [7:0] $end
   $var wire 3 7 bit_cnt_q [2:0] $end
   $var wire 3 8 bit_cnt_d [2:0] $end
   $var wire 3 9 spi_clk_cnt_q [2:0] $end
   $var wire 3 : spi_clk_cnt_d [2:0] $end
   $var wire 1 - rvalid_q $end
   $var wire 32 . rdata_q [31:0] $end
   $var wire 1 ; spi_clk_phase $end
   $var wire 1 T status_read_req $end
   $var wire 2 < status_bits [1:0] $end
   $var wire 1 = busy $end
   $var wire 1 > done_q $end
   $var wire 1 , gnt_for_read $end
   $var wire 1 C gnt_for_write $end
   $var wire 1 ? read_req_accepted $end
   $scope module unnamedblk1 $end
    $var wire 4 @ next_bit_idx_calc [3:0] $end
   $upscope $end
  $upscope $end
 $upscope $end
$enddefinitions $end


#0
0#
0$
b00000000000000000000000000000000 %
b00000000000000000000000000000000 &
b0000 '
0(
b00000000000000000000000000000000 )
b00000000000000000000000000000000 *
0+
0,
0-
b00000000000000000000000000000000 .
0/
00
11
b00 2
b00 3
04
05
b00000000 6
b000 7
b000 8
b000 9
b000 :
0;
b00 <
0=
0>
0?
b0000 @
0A
0B
0C
r49.99999999999999 D
r99.99999999999999 F
b00000000000000000000001111101000 H
b00000000000000000001001110001000 I
b00000000000000000000000000000000 J
b00000000000000000000000000000100 K
b00000000000000000000000000001000 L
0M
b00000000000000000000000000100000 N
b00000000000000000000000000001000 O
b00000000000000000000000000000100 P
b000000000000 Q
b000000000100 R
b000000001000 S
0T
#12500
1A
#25000
0A
#37500
1A
#50000
0A
#62500
1A
#75000
0A
#87500
1A
#100000
1#
0A
#112500
1A
#125000
0A
#137500
1A
#150000
0A
#162500
1$
b00000000000000000000000000001000 %
1,
1?
1A
1B
#175000
0A
#187500
1-
1A
#200000
0A
#212500
0$
0?
1A
0B
#225000
0A
#237500
0-
1A
#250000
0A
#262500
1$
1?
1A
1B
#275000
0A
#287500
1-
1A
#300000
0A
#312500
0$
0?
1A
0B
#325000
0A
#337500
0-
1A
#350000
0A
#362500
1$
b00000000000000000000000000000100 %
b00000000000000000000000010101010 &
b0001 '
1(
0,
10
b10101010 6
1A
1B
1C
#375000
0A
#387500
1A
#400000
0A
#412500
0$
1A
0B
#425000
0A
#437500
b0000 '
0(
1A
0C
#450000
0A
#462500
1$
b00000000000000000000000000000000 %
b00000000000000000000000000000001 &
b0001 '
1(
b01 3
14
1A
1B
1C
#475000
0A
#487500
01
b01 2
b10 3
15
b111 8
b01 <
1=
1A
0B
0C
#500000
0A
#512500
0$
00
b10 2
b111 7
b001 :
1A
#525000
0A
#537500
b0000 '
0(
b001 9
b010 :
1A
#550000
0A
#562500
b010 9
b011 :
1A
#575000
0A
#587500
1$
b00000000000000000000000000001000 %
b00000000000000000000000000000000 &
1,
b011 9
b100 :
1?
1A
1B
#600000
0A
#612500
1-
b00000000000000000000000000000001 .
1/
b100 9
b101 :
1;
1A
#625000
0A
#637500
0$
b101 9
b110 :
0?
1A
0B
#650000
0A
#662500
0-
b110 9
b111 :
1A
#675000
0A
#687500
b00000000000000000000000000000000 .
10
b110 8
b111 9
b000 :
b0001 @
1A
#700000
0A
#712500
1$
0/
b110 7
b000 9
b001 :
0;
1?
b0000 @
1A
1B
#725000
0A
#737500
1-
b00000000000000000000000000000001 .
b001 9
b010 :
1A
#750000
0A
#762500
0$
b010 9
b011 :
0?
1A
0B
#775000
0A
#787500
0-
b011 9
b100 :
1A
#800000
0A
#812500
b00000000000000000000000000000000 .
1/
b100 9
b101 :
1;
1A
#825000
0A
#837500
1$
b101 9
b110 :
1?
1A
1B
#850000
0A
#862500
1-
b00000000000000000000000000000001 .
b110 9
b111 :
1A
#875000
0A
#887500
0$
00
b101 8
b111 9
b000 :
0?
b0010 @
1A
0B
#900000
0A
#912500
0-
0/
b101 7
b000 9
b001 :
0;
b0000 @
1A
#925000
0A
#937500
b00000000000000000000000000000000 .
b001 9
b010 :
1A
#950000
0A
#962500
1$
b010 9
b011 :
1?
1A
1B
#975000
0A
#987500
1-
b00000000000000000000000000000001 .
b011 9
b100 :
1A
#1000000
0A
#1012500
0$
1/
b100 9
b101 :
1;
0?
1A
0B
#1025000
0A
#1037500
0-
b101 9
b110 :
1A
#1050000
0A
#1062500
b00000000000000000000000000000000 .
b110 9
b111 :
1A
#1075000
0A
#1087500
1$
10
b100 8
b111 9
b000 :
1?
b0011 @
1A
1B
#1100000
0A
#1112500
1-
b00000000000000000000000000000001 .
0/
b100 7
b000 9
b001 :
0;
b0000 @
1A
#1125000
0A
#1137500
0$
b001 9
b010 :
0?
1A
0B
#1150000
0A
#1162500
0-
b010 9
b011 :
1A
#1175000
0A
#1187500
b00000000000000000000000000000000 .
b011 9
b100 :
1A
#1200000
0A
#1212500
1$
1/
b100 9
b101 :
1;
1?
1A
1B
#1225000
0A
#1237500
1-
b00000000000000000000000000000001 .
b101 9
b110 :
1A
#1250000
0A
#1262500
0$
b110 9
b111 :
0?
1A
0B
#1275000
0A
#1287500
0-
00
b011 8
b111 9
b000 :
b0100 @
1A
#1300000
0A
#1312500
b00000000000000000000000000000000 .
0/
b011 7
b000 9
b001 :
0;
b0000 @
1A
#1325000
0A
#1337500
1$
b001 9
b010 :
1?
1A
1B
#1350000
0A
#1362500
1-
b00000000000000000000000000000001 .
b010 9
b011 :
1A
#1375000
0A
#1387500
0$
b011 9
b100 :
0?
1A
0B
#1400000
0A
#1412500
0-
1/
b100 9
b101 :
1;
1A
#1425000
0A
#1437500
b00000000000000000000000000000000 .
b101 9
b110 :
1A
#1450000
0A
#1462500
1$
b110 9
b111 :
1?
1A
1B
#1475000
0A
#1487500
1-
b00000000000000000000000000000001 .
10
b010 8
b111 9
b000 :
b0101 @
1A
#1500000
0A
#1512500
0$
0/
b010 7
b000 9
b001 :
0;
0?
b0000 @
1A
0B
#1525000
0A
#1537500
0-
b001 9
b010 :
1A
#1550000
0A
#1562500
b00000000000000000000000000000000 .
b010 9
b011 :
1A
#1575000
0A
#1587500
1$
b011 9
b100 :
1?
1A
1B
#1600000
0A
#1612500
1-
b00000000000000000000000000000001 .
1/
b100 9
b101 :
1;
1A
#1625000
0A
#1637500
0$
b101 9
b110 :
0?
1A
0B
#1650000
0A
#1662500
0-
b110 9
b111 :
1A
#1675000
0A
#1687500
b00000000000000000000000000000000 .
00
b001 8
b111 9
b000 :
b0110 @
1A
#1700000
0A
#1712500
1$
0/
b001 7
b000 9
b001 :
0;
1?
b0000 @
1A
1B
#1725000
0A
#1737500
1-
b00000000000000000000000000000001 .
b001 9
b010 :
1A
#1750000
0A
#1762500
0$
b010 9
b011 :
0?
1A
0B
#1775000
0A
#1787500
0-
b011 9
b100 :
1A
#1800000
0A
#1812500
b00000000000000000000000000000000 .
1/
b100 9
b101 :
1;
1A
#1825000
0A
#1837500
1$
b101 9
b110 :
1?
1A
1B
#1850000
0A
#1862500
1-
b00000000000000000000000000000001 .
b110 9
b111 :
1A
#1875000
0A
#1887500
0$
10
b000 8
b111 9
b000 :
0?
b0111 @
1A
0B
#1900000
0A
#1912500
0-
0/
b000 7
b000 9
b001 :
0;
b0000 @
1A
#1925000
0A
#1937500
b00000000000000000000000000000000 .
b001 9
b010 :
1A
#1950000
0A
#1962500
1$
b010 9
b011 :
1?
1A
1B
#1975000
0A
#1987500
1-
b00000000000000000000000000000001 .
b011 9
b100 :
1A
#2000000
0A
#2012500
0$
1/
b100 9
b101 :
1;
0?
1A
0B
#2025000
0A
#2037500
0-
b101 9
b110 :
1A
#2050000
0A
#2062500
b00000000000000000000000000000000 .
b110 9
b111 :
1A
#2075000
0A
#2087500
1$
00
b11 3
b111 9
b000 :
1?
1A
1B
#2100000
0A
#2112500
1-
b00000000000000000000000000000001 .
0/
10
11
b11 2
b00 3
b000 9
0;
b10 <
0=
1>
1A
#2125000
0A
#2137500
0$
b00000000000000000000000000000010 .
b00 2
b01 3
05
b00 <
0>
0?
1A
0B
#2150000
0A
#2162500
0-
01
b01 2
b10 3
04
b111 8
b01 <
1=
1A
#2175000
0A
#2187500
b00000000000000000000000000000000 .
00
b10 2
b111 7
b001 :
1A
#2200000
0A
#2212500
1$
b001 9
b010 :
1?
1A
1B
#2225000
0A
#2237500
1-
b00000000000000000000000000000001 .
b010 9
b011 :
1A
#2250000
0A
#2262500
0$
b011 9
b100 :
0?
1A
0B
#2275000
0A
#2287500
0-
1/
b100 9
b101 :
1;
1A
#2300000
0A
#2312500
b00000000000000000000000000000000 .
b101 9
b110 :
1A
#2325000
0A
#2337500
1$
b110 9
b111 :
1?
1A
1B
#2350000
0A
#2362500
1-
b00000000000000000000000000000001 .
10
b110 8
b111 9
b000 :
b0001 @
1A
#2375000
0A
#2387500
0$
0/
b110 7
b000 9
b001 :
0;
0?
b0000 @
1A
0B
#2400000
0A
#2412500
0-
b001 9
b010 :
1A
#2425000
0A
#2437500
b00000000000000000000000000000000 .
b010 9
b011 :
1A
#2450000
0A
#2462500
1$
b011 9
b100 :
1?
1A
1B
#2475000
0A
#2487500
1-
b00000000000000000000000000000001 .
1/
b100 9
b101 :
1;
1A
#2500000
0A
#2512500
0$
b101 9
b110 :
0?
1A
0B
#2525000
0A
#2537500
0-
b110 9
b111 :
1A
#2550000
0A
#2562500
b00000000000000000000000000000000 .
00
b101 8
b111 9
b000 :
b0010 @
1A
#2575000
0A
#2587500
1$
0/
b101 7
b000 9
b001 :
0;
1?
b0000 @
1A
1B
#2600000
0A
#2612500
1-
b00000000000000000000000000000001 .
b001 9
b010 :
1A
#2625000
0A
#2637500
0$
b010 9
b011 :
0?
1A
0B
#2650000
0A
#2662500
0-
b011 9
b100 :
1A
#2675000
0A
#2687500
b00000000000000000000000000000000 .
1/
b100 9
b101 :
1;
1A
#2700000
0A
#2712500
1$
b101 9
b110 :
1?
1A
1B
#2725000
0A
#2737500
1-
b00000000000000000000000000000001 .
b110 9
b111 :
1A
#2750000
0A
#2762500
0$
10
b100 8
b111 9
b000 :
0?
b0011 @
1A
0B
#2775000
0A
#2787500
0-
0/
b100 7
b000 9
b001 :
0;
b0000 @
1A
#2800000
0A
#2812500
b00000000000000000000000000000000 .
b001 9
b010 :
1A
#2825000
0A
#2837500
1$
b010 9
b011 :
1?
1A
1B
#2850000
0A
#2862500
1-
b00000000000000000000000000000001 .
b011 9
b100 :
1A
#2875000
0A
#2887500
0$
1/
b100 9
b101 :
1;
0?
1A
0B
#2900000
0A
#2912500
0-
b101 9
b110 :
1A
#2925000
0A
#2937500
b00000000000000000000000000000000 .
b110 9
b111 :
1A
#2950000
0A
#2962500
1$
00
b011 8
b111 9
b000 :
1?
b0100 @
1A
1B
#2975000
0A
#2987500
1-
b00000000000000000000000000000001 .
0/
b011 7
b000 9
b001 :
0;
b0000 @
1A
#3000000
0A
#3012500
0$
b001 9
b010 :
0?
1A
0B
#3025000
0A
#3037500
0-
b010 9
b011 :
1A
#3050000
0A
#3062500
b00000000000000000000000000000000 .
b011 9
b100 :
1A
#3075000
0A
#3087500
1$
1/
b100 9
b101 :
1;
1?
1A
1B
#3100000
0A
#3112500
1-
b00000000000000000000000000000001 .
b101 9
b110 :
1A
#3125000
0A
#3137500
0$
b110 9
b111 :
0?
1A
0B
#3150000
0A
#3162500
0-
10
b010 8
b111 9
b000 :
b0101 @
1A
#3175000
0A
#3187500
b00000000000000000000000000000000 .
0/
b010 7
b000 9
b001 :
0;
b0000 @
1A
#3200000
0A
#3212500
1$
b001 9
b010 :
1?
1A
1B
#3225000
0A
#3237500
1-
b00000000000000000000000000000001 .
b010 9
b011 :
1A
#3250000
0A
#3262500
0$
b011 9
b100 :
0?
1A
0B
#3275000
0A
#3287500
0-
1/
b100 9
b101 :
1;
1A
#3300000
0A
#3312500
b00000000000000000000000000000000 .
b101 9
b110 :
1A
#3325000
0A
#3337500
1$
b110 9
b111 :
1?
1A
1B
#3350000
0A
#3362500
1-
b00000000000000000000000000000001 .
00
b001 8
b111 9
b000 :
b0110 @
1A
#3375000
0A
#3387500
0$
0/
b001 7
b000 9
b001 :
0;
0?
b0000 @
1A
0B
#3400000
0A
#3412500
0-
b001 9
b010 :
1A
#3425000
0A
#3437500
b00000000000000000000000000000000 .
b010 9
b011 :
1A
#3450000
0A
#3462500
1$
b011 9
b100 :
1?
1A
1B
#3475000
0A
#3487500
1-
b00000000000000000000000000000001 .
1/
b100 9
b101 :
1;
1A
#3500000
0A
#3512500
0$
b101 9
b110 :
0?
1A
0B
#3525000
0A
#3537500
0-
b110 9
b111 :
1A
#3550000
0A
#3562500
b00000000000000000000000000000000 .
10
b000 8
b111 9
b000 :
b0111 @
1A
#3575000
0A
#3587500
1$
0/
b000 7
b000 9
b001 :
0;
1?
b0000 @
1A
1B
#3600000
0A
#3612500
1-
b00000000000000000000000000000001 .
b001 9
b010 :
1A
#3625000
0A
#3637500
0$
b010 9
b011 :
0?
1A
0B
#3650000
0A
#3662500
0-
b011 9
b100 :
1A
#3675000
0A
#3687500
b00000000000000000000000000000000 .
1/
b100 9
b101 :
1;
1A
#3700000
0A
#3712500
1$
b101 9
b110 :
1?
1A
1B
#3725000
0A
#3737500
1-
b00000000000000000000000000000001 .
b110 9
b111 :
1A
#3750000
0A
#3762500
0$
00
b11 3
b111 9
b000 :
0?
1A
0B
#3775000
0A
#3787500
0-
0/
10
11
b11 2
b00 3
b000 9
0;
b10 <
0=
1>
1A
#3800000
0A
#3812500
b00000000000000000000000000000000 .
b00 2
b00 <
0>
1A
#3825000
0A
#3837500
1$
1?
1A
1B
#3850000
0A
#3862500
1-
1A
#3875000
0A
#3887500
0$
0?
1A
0B
#3900000
0A
#3912500
0-
1A
#3925000
0A
#3937500
1$
1?
1A
1B
#3950000
0A
#3962500
1-
1A
#3975000
0A
#3987500
0$
0?
1A
0B
#4000000
0A
#4012500
0-
1A
#4025000
0A
#4037500
1A
#4050000
0A
#4062500
1$
1?
1A
1B
#4075000
0A
#4087500
1-
1A
#4100000
0A
#4112500
0$
0?
1A
0B
#4125000
0A
#4137500
0-
1A
#4150000
0A
#4162500
1$
1?
1A
1B
#4175000
0A
#4187500
1-
1A
#4200000
0A
#4212500
0$
0?
1A
0B
#4225000
0A
#4237500
0-
1A
#4250000
0A
#4262500
1$
b00000000000000000000000000000100 %
b00000000000000000000000001010101 &
b0001 '
1(
0,
00
b01010101 6
1A
1B
1C
#4275000
0A
#4287500
1A
#4300000
0A
#4312500
0$
1A
0B
#4325000
0A
#4337500
b0000 '
0(
1A
0C
#4350000
0A
#4362500
1$
b00000000000000000000000000000000 %
b00000000000000000000000000000001 &
b0001 '
1(
b01 3
14
1A
1B
1C
#4375000
0A
#4387500
01
b01 2
b10 3
15
b111 8
b01 <
1=
1A
0B
0C
#4400000
0A
#4412500
0$
10
b10 2
b111 7
b001 :
1A
#4425000
0A
#4437500
b0000 '
0(
b001 9
b010 :
1A
#4450000
0A
#4462500
b010 9
b011 :
1A
#4475000
0A
#4487500
1$
b00000000000000000000000000001000 %
b00000000000000000000000000000000 &
1,
b011 9
b100 :
1?
1A
1B
#4500000
0A
#4512500
1-
b00000000000000000000000000000001 .
1/
b100 9
b101 :
1;
1A
#4525000
0A
#4537500
0$
b101 9
b110 :
0?
1A
0B
#4550000
0A
#4562500
0-
b110 9
b111 :
1A
#4575000
0A
#4587500
b00000000000000000000000000000000 .
00
b110 8
b111 9
b000 :
b0001 @
1A
#4600000
0A
#4612500
1$
0/
b110 7
b000 9
b001 :
0;
1?
b0000 @
1A
1B
#4625000
0A
#4637500
1-
b00000000000000000000000000000001 .
b001 9
b010 :
1A
#4650000
0A
#4662500
0$
b010 9
b011 :
0?
1A
0B
#4675000
0A
#4687500
0-
b011 9
b100 :
1A
#4700000
0A
#4712500
b00000000000000000000000000000000 .
1/
b100 9
b101 :
1;
1A
#4725000
0A
#4737500
1$
b101 9
b110 :
1?
1A
1B
#4750000
0A
#4762500
1-
b00000000000000000000000000000001 .
b110 9
b111 :
1A
#4775000
0A
#4787500
0$
10
b101 8
b111 9
b000 :
0?
b0010 @
1A
0B
#4800000
0A
#4812500
0-
0/
b101 7
b000 9
b001 :
0;
b0000 @
1A
#4825000
0A
#4837500
b00000000000000000000000000000000 .
b001 9
b010 :
1A
#4850000
0A
#4862500
1$
b010 9
b011 :
1?
1A
1B
#4875000
0A
#4887500
1-
b00000000000000000000000000000001 .
b011 9
b100 :
1A
#4900000
0A
#4912500
0$
1/
b100 9
b101 :
1;
0?
1A
0B
#4925000
0A
#4937500
0-
b101 9
b110 :
1A
#4950000
0A
#4962500
b00000000000000000000000000000000 .
b110 9
b111 :
1A
#4975000
0A
#4987500
1$
00
b100 8
b111 9
b000 :
1?
b0011 @
1A
1B
#5000000
0A
#5012500
1-
b00000000000000000000000000000001 .
0/
b100 7
b000 9
b001 :
0;
b0000 @
1A
#5025000
0A
#5037500
0$
b001 9
b010 :
0?
1A
0B
#5050000
0A
#5062500
0-
b010 9
b011 :
1A
#5075000
0A
#5087500
b00000000000000000000000000000000 .
b011 9
b100 :
1A
#5100000
0A
#5112500
1$
1/
b100 9
b101 :
1;
1?
1A
1B
#5125000
0A
#5137500
1-
b00000000000000000000000000000001 .
b101 9
b110 :
1A
#5150000
0A
#5162500
0$
b110 9
b111 :
0?
1A
0B
#5175000
0A
#5187500
0-
10
b011 8
b111 9
b000 :
b0100 @
1A
#5200000
0A
#5212500
b00000000000000000000000000000000 .
0/
b011 7
b000 9
b001 :
0;
b0000 @
1A
#5225000
0A
#5237500
1$
b001 9
b010 :
1?
1A
1B
#5250000
0A
#5262500
1-
b00000000000000000000000000000001 .
b010 9
b011 :
1A
#5275000
0A
#5287500
0$
b011 9
b100 :
0?
1A
0B
#5300000
0A
#5312500
0-
1/
b100 9
b101 :
1;
1A
#5325000
0A
#5337500
b00000000000000000000000000000000 .
b101 9
b110 :
1A
#5350000
0A
#5362500
1$
b110 9
b111 :
1?
1A
1B
#5375000
0A
#5387500
1-
b00000000000000000000000000000001 .
00
b010 8
b111 9
b000 :
b0101 @
1A
#5400000
0A
#5412500
0$
0/
b010 7
b000 9
b001 :
0;
0?
b0000 @
1A
0B
#5425000
0A
#5437500
0-
b001 9
b010 :
1A
#5450000
0A
#5462500
b00000000000000000000000000000000 .
b010 9
b011 :
1A
#5475000
0A
#5487500
1$
b011 9
b100 :
1?
1A
1B
#5500000
0A
#5512500
1-
b00000000000000000000000000000001 .
1/
b100 9
b101 :
1;
1A
#5525000
0A
#5537500
0$
b101 9
b110 :
0?
1A
0B
#5550000
0A
#5562500
0-
b110 9
b111 :
1A
#5575000
0A
#5587500
b00000000000000000000000000000000 .
10
b001 8
b111 9
b000 :
b0110 @
1A
#5600000
0A
#5612500
1$
0/
b001 7
b000 9
b001 :
0;
1?
b0000 @
1A
1B
#5625000
0A
#5637500
1-
b00000000000000000000000000000001 .
b001 9
b010 :
1A
#5650000
0A
#5662500
0$
b010 9
b011 :
0?
1A
0B
#5675000
0A
#5687500
0-
b011 9
b100 :
1A
#5700000
0A
#5712500
b00000000000000000000000000000000 .
1/
b100 9
b101 :
1;
1A
#5725000
0A
#5737500
1$
b101 9
b110 :
1?
1A
1B
#5750000
0A
#5762500
1-
b00000000000000000000000000000001 .
b110 9
b111 :
1A
#5775000
0A
#5787500
0$
00
b000 8
b111 9
b000 :
0?
b0111 @
1A
0B
#5800000
0A
#5812500
0-
0/
b000 7
b000 9
b001 :
0;
b0000 @
1A
#5825000
0A
#5837500
b00000000000000000000000000000000 .
b001 9
b010 :
1A
#5850000
0A
#5862500
1$
b010 9
b011 :
1?
1A
1B
#5875000
0A
#5887500
1-
b00000000000000000000000000000001 .
b011 9
b100 :
1A
#5900000
0A
#5912500
0$
1/
b100 9
b101 :
1;
0?
1A
0B
#5925000
0A
#5937500
0-
b101 9
b110 :
1A
#5950000
0A
#5962500
b00000000000000000000000000000000 .
b110 9
b111 :
1A
#5975000
0A
#5987500
1$
10
b11 3
b111 9
b000 :
1?
1A
1B
#6000000
0A
#6012500
1-
b00000000000000000000000000000001 .
0/
00
11
b11 2
b00 3
b000 9
0;
b10 <
0=
1>
1A
#6025000
0A
#6037500
0$
b00000000000000000000000000000010 .
b00 2
b01 3
05
b00 <
0>
0?
1A
0B
#6050000
0A
#6062500
0-
01
b01 2
b10 3
04
b111 8
b01 <
1=
1A
#6075000
0A
#6087500
b00000000000000000000000000000000 .
10
b10 2
b111 7
b001 :
1A
#6100000
0A
#6112500
1$
b001 9
b010 :
1?
1A
1B
#6125000
0A
#6137500
1-
b00000000000000000000000000000001 .
b010 9
b011 :
1A
#6150000
0A
#6162500
0$
b011 9
b100 :
0?
1A
0B
#6175000
0A
#6187500
0-
1/
b100 9
b101 :
1;
1A
#6200000
0A
#6212500
b00000000000000000000000000000000 .
b101 9
b110 :
1A
#6225000
0A
#6237500
1$
b110 9
b111 :
1?
1A
1B
#6250000
0A
#6262500
1-
b00000000000000000000000000000001 .
00
b110 8
b111 9
b000 :
b0001 @
1A
#6275000
0A
#6287500
0$
0/
b110 7
b000 9
b001 :
0;
0?
b0000 @
1A
0B
#6300000
0A
#6312500
0-
b001 9
b010 :
1A
#6325000
0A
#6337500
b00000000000000000000000000000000 .
b010 9
b011 :
1A
#6350000
0A
#6362500
1$
b011 9
b100 :
1?
1A
1B
#6375000
0A
#6387500
1-
b00000000000000000000000000000001 .
1/
b100 9
b101 :
1;
1A
#6400000
0A
#6412500
0$
b101 9
b110 :
0?
1A
0B
#6425000
0A
#6437500
0-
b110 9
b111 :
1A
#6450000
0A
#6462500
b00000000000000000000000000000000 .
10
b101 8
b111 9
b000 :
b0010 @
1A
#6475000
0A
#6487500
1$
0/
b101 7
b000 9
b001 :
0;
1?
b0000 @
1A
1B
#6500000
0A
#6512500
1-
b00000000000000000000000000000001 .
b001 9
b010 :
1A
#6525000
0A
#6537500
0$
b010 9
b011 :
0?
1A
0B
#6550000
0A
#6562500
0-
b011 9
b100 :
1A
#6575000
0A
#6587500
b00000000000000000000000000000000 .
1/
b100 9
b101 :
1;
1A
#6600000
0A
#6612500
1$
b101 9
b110 :
1?
1A
1B
#6625000
0A
#6637500
1-
b00000000000000000000000000000001 .
b110 9
b111 :
1A
#6650000
0A
#6662500
0$
00
b100 8
b111 9
b000 :
0?
b0011 @
1A
0B
#6675000
0A
#6687500
0-
0/
b100 7
b000 9
b001 :
0;
b0000 @
1A
#6700000
0A
#6712500
b00000000000000000000000000000000 .
b001 9
b010 :
1A
#6725000
0A
#6737500
1$
b010 9
b011 :
1?
1A
1B
#6750000
0A
#6762500
1-
b00000000000000000000000000000001 .
b011 9
b100 :
1A
#6775000
0A
#6787500
0$
1/
b100 9
b101 :
1;
0?
1A
0B
#6800000
0A
#6812500
0-
b101 9
b110 :
1A
#6825000
0A
#6837500
b00000000000000000000000000000000 .
b110 9
b111 :
1A
#6850000
0A
#6862500
1$
10
b011 8
b111 9
b000 :
1?
b0100 @
1A
1B
#6875000
0A
#6887500
1-
b00000000000000000000000000000001 .
0/
b011 7
b000 9
b001 :
0;
b0000 @
1A
#6900000
0A
#6912500
0$
b001 9
b010 :
0?
1A
0B
#6925000
0A
#6937500
0-
b010 9
b011 :
1A
#6950000
0A
#6962500
b00000000000000000000000000000000 .
b011 9
b100 :
1A
#6975000
0A
#6987500
1$
1/
b100 9
b101 :
1;
1?
1A
1B
#7000000
0A
#7012500
1-
b00000000000000000000000000000001 .
b101 9
b110 :
1A
#7025000
0A
#7037500
0$
b110 9
b111 :
0?
1A
0B
#7050000
0A
#7062500
0-
00
b010 8
b111 9
b000 :
b0101 @
1A
#7075000
0A
#7087500
b00000000000000000000000000000000 .
0/
b010 7
b000 9
b001 :
0;
b0000 @
1A
#7100000
0A
#7112500
1$
b001 9
b010 :
1?
1A
1B
#7125000
0A
#7137500
1-
b00000000000000000000000000000001 .
b010 9
b011 :
1A
#7150000
0A
#7162500
0$
b011 9
b100 :
0?
1A
0B
#7175000
0A
#7187500
0-
1/
b100 9
b101 :
1;
1A
#7200000
0A
#7212500
b00000000000000000000000000000000 .
b101 9
b110 :
1A
#7225000
0A
#7237500
1$
b110 9
b111 :
1?
1A
1B
#7250000
0A
#7262500
1-
b00000000000000000000000000000001 .
10
b001 8
b111 9
b000 :
b0110 @
1A
#7275000
0A
#7287500
0$
0/
b001 7
b000 9
b001 :
0;
0?
b0000 @
1A
0B
#7300000
0A
#7312500
0-
b001 9
b010 :
1A
#7325000
0A
#7337500
b00000000000000000000000000000000 .
b010 9
b011 :
1A
#7350000
0A
#7362500
1$
b011 9
b100 :
1?
1A
1B
#7375000
0A
#7387500
1-
b00000000000000000000000000000001 .
1/
b100 9
b101 :
1;
1A
#7400000
0A
#7412500
0$
b101 9
b110 :
0?
1A
0B
#7425000
0A
#7437500
0-
b110 9
b111 :
1A
#7450000
0A
#7462500
b00000000000000000000000000000000 .
00
b000 8
b111 9
b000 :
b0111 @
1A
#7475000
0A
#7487500
1$
0/
b000 7
b000 9
b001 :
0;
1?
b0000 @
1A
1B
#7500000
0A
#7512500
1-
b00000000000000000000000000000001 .
b001 9
b010 :
1A
#7525000
0A
#7537500
0$
b010 9
b011 :
0?
1A
0B
#7550000
0A
#7562500
0-
b011 9
b100 :
1A
#7575000
0A
#7587500
b00000000000000000000000000000000 .
1/
b100 9
b101 :
1;
1A
#7600000
0A
#7612500
1$
b101 9
b110 :
1?
1A
1B
#7625000
0A
#7637500
1-
b00000000000000000000000000000001 .
b110 9
b111 :
1A
#7650000
0A
#7662500
0$
10
b11 3
b111 9
b000 :
0?
1A
0B
#7675000
0A
#7687500
0-
0/
00
11
b11 2
b00 3
b000 9
0;
b10 <
0=
1>
1A
#7700000
0A
#7712500
b00000000000000000000000000000000 .
b00 2
b00 <
0>
1A
#7725000
0A
#7737500
1$
1?
1A
1B
#7750000
0A
#7762500
1-
1A
#7775000
0A
#7787500
0$
0?
1A
0B
#7800000
0A
#7812500
0-
1A
#7825000
0A
#7837500
1$
1?
1A
1B
#7850000
0A
#7862500
1-
1A
#7875000
0A
#7887500
0$
0?
1A
0B
#7900000
0A
#7912500
0-
1A
