simulation_log.txt
                   0 : TB: Asserting Reset
              100000 : TB: Deasserting Reset
              125000 : TB: Starting User Domain Test Sequence (Standard Demux, SPI Engine Focus)...
--- Test 1.1: Wait for initial idle state ---
              125000 : TB: Waiting for SPI Engine to be idle...
              175000 : TB: OBI Read Req  : Addr=0x20001008 (Expect Grant: 1)
              175000 : TB: OBI Read Gnt Rcvd: Addr=0x20001008
              175000 [DUT_OBI_DEBUG] req_i=1, we_i=0, addr_i[11:0]=008, gnt_o=1, state_q=IDLE
              175000 [DUT_OBI_DEBUG] req_i=1, we_i=0, addr_i[11:0]=008, gnt_o=1, state_q=IDLE
              175000 [SPI_OBI] req=1 we=0 addr=0x008 → gnt_o=1 state=IDLE
              175000 [UD_IN] Req for Addr=0x20001008 (WE=0) -> Decoded Idx=1
              175000 [UD_TO_SPI_ENG] Req to SPI Eng (idx           1): Addr=0x20001008, WE=0
              175000 [UD_FROM_SPI_ENG] GNT from SPI Eng (idx           1) to Demux
              175000 [DUT_READ_SETUP] Read to STATUS_REG granted this cycle (gnt_for_read_status_comb=1). Latching data 0x00000000. Status: {done=0, busy=0}
              175000 [DUT_OBI_DEBUG] req_i=1, we_i=0, addr_i[11:0]=008, gnt_o=1, state_q=IDLE
              200000 [DUT_OBI_DEBUG] req_i=1, we_i=0, addr_i[11:0]=008, gnt_o=1, state_q=IDLE
              200000 [DUT_OBI_DEBUG] req_i=1, we_i=0, addr_i[11:0]=008, gnt_o=1, state_q=IDLE
              225000 [DUT_OBI_DEBUG] req_i=1, we_i=0, addr_i[11:0]=008, gnt_o=1, state_q=IDLE
              225000 : TB: Waiting for OBI rvalid from Addr=0x20001008...
              225000 [DUT_READ_PATH] Asserting rvalid (was_read_granted_to_status_prev_cycle is true). rdata = 0x00000000
              275000 : TB: OBI Read Data Rcvd: Addr=0x20001008 Data=0x00000000 Err=0 RVALID=1
              275000 [UD_FROM_SPI_ENG] RVALID from SPI Eng (idx           1) to Demux. RDATA=0x00000000
              325000 : TB: SPI Engine is idle. Status: 0x00000000
--- Test 1.2: Write a byte to SPI TX register and start transfer ---
              375000 : TB: OBI Write Req : Addr=0x20001004, Data=0x000000ae, BE=0x0001
              375000 : TB: OBI Write Gnt Rcvd: Addr=0x20001004
              375000 [DUT_OBI_DEBUG] req_i=1, we_i=1, addr_i[11:0]=004, gnt_o=1, state_q=IDLE
              375000 [DUT_OBI_DEBUG] req_i=1, we_i=1, addr_i[11:0]=004, gnt_o=1, state_q=IDLE
              375000 [SPI_OBI] req=1 we=1 addr=0x004 → gnt_o=1 state=IDLE
              375000 [UD_IN] Req for Addr=0x20001004 (WE=1) -> Decoded Idx=1
              375000 [UD_TO_SPI_ENG] Req to SPI Eng (idx           1): Addr=0x20001004, WE=1
              375000 [UD_FROM_SPI_ENG] GNT from SPI Eng (idx           1) to Demux
              375000 [DUT_OBI_WRITE] Write to addr_offset 004 granted. Data LSB: 0xae
              375000 [DUT_OBI_DEBUG] req_i=1, we_i=1, addr_i[11:0]=004, gnt_o=1, state_q=IDLE
              400000 [DUT_OBI_DEBUG] req_i=1, we_i=1, addr_i[11:0]=004, gnt_o=1, state_q=IDLE
              400000 [DUT_OBI_DEBUG] req_i=1, we_i=1, addr_i[11:0]=004, gnt_o=1, state_q=IDLE
              425000 [DUT_OBI_DEBUG] req_i=1, we_i=1, addr_i[11:0]=004, gnt_o=1, state_q=IDLE
              425000 : TB: Performing DUMMY READ after write to 0x20001004. Dummy Read Addr: 0x20001008
              475000 : TB: OBI Read Req  : Addr=0x20001008 (Expect Grant: 1)
              475000 [DUT_OBI_DEBUG] req_i=1, we_i=0, addr_i[11:0]=008, gnt_o=1, state_q=IDLE
              475000 [DUT_OBI_DEBUG] req_i=1, we_i=0, addr_i[11:0]=008, gnt_o=1, state_q=IDLE
              475000 [SPI_OBI] req=1 we=0 addr=0x008 → gnt_o=1 state=IDLE
              475000 [UD_IN] Req for Addr=0x20001008 (WE=0) -> Decoded Idx=1
              475000 [UD_TO_SPI_ENG] Req to SPI Eng (idx           1): Addr=0x20001008, WE=0
              475000 [UD_FROM_SPI_ENG] GNT from SPI Eng (idx           1) to Demux
              475000 [DUT_READ_SETUP] Read to STATUS_REG granted this cycle (gnt_for_read_status_comb=1). Latching data 0x00000000. Status: {done=0, busy=0}
              475000 [DUT_OBI_DEBUG] req_i=1, we_i=0, addr_i[11:0]=008, gnt_o=1, state_q=IDLE
              500000 [DUT_OBI_DEBUG] req_i=1, we_i=0, addr_i[11:0]=008, gnt_o=1, state_q=IDLE
              500000 [DUT_OBI_DEBUG] req_i=1, we_i=0, addr_i[11:0]=008, gnt_o=1, state_q=IDLE
              525000 [DUT_OBI_DEBUG] req_i=1, we_i=0, addr_i[11:0]=008, gnt_o=1, state_q=IDLE
              525000 : TB: OBI Read Gnt Rcvd: Addr=0x20001008
              525000 [DUT_OBI_DEBUG] req_i=1, we_i=0, addr_i[11:0]=008, gnt_o=1, state_q=IDLE
              525000 [SPI_OBI] req=1 we=0 addr=0x008 → gnt_o=1 state=IDLE
              525000 [UD_IN] Req for Addr=0x20001008 (WE=0) -> Decoded Idx=1
              525000 [UD_TO_SPI_ENG] Req to SPI Eng (idx           1): Addr=0x20001008, WE=0
              525000 [UD_FROM_SPI_ENG] GNT from SPI Eng (idx           1) to Demux
              525000 [DUT_READ_SETUP] Read to STATUS_REG granted this cycle (gnt_for_read_status_comb=1). Latching data 0x00000000. Status: {done=0, busy=0}
              525000 [DUT_READ_PATH] Asserting rvalid (was_read_granted_to_status_prev_cycle is true). rdata = 0x00000000
              525000 [DUT_OBI_DEBUG] req_i=1, we_i=0, addr_i[11:0]=008, gnt_o=1, state_q=IDLE
              525000 [DUT_OBI_DEBUG] req_i=1, we_i=0, addr_i[11:0]=008, gnt_o=1, state_q=IDLE
              525000 [DUT_OBI_DEBUG] req_i=1, we_i=0, addr_i[11:0]=008, gnt_o=1, state_q=IDLE
              550000 [DUT_OBI_DEBUG] req_i=1, we_i=0, addr_i[11:0]=008, gnt_o=1, state_q=IDLE
              550000 [DUT_OBI_DEBUG] req_i=1, we_i=0, addr_i[11:0]=008, gnt_o=1, state_q=IDLE
              575000 [DUT_OBI_DEBUG] req_i=1, we_i=0, addr_i[11:0]=008, gnt_o=1, state_q=IDLE
              575000 : TB: Waiting for OBI rvalid from Addr=0x20001008...
              575000 : TB: OBI Read Data Rcvd: Addr=0x20001008 Data=0x00000000 Err=0 RVALID=1
              575000 [UD_FROM_SPI_ENG] RVALID from SPI Eng (idx           1) to Demux. RDATA=0x00000000
              575000 [DUT_READ_PATH] Asserting rvalid (was_read_granted_to_status_prev_cycle is true). rdata = 0x00000000
              625000 : TB: DUMMY READ from 0x20001008 completed. Data: 0x00000000
              625000 [UD_FROM_SPI_ENG] RVALID from SPI Eng (idx           1) to Demux. RDATA=0x00000000
              725000 : TB: OBI Write Req : Addr=0x20001000, Data=0x00000001, BE=0x0001
              725000 : TB: OBI Write Gnt Rcvd: Addr=0x20001000
              725000 [DUT_OBI_DEBUG] req_i=1, we_i=1, addr_i[11:0]=000, gnt_o=1, state_q=IDLE
              725000 [DUT_OBI_DEBUG] req_i=1, we_i=1, addr_i[11:0]=000, gnt_o=1, state_q=IDLE
              725000 [SPI_OBI] req=1 we=1 addr=0x000 → gnt_o=1 state=IDLE
              725000 [UD_IN] Req for Addr=0x20001000 (WE=1) -> Decoded Idx=1
              725000 [UD_TO_SPI_ENG] Req to SPI Eng (idx           1): Addr=0x20001000, WE=1
              725000 [UD_FROM_SPI_ENG] GNT from SPI Eng (idx           1) to Demux
              725000 [DUT_OBI_WRITE] Write to addr_offset 000 granted. Data LSB: 0x01
              725000 [DUT_OBI_DEBUG] req_i=1, we_i=1, addr_i[11:0]=000, gnt_o=1, state_q=IDLE
              750000 [DUT_OBI_DEBUG] req_i=1, we_i=1, addr_i[11:0]=000, gnt_o=1, state_q=IDLE
              750000 [DUT_OBI_DEBUG] req_i=1, we_i=1, addr_i[11:0]=000, gnt_o=1, state_q=IDLE
              775000 [DUT_OBI_DEBUG] req_i=1, we_i=1, addr_i[11:0]=000, gnt_o=1, state_q=IDLE
              775000 : TB: Performing DUMMY READ after write to 0x20001000. Dummy Read Addr: 0x20001008
              775000 [DUT_FSM_DEBUG] State Transition: IDLE -> LOAD
              825000 : TB: OBI Read Req  : Addr=0x20001008 (Expect Grant: 1)
              825000 [DUT_OBI_DEBUG] req_i=1, we_i=0, addr_i[11:0]=008, gnt_o=1, state_q=LOAD
              825000 [DUT_OBI_DEBUG] req_i=1, we_i=0, addr_i[11:0]=008, gnt_o=1, state_q=LOAD
              825000 [SPI_OBI] req=1 we=0 addr=0x008 → gnt_o=1 state=LOAD
              825000 [UD_IN] Req for Addr=0x20001008 (WE=0) -> Decoded Idx=1
              825000 [UD_TO_SPI_ENG] Req to SPI Eng (idx           1): Addr=0x20001008, WE=0
              825000 [UD_FROM_SPI_ENG] GNT from SPI Eng (idx           1) to Demux
              825000 [DUT_FSM_DEBUG] State Transition: LOAD -> SHIFT
              825000 [DUT_READ_SETUP] Read to STATUS_REG granted this cycle (gnt_for_read_status_comb=1). Latching data 0x00000001. Status: {done=0, busy=1}
              825000 [DUT_OBI_DEBUG] req_i=1, we_i=0, addr_i[11:0]=008, gnt_o=1, state_q=SHIFT
              850000 [DUT_OBI_DEBUG] req_i=1, we_i=0, addr_i[11:0]=008, gnt_o=1, state_q=SHIFT
              850000 [DUT_OBI_DEBUG] req_i=1, we_i=0, addr_i[11:0]=008, gnt_o=1, state_q=SHIFT
              875000 [DUT_OBI_DEBUG] req_i=1, we_i=0, addr_i[11:0]=008, gnt_o=1, state_q=SHIFT
              875000 : TB: OBI Read Gnt Rcvd: Addr=0x20001008
              875000 [DUT_OBI_DEBUG] req_i=1, we_i=0, addr_i[11:0]=008, gnt_o=1, state_q=SHIFT
              875000 [SPI_OBI] req=1 we=0 addr=0x008 → gnt_o=1 state=SHIFT
              875000 [UD_IN] Req for Addr=0x20001008 (WE=0) -> Decoded Idx=1
              875000 [UD_TO_SPI_ENG] Req to SPI Eng (idx           1): Addr=0x20001008, WE=0
              875000 [UD_FROM_SPI_ENG] GNT from SPI Eng (idx           1) to Demux
              875000 [DUT_READ_SETUP] Read to STATUS_REG granted this cycle (gnt_for_read_status_comb=1). Latching data 0x00000001. Status: {done=0, busy=1}
              875000 [DUT_READ_PATH] Asserting rvalid (was_read_granted_to_status_prev_cycle is true). rdata = 0x00000001
              875000 [DUT_OBI_DEBUG] req_i=1, we_i=0, addr_i[11:0]=008, gnt_o=1, state_q=SHIFT
              875000 [DUT_OBI_DEBUG] req_i=1, we_i=0, addr_i[11:0]=008, gnt_o=1, state_q=SHIFT
              875000 [DUT_OBI_DEBUG] req_i=1, we_i=0, addr_i[11:0]=008, gnt_o=1, state_q=SHIFT
              900000 [DUT_OBI_DEBUG] req_i=1, we_i=0, addr_i[11:0]=008, gnt_o=1, state_q=SHIFT
              900000 [DUT_OBI_DEBUG] req_i=1, we_i=0, addr_i[11:0]=008, gnt_o=1, state_q=SHIFT
              925000 [DUT_OBI_DEBUG] req_i=1, we_i=0, addr_i[11:0]=008, gnt_o=1, state_q=SHIFT
              925000 : TB: Waiting for OBI rvalid from Addr=0x20001008...
              925000 : TB: OBI Read Data Rcvd: Addr=0x20001008 Data=0x00000001 Err=0 RVALID=1
              925000 [UD_FROM_SPI_ENG] RVALID from SPI Eng (idx           1) to Demux. RDATA=0x00000001
              925000 [DUT_READ_PATH] Asserting rvalid (was_read_granted_to_status_prev_cycle is true). rdata = 0x00000001
              975000 : TB: DUMMY READ from 0x20001008 completed. Data: 0x00000001
              975000 [UD_FROM_SPI_ENG] RVALID from SPI Eng (idx           1) to Demux. RDATA=0x00000001
--- Test 1.3: Wait for SPI engine to complete and become idle ---
             1025000 : TB: Waiting for SPI Engine to be idle...
             1075000 : TB: OBI Read Req  : Addr=0x20001008 (Expect Grant: 1)
             1075000 : TB: OBI Read Gnt Rcvd: Addr=0x20001008
             1075000 [DUT_OBI_DEBUG] req_i=1, we_i=0, addr_i[11:0]=008, gnt_o=1, state_q=SHIFT
             1075000 [DUT_OBI_DEBUG] req_i=1, we_i=0, addr_i[11:0]=008, gnt_o=1, state_q=SHIFT
             1075000 [SPI_OBI] req=1 we=0 addr=0x008 → gnt_o=1 state=SHIFT
             1075000 [UD_IN] Req for Addr=0x20001008 (WE=0) -> Decoded Idx=1
             1075000 [UD_TO_SPI_ENG] Req to SPI Eng (idx           1): Addr=0x20001008, WE=0
             1075000 [UD_FROM_SPI_ENG] GNT from SPI Eng (idx           1) to Demux
             1075000 [DUT_READ_SETUP] Read to STATUS_REG granted this cycle (gnt_for_read_status_comb=1). Latching data 0x00000001. Status: {done=0, busy=1}
             1075000 [DUT_OBI_DEBUG] req_i=1, we_i=0, addr_i[11:0]=008, gnt_o=1, state_q=SHIFT
             1100000 [DUT_OBI_DEBUG] req_i=1, we_i=0, addr_i[11:0]=008, gnt_o=1, state_q=SHIFT
             1100000 [DUT_OBI_DEBUG] req_i=1, we_i=0, addr_i[11:0]=008, gnt_o=1, state_q=SHIFT
             1125000 [DUT_OBI_DEBUG] req_i=1, we_i=0, addr_i[11:0]=008, gnt_o=1, state_q=SHIFT
             1125000 : TB: Waiting for OBI rvalid from Addr=0x20001008...
             1125000 [DUT_READ_PATH] Asserting rvalid (was_read_granted_to_status_prev_cycle is true). rdata = 0x00000001
             1175000 : TB: OBI Read Data Rcvd: Addr=0x20001008 Data=0x00000001 Err=0 RVALID=1
             1175000 [UD_FROM_SPI_ENG] RVALID from SPI Eng (idx           1) to Demux. RDATA=0x00000001
             1325000 : TB: OBI Read Req  : Addr=0x20001008 (Expect Grant: 1)
             1325000 : TB: OBI Read Gnt Rcvd: Addr=0x20001008
             1325000 [DUT_OBI_DEBUG] req_i=1, we_i=0, addr_i[11:0]=008, gnt_o=1, state_q=SHIFT
             1325000 [DUT_OBI_DEBUG] req_i=1, we_i=0, addr_i[11:0]=008, gnt_o=1, state_q=SHIFT
             1325000 [SPI_OBI] req=1 we=0 addr=0x008 → gnt_o=1 state=SHIFT
             1325000 [UD_IN] Req for Addr=0x20001008 (WE=0) -> Decoded Idx=1
             1325000 [UD_TO_SPI_ENG] Req to SPI Eng (idx           1): Addr=0x20001008, WE=0
             1325000 [UD_FROM_SPI_ENG] GNT from SPI Eng (idx           1) to Demux
             1325000 [DUT_READ_SETUP] Read to STATUS_REG granted this cycle (gnt_for_read_status_comb=1). Latching data 0x00000001. Status: {done=0, busy=1}
             1325000 [DUT_OBI_DEBUG] req_i=1, we_i=0, addr_i[11:0]=008, gnt_o=1, state_q=SHIFT
             1350000 [DUT_OBI_DEBUG] req_i=1, we_i=0, addr_i[11:0]=008, gnt_o=1, state_q=SHIFT
             1350000 [DUT_OBI_DEBUG] req_i=1, we_i=0, addr_i[11:0]=008, gnt_o=1, state_q=SHIFT
             1375000 [DUT_OBI_DEBUG] req_i=1, we_i=0, addr_i[11:0]=008, gnt_o=1, state_q=SHIFT
             1375000 : TB: Waiting for OBI rvalid from Addr=0x20001008...
             1375000 [DUT_READ_PATH] Asserting rvalid (was_read_granted_to_status_prev_cycle is true). rdata = 0x00000001
             1425000 : TB: OBI Read Data Rcvd: Addr=0x20001008 Data=0x00000001 Err=0 RVALID=1
             1425000 [UD_FROM_SPI_ENG] RVALID from SPI Eng (idx           1) to Demux. RDATA=0x00000001
             1575000 : TB: OBI Read Req  : Addr=0x20001008 (Expect Grant: 1)
             1575000 : TB: OBI Read Gnt Rcvd: Addr=0x20001008
             1575000 [DUT_OBI_DEBUG] req_i=1, we_i=0, addr_i[11:0]=008, gnt_o=1, state_q=SHIFT
             1575000 [DUT_OBI_DEBUG] req_i=1, we_i=0, addr_i[11:0]=008, gnt_o=1, state_q=SHIFT
             1575000 [SPI_OBI] req=1 we=0 addr=0x008 → gnt_o=1 state=SHIFT
             1575000 [UD_IN] Req for Addr=0x20001008 (WE=0) -> Decoded Idx=1
             1575000 [UD_TO_SPI_ENG] Req to SPI Eng (idx           1): Addr=0x20001008, WE=0
             1575000 [UD_FROM_SPI_ENG] GNT from SPI Eng (idx           1) to Demux
             1575000 [DUT_READ_SETUP] Read to STATUS_REG granted this cycle (gnt_for_read_status_comb=1). Latching data 0x00000001. Status: {done=0, busy=1}
             1575000 [DUT_OBI_DEBUG] req_i=1, we_i=0, addr_i[11:0]=008, gnt_o=1, state_q=SHIFT
             1600000 [DUT_OBI_DEBUG] req_i=1, we_i=0, addr_i[11:0]=008, gnt_o=1, state_q=SHIFT
             1600000 [DUT_OBI_DEBUG] req_i=1, we_i=0, addr_i[11:0]=008, gnt_o=1, state_q=SHIFT
             1625000 [DUT_OBI_DEBUG] req_i=1, we_i=0, addr_i[11:0]=008, gnt_o=1, state_q=SHIFT
             1625000 : TB: Waiting for OBI rvalid from Addr=0x20001008...
             1625000 [DUT_READ_PATH] Asserting rvalid (was_read_granted_to_status_prev_cycle is true). rdata = 0x00000001
             1675000 : TB: OBI Read Data Rcvd: Addr=0x20001008 Data=0x00000001 Err=0 RVALID=1
             1675000 [UD_FROM_SPI_ENG] RVALID from SPI Eng (idx           1) to Demux. RDATA=0x00000001
             1825000 : TB: OBI Read Req  : Addr=0x20001008 (Expect Grant: 1)
             1825000 : TB: OBI Read Gnt Rcvd: Addr=0x20001008
             1825000 [DUT_OBI_DEBUG] req_i=1, we_i=0, addr_i[11:0]=008, gnt_o=1, state_q=SHIFT
             1825000 [DUT_OBI_DEBUG] req_i=1, we_i=0, addr_i[11:0]=008, gnt_o=1, state_q=SHIFT
             1825000 [SPI_OBI] req=1 we=0 addr=0x008 → gnt_o=1 state=SHIFT
             1825000 [UD_IN] Req for Addr=0x20001008 (WE=0) -> Decoded Idx=1
             1825000 [UD_TO_SPI_ENG] Req to SPI Eng (idx           1): Addr=0x20001008, WE=0
             1825000 [UD_FROM_SPI_ENG] GNT from SPI Eng (idx           1) to Demux
             1825000 [DUT_READ_SETUP] Read to STATUS_REG granted this cycle (gnt_for_read_status_comb=1). Latching data 0x00000001. Status: {done=0, busy=1}
             1825000 [DUT_OBI_DEBUG] req_i=1, we_i=0, addr_i[11:0]=008, gnt_o=1, state_q=SHIFT
             1850000 [DUT_OBI_DEBUG] req_i=1, we_i=0, addr_i[11:0]=008, gnt_o=1, state_q=SHIFT
             1850000 [DUT_OBI_DEBUG] req_i=1, we_i=0, addr_i[11:0]=008, gnt_o=1, state_q=SHIFT
             1875000 [DUT_OBI_DEBUG] req_i=1, we_i=0, addr_i[11:0]=008, gnt_o=1, state_q=SHIFT
             1875000 : TB: Waiting for OBI rvalid from Addr=0x20001008...
             1875000 [DUT_READ_PATH] Asserting rvalid (was_read_granted_to_status_prev_cycle is true). rdata = 0x00000001
             1925000 : TB: OBI Read Data Rcvd: Addr=0x20001008 Data=0x00000001 Err=0 RVALID=1
             1925000 [UD_FROM_SPI_ENG] RVALID from SPI Eng (idx           1) to Demux. RDATA=0x00000001
             2075000 : TB: OBI Read Req  : Addr=0x20001008 (Expect Grant: 1)
             2075000 : TB: OBI Read Gnt Rcvd: Addr=0x20001008
             2075000 [DUT_OBI_DEBUG] req_i=1, we_i=0, addr_i[11:0]=008, gnt_o=1, state_q=SHIFT
             2075000 [DUT_OBI_DEBUG] req_i=1, we_i=0, addr_i[11:0]=008, gnt_o=1, state_q=SHIFT
             2075000 [SPI_OBI] req=1 we=0 addr=0x008 → gnt_o=1 state=SHIFT
             2075000 [UD_IN] Req for Addr=0x20001008 (WE=0) -> Decoded Idx=1
             2075000 [UD_TO_SPI_ENG] Req to SPI Eng (idx           1): Addr=0x20001008, WE=0
             2075000 [UD_FROM_SPI_ENG] GNT from SPI Eng (idx           1) to Demux
             2075000 [DUT_READ_SETUP] Read to STATUS_REG granted this cycle (gnt_for_read_status_comb=1). Latching data 0x00000001. Status: {done=0, busy=1}
             2075000 [DUT_OBI_DEBUG] req_i=1, we_i=0, addr_i[11:0]=008, gnt_o=1, state_q=SHIFT
             2100000 [DUT_OBI_DEBUG] req_i=1, we_i=0, addr_i[11:0]=008, gnt_o=1, state_q=SHIFT
             2100000 [DUT_OBI_DEBUG] req_i=1, we_i=0, addr_i[11:0]=008, gnt_o=1, state_q=SHIFT
             2125000 [DUT_OBI_DEBUG] req_i=1, we_i=0, addr_i[11:0]=008, gnt_o=1, state_q=SHIFT
             2125000 : TB: Waiting for OBI rvalid from Addr=0x20001008...
             2125000 [DUT_READ_PATH] Asserting rvalid (was_read_granted_to_status_prev_cycle is true). rdata = 0x00000001
             2175000 : TB: OBI Read Data Rcvd: Addr=0x20001008 Data=0x00000001 Err=0 RVALID=1
             2175000 [UD_FROM_SPI_ENG] RVALID from SPI Eng (idx           1) to Demux. RDATA=0x00000001
             2325000 : TB: OBI Read Req  : Addr=0x20001008 (Expect Grant: 1)
             2325000 : TB: OBI Read Gnt Rcvd: Addr=0x20001008
             2325000 [DUT_OBI_DEBUG] req_i=1, we_i=0, addr_i[11:0]=008, gnt_o=1, state_q=SHIFT
             2325000 [DUT_OBI_DEBUG] req_i=1, we_i=0, addr_i[11:0]=008, gnt_o=1, state_q=SHIFT
             2325000 [SPI_OBI] req=1 we=0 addr=0x008 → gnt_o=1 state=SHIFT
             2325000 [UD_IN] Req for Addr=0x20001008 (WE=0) -> Decoded Idx=1
             2325000 [UD_TO_SPI_ENG] Req to SPI Eng (idx           1): Addr=0x20001008, WE=0
             2325000 [UD_FROM_SPI_ENG] GNT from SPI Eng (idx           1) to Demux
             2325000 [DUT_READ_SETUP] Read to STATUS_REG granted this cycle (gnt_for_read_status_comb=1). Latching data 0x00000001. Status: {done=0, busy=1}
             2325000 [DUT_OBI_DEBUG] req_i=1, we_i=0, addr_i[11:0]=008, gnt_o=1, state_q=SHIFT
             2350000 [DUT_OBI_DEBUG] req_i=1, we_i=0, addr_i[11:0]=008, gnt_o=1, state_q=SHIFT
             2350000 [DUT_OBI_DEBUG] req_i=1, we_i=0, addr_i[11:0]=008, gnt_o=1, state_q=SHIFT
             2375000 [DUT_OBI_DEBUG] req_i=1, we_i=0, addr_i[11:0]=008, gnt_o=1, state_q=SHIFT
             2375000 : TB: Waiting for OBI rvalid from Addr=0x20001008...
             2375000 [DUT_READ_PATH] Asserting rvalid (was_read_granted_to_status_prev_cycle is true). rdata = 0x00000001
             2425000 : TB: OBI Read Data Rcvd: Addr=0x20001008 Data=0x00000001 Err=0 RVALID=1
             2425000 [UD_FROM_SPI_ENG] RVALID from SPI Eng (idx           1) to Demux. RDATA=0x00000001
             2425000 [DUT_FSM_DEBUG] State Transition: SHIFT -> COMPLETE
             2475000 [DUT_FSM_DEBUG] State Transition: COMPLETE -> IDLE
             2575000 : TB: OBI Read Req  : Addr=0x20001008 (Expect Grant: 1)
             2575000 : TB: OBI Read Gnt Rcvd: Addr=0x20001008
             2575000 [DUT_OBI_DEBUG] req_i=1, we_i=0, addr_i[11:0]=008, gnt_o=1, state_q=IDLE
             2575000 [DUT_OBI_DEBUG] req_i=1, we_i=0, addr_i[11:0]=008, gnt_o=1, state_q=IDLE
             2575000 [SPI_OBI] req=1 we=0 addr=0x008 → gnt_o=1 state=IDLE
             2575000 [UD_IN] Req for Addr=0x20001008 (WE=0) -> Decoded Idx=1
             2575000 [UD_TO_SPI_ENG] Req to SPI Eng (idx           1): Addr=0x20001008, WE=0
             2575000 [UD_FROM_SPI_ENG] GNT from SPI Eng (idx           1) to Demux
             2575000 [DUT_READ_SETUP] Read to STATUS_REG granted this cycle (gnt_for_read_status_comb=1). Latching data 0x00000000. Status: {done=0, busy=0}
             2575000 [DUT_OBI_DEBUG] req_i=1, we_i=0, addr_i[11:0]=008, gnt_o=1, state_q=IDLE
             2600000 [DUT_OBI_DEBUG] req_i=1, we_i=0, addr_i[11:0]=008, gnt_o=1, state_q=IDLE
             2600000 [DUT_OBI_DEBUG] req_i=1, we_i=0, addr_i[11:0]=008, gnt_o=1, state_q=IDLE
             2625000 [DUT_OBI_DEBUG] req_i=1, we_i=0, addr_i[11:0]=008, gnt_o=1, state_q=IDLE
             2625000 : TB: Waiting for OBI rvalid from Addr=0x20001008...
             2625000 [DUT_READ_PATH] Asserting rvalid (was_read_granted_to_status_prev_cycle is true). rdata = 0x00000000
             2675000 : TB: OBI Read Data Rcvd: Addr=0x20001008 Data=0x00000000 Err=0 RVALID=1
             2675000 [UD_FROM_SPI_ENG] RVALID from SPI Eng (idx           1) to Demux. RDATA=0x00000000
             2725000 : TB: SPI Engine is idle. Status: 0x00000000
--- SPI Engine byte 0xAE processed ---
--- Test 1.4: Write another byte (0x55) and start ---
             3025000 : TB: OBI Write Req : Addr=0x20001004, Data=0x00000055, BE=0x0001
             3025000 : TB: OBI Write Gnt Rcvd: Addr=0x20001004
             3025000 [DUT_OBI_DEBUG] req_i=1, we_i=1, addr_i[11:0]=004, gnt_o=1, state_q=IDLE
             3025000 [DUT_OBI_DEBUG] req_i=1, we_i=1, addr_i[11:0]=004, gnt_o=1, state_q=IDLE
             3025000 [SPI_OBI] req=1 we=1 addr=0x004 → gnt_o=1 state=IDLE
             3025000 [UD_IN] Req for Addr=0x20001004 (WE=1) -> Decoded Idx=1
             3025000 [UD_TO_SPI_ENG] Req to SPI Eng (idx           1): Addr=0x20001004, WE=1
             3025000 [UD_FROM_SPI_ENG] GNT from SPI Eng (idx           1) to Demux
             3025000 [DUT_OBI_WRITE] Write to addr_offset 004 granted. Data LSB: 0x55
             3025000 [DUT_OBI_DEBUG] req_i=1, we_i=1, addr_i[11:0]=004, gnt_o=1, state_q=IDLE
             3050000 [DUT_OBI_DEBUG] req_i=1, we_i=1, addr_i[11:0]=004, gnt_o=1, state_q=IDLE
             3050000 [DUT_OBI_DEBUG] req_i=1, we_i=1, addr_i[11:0]=004, gnt_o=1, state_q=IDLE
             3075000 [DUT_OBI_DEBUG] req_i=1, we_i=1, addr_i[11:0]=004, gnt_o=1, state_q=IDLE
             3075000 : TB: Performing DUMMY READ after write to 0x20001004. Dummy Read Addr: 0x20001008
             3125000 : TB: OBI Read Req  : Addr=0x20001008 (Expect Grant: 1)
             3125000 [DUT_OBI_DEBUG] req_i=1, we_i=0, addr_i[11:0]=008, gnt_o=1, state_q=IDLE
             3125000 [DUT_OBI_DEBUG] req_i=1, we_i=0, addr_i[11:0]=008, gnt_o=1, state_q=IDLE
             3125000 [SPI_OBI] req=1 we=0 addr=0x008 → gnt_o=1 state=IDLE
             3125000 [UD_IN] Req for Addr=0x20001008 (WE=0) -> Decoded Idx=1
             3125000 [UD_TO_SPI_ENG] Req to SPI Eng (idx           1): Addr=0x20001008, WE=0
             3125000 [UD_FROM_SPI_ENG] GNT from SPI Eng (idx           1) to Demux
             3125000 [DUT_READ_SETUP] Read to STATUS_REG granted this cycle (gnt_for_read_status_comb=1). Latching data 0x00000000. Status: {done=0, busy=0}
             3125000 [DUT_OBI_DEBUG] req_i=1, we_i=0, addr_i[11:0]=008, gnt_o=1, state_q=IDLE
             3150000 [DUT_OBI_DEBUG] req_i=1, we_i=0, addr_i[11:0]=008, gnt_o=1, state_q=IDLE
             3150000 [DUT_OBI_DEBUG] req_i=1, we_i=0, addr_i[11:0]=008, gnt_o=1, state_q=IDLE
             3175000 [DUT_OBI_DEBUG] req_i=1, we_i=0, addr_i[11:0]=008, gnt_o=1, state_q=IDLE
             3175000 : TB: OBI Read Gnt Rcvd: Addr=0x20001008
             3175000 [DUT_OBI_DEBUG] req_i=1, we_i=0, addr_i[11:0]=008, gnt_o=1, state_q=IDLE
             3175000 [SPI_OBI] req=1 we=0 addr=0x008 → gnt_o=1 state=IDLE
             3175000 [UD_IN] Req for Addr=0x20001008 (WE=0) -> Decoded Idx=1
             3175000 [UD_TO_SPI_ENG] Req to SPI Eng (idx           1): Addr=0x20001008, WE=0
             3175000 [UD_FROM_SPI_ENG] GNT from SPI Eng (idx           1) to Demux
             3175000 [DUT_READ_SETUP] Read to STATUS_REG granted this cycle (gnt_for_read_status_comb=1). Latching data 0x00000000. Status: {done=0, busy=0}
             3175000 [DUT_READ_PATH] Asserting rvalid (was_read_granted_to_status_prev_cycle is true). rdata = 0x00000000
             3175000 [DUT_OBI_DEBUG] req_i=1, we_i=0, addr_i[11:0]=008, gnt_o=1, state_q=IDLE
             3175000 [DUT_OBI_DEBUG] req_i=1, we_i=0, addr_i[11:0]=008, gnt_o=1, state_q=IDLE
             3175000 [DUT_OBI_DEBUG] req_i=1, we_i=0, addr_i[11:0]=008, gnt_o=1, state_q=IDLE
             3200000 [DUT_OBI_DEBUG] req_i=1, we_i=0, addr_i[11:0]=008, gnt_o=1, state_q=IDLE
             3200000 [DUT_OBI_DEBUG] req_i=1, we_i=0, addr_i[11:0]=008, gnt_o=1, state_q=IDLE
             3225000 [DUT_OBI_DEBUG] req_i=1, we_i=0, addr_i[11:0]=008, gnt_o=1, state_q=IDLE
             3225000 : TB: Waiting for OBI rvalid from Addr=0x20001008...
             3225000 : TB: OBI Read Data Rcvd: Addr=0x20001008 Data=0x00000000 Err=0 RVALID=1
             3225000 [UD_FROM_SPI_ENG] RVALID from SPI Eng (idx           1) to Demux. RDATA=0x00000000
             3225000 [DUT_READ_PATH] Asserting rvalid (was_read_granted_to_status_prev_cycle is true). rdata = 0x00000000
             3275000 : TB: DUMMY READ from 0x20001008 completed. Data: 0x00000000
             3275000 [UD_FROM_SPI_ENG] RVALID from SPI Eng (idx           1) to Demux. RDATA=0x00000000
             3375000 : TB: OBI Write Req : Addr=0x20001000, Data=0x00000001, BE=0x0001
             3375000 : TB: OBI Write Gnt Rcvd: Addr=0x20001000
             3375000 [DUT_OBI_DEBUG] req_i=1, we_i=1, addr_i[11:0]=000, gnt_o=1, state_q=IDLE
