tb_obi_spi_peripheral.vcd
$version Generated by VerilatedVcd $end
$timescale 1ps $end
 $scope module $rootio $end
 $upscope $end
 $scope module tb_obi_spi_peripheral $end
  $var real 64 B CLK_PERIOD $end
  $var real 64 D RESET_DURATION $end
  $var wire 32 F OBI_TIMEOUT [31:0] $end
  $var wire 32 G SPI_DONE_TIMEOUT [31:0] $end
  $var wire 12 H SPI_CTRL_ADDR_OFFSET [11:0] $end
  $var wire 12 I SPI_TX_ADDR_OFFSET [11:0] $end
  $var wire 12 J SPI_STATUS_ADDR_OFFSET [11:0] $end
  $var wire 1 = clk_i $end
  $var wire 1 # rst_ni $end
  $var wire 1 $ req_i $end
  $var wire 1 % we_i $end
  $var wire 4 & be_i [3:0] $end
  $var wire 32 ' addr_i [31:0] $end
  $var wire 32 ( wdata_i [31:0] $end
  $var wire 1 > gnt_o $end
  $var wire 1 * rvalid_o $end
  $var wire 32 + rdata_o [31:0] $end
  $var wire 1 , sck_o $end
  $var wire 1 - mosi_o $end
  $var wire 1 K cs_no $end
  $var wire 1 ) req_ongoing $end
  $scope module dut $end
   $var wire 1 = clk_i $end
   $var wire 1 # rst_ni $end
   $var wire 1 $ req_i $end
   $var wire 1 % we_i $end
   $var wire 4 & be_i [3:0] $end
   $var wire 32 ' addr_i [31:0] $end
   $var wire 32 ( wdata_i [31:0] $end
   $var wire 1 > gnt_o $end
   $var wire 1 * rvalid_o $end
   $var wire 32 + rdata_o [31:0] $end
   $var wire 1 , sck_o $end
   $var wire 1 - mosi_o $end
   $var wire 1 K cs_no $end
   $var wire 32 L ADDR_WIDTH [31:0] $end
   $var wire 32 L DATA_WIDTH [31:0] $end
   $var wire 32 M SPI_DATA_BITS [31:0] $end
   $var wire 32 N SPI_CLK_DIVIDER [31:0] $end
   $var wire 12 H SPI_CTRL_ADDR_OFFSET [11:0] $end
   $var wire 12 I SPI_TX_ADDR_OFFSET [11:0] $end
   $var wire 12 J SPI_STATUS_ADDR_OFFSET [11:0] $end
   $var wire 2 . state_q [1:0] $end
   $var wire 2 / state_d [1:0] $end
   $var wire 1 0 start_flag_q $end
   $var wire 1 1 start_flag_d $end
   $var wire 8 2 tx_data_q [7:0] $end
   $var wire 8 2 tx_data_d [7:0] $end
   $var wire 3 3 bit_cnt_q [2:0] $end
   $var wire 3 4 bit_cnt_d [2:0] $end
   $var wire 2 5 spi_clk_cnt_q [1:0] $end
   $var wire 2 6 spi_clk_cnt_d [1:0] $end
   $var wire 1 * rvalid_q_internal $end
   $var wire 32 + rdata_q_internal [31:0] $end
   $var wire 1 7 read_granted_in_prev_cycle $end
   $var wire 32 8 data_latched_on_grant [31:0] $end
   $var wire 1 9 spi_clk_phase $end
   $var wire 2 : status_bits [1:0] $end
   $var wire 1 ; busy $end
   $var wire 1 < done_q $end
   $var wire 1 ? gnt_for_read_comb $end
   $var wire 1 @ gnt_for_write_comb $end
   $var wire 1 A read_to_status_reg_granted_this_cycle $end
  $upscope $end
 $upscope $end
$enddefinitions $end


#0
0#
0$
0%
b0000 &
b00000000000000000000000000000000 '
b00000000000000000000000000000000 (
0)
0*
b00000000000000000000000000000000 +
0,
0-
b00 .
b00 /
00
01
b00000000 2
b000 3
b000 4
b00 5
b00 6
07
b00000000000000000000000000000000 8
09
b00 :
0;
0<
0=
0>
0?
0@
0A
r49.99999999999999 B
r99.99999999999999 D
b00000000000000000000011111010000 F
b00000000000000000010011100010000 G
b000000000000 H
b000000000100 I
b000000001000 J
0K
b00000000000000000000000000100000 L
b00000000000000000000000000001000 M
b00000000000000000000000000000010 N
#25000
1=
#50000
0=
#75000
1=
#100000
1#
0=
#125000
1=
#150000
0=
#175000
1=
#200000
0=
#225000
1$
b1111 &
b00000000000000000000000000001000 '
1)
17
1=
1>
1?
1A
#250000
0=
#275000
1*
1=
#300000
0=
#325000
0$
0)
07
1=
0>
0?
0A
#350000
0=
#375000
0*
1=
#400000
0=
#425000
1$
1)
17
1=
1>
1?
1A
#450000
0=
#475000
1*
1=
#500000
0=
#525000
0$
0)
07
1=
0>
0?
0A
#550000
0=
#575000
0*
1=
#600000
0=
#625000
1$
1%
b0001 &
b00000000000000000000000000000100 '
b00000000000000000000000010101010 (
1)
b10101010 2
1=
1>
1@
#650000
0=
#675000
1=
#700000
0=
#725000
0$
0)
1=
0>
0@
#750000
0=
#775000
1=
#800000
0=
#825000
1$
b00000000000000000000000000000000 '
b00000000000000000000000000000001 (
1)
b01 /
10
1=
1>
1@
#850000
0=
#875000
1-
b01 .
b10 /
11
b111 4
b01 :
1;
1=
0>
0@
#900000
0=
#925000
0$
0)
b10 .
b111 3
b01 6
1=
#950000
0=
#975000
b01 5
b10 6
1=
#1000000
0=
#1025000
1,
b10 5
b11 6
19
1=
#1050000
0=
#1075000
1$
0%
b1111 &
b00000000000000000000000000001000 '
1)
b110 4
b11 5
b00 6
17
b00000000000000000000000000000001 8
1=
1>
1?
1A
#1100000
0=
#1125000
1*
b00000000000000000000000000000001 +
0,
0-
b110 3
b00 5
b01 6
09
1=
#1150000
0=
#1175000
0$
0)
b01 5
b10 6
07
1=
0>
0?
0A
#1200000
0=
#1225000
0*
1,
b10 5
b11 6
19
1=
#1250000
0=
#1275000
b00000000000000000000000000000000 +
b101 4
b11 5
b00 6
1=
#1300000
0=
#1325000
1$
1)
0,
1-
b101 3
b00 5
b01 6
17
09
1=
1>
1?
1A
#1350000
0=
#1375000
1*
b00000000000000000000000000000001 +
b01 5
b10 6
1=
#1400000
0=
#1425000
0$
0)
1,
b10 5
b11 6
07
19
1=
0>
0?
0A
#1450000
0=
#1475000
0*
b100 4
b11 5
b00 6
1=
#1500000
0=
#1525000
b00000000000000000000000000000000 +
0,
0-
b100 3
b00 5
b01 6
09
1=
#1550000
0=
#1575000
1$
1)
b01 5
b10 6
17
1=
1>
1?
1A
#1600000
0=
#1625000
1*
b00000000000000000000000000000001 +
1,
b10 5
b11 6
19
1=
#1650000
0=
#1675000
0$
0)
b011 4
b11 5
b00 6
07
1=
0>
0?
0A
#1700000
0=
#1725000
0*
0,
1-
b011 3
b00 5
b01 6
09
1=
#1750000
0=
#1775000
b00000000000000000000000000000000 +
b01 5
b10 6
1=
#1800000
0=
#1825000
1$
1)
1,
b10 5
b11 6
17
19
1=
1>
1?
1A
#1850000
0=
#1875000
1*
b00000000000000000000000000000001 +
b010 4
b11 5
b00 6
1=
#1900000
0=
#1925000
0$
0)
0,
0-
b010 3
b00 5
b01 6
07
09
1=
0>
0?
0A
#1950000
0=
#1975000
0*
b01 5
b10 6
1=
#2000000
0=
#2025000
b00000000000000000000000000000000 +
1,
b10 5
b11 6
19
1=
#2050000
0=
#2075000
1$
1)
b001 4
b11 5
b00 6
17
1=
1>
1?
1A
#2100000
0=
#2125000
1*
b00000000000000000000000000000001 +
0,
1-
b001 3
b00 5
b01 6
09
1=
#2150000
0=
#2175000
0$
0)
b01 5
b10 6
07
1=
0>
0?
0A
#2200000
0=
#2225000
0*
1,
b10 5
b11 6
19
1=
#2250000
0=
#2275000
b00000000000000000000000000000000 +
b000 4
b11 5
b00 6
1=
#2300000
0=
#2325000
1$
1)
0,
0-
b000 3
b00 5
b01 6
17
09
1=
1>
1?
1A
#2350000
0=
#2375000
1*
b00000000000000000000000000000001 +
b01 5
b10 6
1=
#2400000
0=
#2425000
0$
0)
1,
b10 5
b11 6
07
19
1=
0>
0?
0A
#2450000
0=
#2475000
0*
b11 /
b11 5
b00 6
1=
#2500000
0=
#2525000
b00000000000000000000000000000000 +
0,
b11 .
b00 /
b00 5
09
b10 :
0;
1<
1=
#2550000
0=
#2575000
1$
1)
b00 .
b01 /
01
17
b00000000000000000000000000000010 8
b00 :
0<
1=
1>
1?
1A
#2600000
0=
#2625000
1*
b00000000000000000000000000000010 +
1-
b01 .
b10 /
00
b111 4
b00000000000000000000000000000000 8
b01 :
1;
1=
#2650000
0=
#2675000
0$
0)
b00000000000000000000000000000000 +
b10 .
b111 3
b01 6
07
1=
0>
0?
0A
#2700000
0=
#2725000
0*
b01 5
b10 6
1=
#2750000
0=
#2775000
1$
1)
1,
b10 5
b11 6
17
b00000000000000000000000000000001 8
19
1=
1>
1?
1A
#2800000
0=
#2825000
1*
b00000000000000000000000000000001 +
b110 4
b11 5
b00 6
1=
#2850000
0=
#2875000
0$
0)
0,
0-
b110 3
b00 5
b01 6
07
09
1=
0>
0?
0A
#2900000
0=
#2925000
0*
b01 5
b10 6
1=
#2950000
0=
#2975000
b00000000000000000000000000000000 +
1,
b10 5
b11 6
19
1=
#3000000
0=
#3025000
b101 4
b11 5
b00 6
1=
#3050000
0=
#3075000
0,
1-
b101 3
b00 5
b01 6
09
1=
#3100000
0=
#3125000
b01 5
b10 6
1=
#3150000
0=
#3175000
1,
b10 5
b11 6
19
1=
#3200000
0=
#3225000
b100 4
b11 5
b00 6
1=
#3250000
0=
#3275000
1$
1)
0,
0-
b100 3
b00 5
b01 6
17
09
1=
1>
1?
1A
#3300000
0=
#3325000
1*
b00000000000000000000000000000001 +
b01 5
b10 6
1=
#3350000
0=
#3375000
0$
0)
1,
b10 5
b11 6
07
19
1=
0>
0?
0A
#3400000
0=
#3425000
0*
b011 4
b11 5
b00 6
1=
#3450000
0=
#3475000
b00000000000000000000000000000000 +
0,
1-
b011 3
b00 5
b01 6
09
1=
#3500000
0=
#3525000
1$
1)
b01 5
b10 6
17
1=
1>
1?
1A
#3550000
0=
#3575000
1*
b00000000000000000000000000000001 +
1,
b10 5
b11 6
19
1=
#3600000
0=
#3625000
0$
0)
b010 4
b11 5
b00 6
07
1=
0>
0?
0A
#3650000
0=
#3675000
0*
0,
0-
b010 3
b00 5
b01 6
09
1=
#3700000
0=
#3725000
b00000000000000000000000000000000 +
b01 5
b10 6
1=
#3750000
0=
#3775000
1$
1)
1,
b10 5
b11 6
17
19
1=
1>
1?
1A
#3800000
0=
#3825000
1*
b00000000000000000000000000000001 +
b001 4
b11 5
b00 6
1=
#3850000
0=
#3875000
0$
0)
0,
1-
b001 3
b00 5
b01 6
07
09
1=
0>
0?
0A
#3900000
0=
#3925000
0*
b01 5
b10 6
1=
#3950000
0=
#3975000
b00000000000000000000000000000000 +
1,
b10 5
b11 6
19
1=
#4000000
0=
#4025000
1$
1)
b000 4
b11 5
b00 6
17
1=
1>
1?
1A
#4050000
0=
#4075000
1*
b00000000000000000000000000000001 +
0,
0-
b000 3
b00 5
b01 6
09
1=
#4100000
0=
#4125000
0$
0)
b01 5
b10 6
07
1=
0>
0?
0A
#4150000
0=
#4175000
0*
1,
b10 5
b11 6
19
1=
#4200000
0=
#4225000
b00000000000000000000000000000000 +
b11 /
b11 5
b00 6
1=
#4250000
0=
#4275000
1$
1)
0,
b11 .
b00 /
b00 5
17
09
b10 :
0;
1<
1=
1>
1?
1A
#4300000
0=
#4325000
1*
b00000000000000000000000000000001 +
b00 .
b00000000000000000000000000000010 8
b00 :
0<
1=
#4350000
0=
#4375000
0$
0)
b00000000000000000000000000000010 +
07
1=
0>
0?
0A
#4400000
0=
#4425000
0*
1=
#4450000
0=
#4475000
b00000000000000000000000000000000 +
1=
#4500000
0=
#4525000
1$
1)
17
b00000000000000000000000000000000 8
1=
1>
1?
1A
#4550000
0=
#4575000
1*
1=
#4600000
0=
#4625000
0$
0)
07
1=
0>
0?
0A
#4650000
0=
#4675000
0*
1=
#4700000
0=
#4725000
1$
1)
17
1=
1>
1?
1A
#4750000
0=
#4775000
1*
1=
#4800000
0=
#4825000
0$
0)
07
1=
0>
0?
0A
#4850000
0=
#4875000
0*
1=
#4900000
0=
#4925000
1$
1%
b0001 &
b00000000000000000000000000000100 '
b00000000000000000000000001010101 (
1)
1-
b01010101 2
1=
1>
1@
#4950000
0=
#4975000
1=
#5000000
0=
#5025000
0$
0)
1=
0>
0@
#5050000
0=
#5075000
1=
#5100000
0=
#5125000
1$
b00000000000000000000000000000000 '
b00000000000000000000000000000001 (
1)
b01 /
10
1=
1>
1@
#5150000
0=
#5175000
0-
b01 .
b10 /
11
b111 4
b01 :
1;
1=
0>
0@
#5200000
0=
#5225000
0$
0)
b10 .
b111 3
b01 6
1=
#5250000
0=
#5275000
b01 5
b10 6
1=
#5300000
0=
#5325000
1,
b10 5
b11 6
19
1=
#5350000
0=
#5375000
1$
0%
b1111 &
b00000000000000000000000000001000 '
1)
b110 4
b11 5
b00 6
17
b00000000000000000000000000000001 8
1=
1>
1?
1A
#5400000
0=
#5425000
1*
b00000000000000000000000000000001 +
0,
1-
b110 3
b00 5
b01 6
09
1=
#5450000
0=
#5475000
0$
0)
b01 5
b10 6
07
1=
0>
0?
0A
#5500000
0=
#5525000
0*
1,
b10 5
b11 6
19
1=
#5550000
0=
#5575000
b00000000000000000000000000000000 +
b101 4
b11 5
b00 6
1=
#5600000
0=
#5625000
1$
1)
0,
0-
b101 3
b00 5
b01 6
17
09
1=
1>
1?
1A
#5650000
0=
#5675000
1*
b00000000000000000000000000000001 +
b01 5
b10 6
1=
#5700000
0=
#5725000
0$
0)
1,
b10 5
b11 6
07
19
1=
0>
0?
0A
#5750000
0=
#5775000
0*
b100 4
b11 5
b00 6
1=
#5800000
0=
#5825000
b00000000000000000000000000000000 +
0,
1-
b100 3
b00 5
b01 6
09
1=
#5850000
0=
#5875000
1$
1)
b01 5
b10 6
17
1=
1>
1?
1A
#5900000
0=
#5925000
1*
b00000000000000000000000000000001 +
1,
b10 5
b11 6
19
1=
#5950000
0=
#5975000
0$
0)
b011 4
b11 5
b00 6
07
1=
0>
0?
0A
#6000000
0=
#6025000
0*
0,
0-
b011 3
b00 5
b01 6
09
1=
#6050000
0=
#6075000
b00000000000000000000000000000000 +
b01 5
b10 6
1=
#6100000
0=
#6125000
1$
1)
1,
b10 5
b11 6
17
19
1=
1>
1?
1A
#6150000
0=
#6175000
1*
b00000000000000000000000000000001 +
b010 4
b11 5
b00 6
1=
#6200000
0=
#6225000
0$
0)
0,
1-
b010 3
b00 5
b01 6
07
09
1=
0>
0?
0A
#6250000
0=
#6275000
0*
b01 5
b10 6
1=
#6300000
0=
#6325000
b00000000000000000000000000000000 +
1,
b10 5
b11 6
19
1=
#6350000
0=
#6375000
1$
1)
b001 4
b11 5
b00 6
17
1=
1>
1?
1A
#6400000
0=
#6425000
1*
b00000000000000000000000000000001 +
0,
0-
b001 3
b00 5
b01 6
09
1=
#6450000
0=
#6475000
0$
0)
b01 5
b10 6
07
1=
0>
0?
0A
#6500000
0=
#6525000
0*
1,
b10 5
b11 6
19
1=
#6550000
0=
#6575000
b00000000000000000000000000000000 +
b000 4
b11 5
b00 6
1=
#6600000
0=
#6625000
1$
1)
0,
1-
b000 3
b00 5
b01 6
17
09
1=
1>
1?
1A
#6650000
0=
#6675000
1*
b00000000000000000000000000000001 +
b01 5
b10 6
1=
#6700000
0=
#6725000
0$
0)
1,
b10 5
b11 6
07
19
1=
0>
0?
0A
#6750000
0=
#6775000
0*
b11 /
b11 5
b00 6
1=
#6800000
0=
#6825000
b00000000000000000000000000000000 +
0,
b11 .
b00 /
b00 5
09
b10 :
0;
1<
1=
#6850000
0=
#6875000
1$
1)
b00 .
b01 /
01
17
b00000000000000000000000000000010 8
b00 :
0<
1=
1>
1?
1A
#6900000
0=
#6925000
1*
b00000000000000000000000000000010 +
0-
b01 .
b10 /
00
b111 4
b00000000000000000000000000000000 8
b01 :
1;
1=
#6950000
0=
#6975000
0$
0)
b00000000000000000000000000000000 +
b10 .
b111 3
b01 6
07
1=
0>
0?
0A
#7000000
0=
#7025000
0*
b01 5
b10 6
1=
#7050000
0=
#7075000
1$
1)
1,
b10 5
b11 6
17
b00000000000000000000000000000001 8
19
1=
1>
1?
1A
#7100000
0=
#7125000
1*
b00000000000000000000000000000001 +
b110 4
b11 5
b00 6
1=
#7150000
0=
#7175000
0$
0)
0,
1-
b110 3
b00 5
b01 6
07
09
1=
0>
0?
0A
#7200000
0=
#7225000
0*
b01 5
b10 6
1=
#7250000
0=
#7275000
b00000000000000000000000000000000 +
1,
b10 5
b11 6
19
1=
#7300000
0=
#7325000
b101 4
b11 5
b00 6
1=
#7350000
0=
#7375000
0,
0-
b101 3
b00 5
b01 6
09
1=
#7400000
0=
#7425000
b01 5
b10 6
1=
#7450000
0=
#7475000
1,
b10 5
b11 6
19
1=
#7500000
0=
#7525000
b100 4
b11 5
b00 6
1=
#7550000
0=
#7575000
0,
1-
b100 3
b00 5
b01 6
09
1=
#7600000
0=
#7625000
b01 5
b10 6
1=
#7650000
0=
#7675000
1,
b10 5
b11 6
19
1=
#7700000
0=
#7725000
b011 4
b11 5
b00 6
1=
