tb_obi_spi_direct.vcd
$version Generated by VerilatedVcd $end
$timescale 1ps $end
 $scope module $rootio $end
 $upscope $end
 $scope module tb_obi_spi_direct $end
  $var real 64 E CLK_PERIOD $end
  $var real 64 G RESET_DURATION $end
  $var wire 32 I OBI_TIMEOUT [31:0] $end
  $var wire 32 J SPI_DONE_TIMEOUT [31:0] $end
  $var wire 32 K SPI_CTRL_ADDR [31:0] $end
  $var wire 32 L SPI_TX_ADDR [31:0] $end
  $var wire 32 M SPI_STATUS_ADDR [31:0] $end
  $var wire 1 B clk $end
  $var wire 1 # rst_ni $end
  $var wire 1 $ req $end
  $var wire 32 % addr [31:0] $end
  $var wire 32 & wdata [31:0] $end
  $var wire 4 ' be [3:0] $end
  $var wire 1 ( we $end
  $var wire 1 C gnt $end
  $var wire 1 - rvalid $end
  $var wire 32 . rdata [31:0] $end
  $var wire 32 ) status_after_done [31:0] $end
  $var wire 32 * final_status [31:0] $end
  $var wire 1 / sck_o $end
  $var wire 1 0 mosi_o $end
  $var wire 1 N cs_no $end
  $var wire 1 + req_ongoing $end
  $scope module dut $end
   $var wire 1 B clk_i $end
   $var wire 1 # rst_ni $end
   $var wire 1 $ req_i $end
   $var wire 1 ( we_i $end
   $var wire 4 ' be_i [3:0] $end
   $var wire 32 % addr_i [31:0] $end
   $var wire 32 & wdata_i [31:0] $end
   $var wire 1 C gnt_o $end
   $var wire 1 - rvalid_o $end
   $var wire 32 . rdata_o [31:0] $end
   $var wire 1 / sck_o $end
   $var wire 1 0 mosi_o $end
   $var wire 1 1 cs_no $end
   $var wire 32 O ADDR_WIDTH [31:0] $end
   $var wire 32 O DATA_WIDTH [31:0] $end
   $var wire 32 P SPI_DATA_BITS [31:0] $end
   $var wire 32 Q SPI_CLK_DIVIDER [31:0] $end
   $var wire 12 R SPI_CTRL_ADDR_OFFSET [11:0] $end
   $var wire 12 S SPI_TX_ADDR_OFFSET [11:0] $end
   $var wire 12 T SPI_STATUS_ADDR_OFFSET [11:0] $end
   $var wire 2 2 state_q [1:0] $end
   $var wire 2 3 state_d [1:0] $end
   $var wire 1 4 start_flag_q $end
   $var wire 1 5 start_flag_d $end
   $var wire 8 6 tx_data_q [7:0] $end
   $var wire 8 6 tx_data_d [7:0] $end
   $var wire 3 7 bit_cnt_q [2:0] $end
   $var wire 3 8 bit_cnt_d [2:0] $end
   $var wire 3 9 spi_clk_cnt_q [2:0] $end
   $var wire 3 : spi_clk_cnt_d [2:0] $end
   $var wire 1 - rvalid_q $end
   $var wire 32 . rdata_q [31:0] $end
   $var wire 1 ; spi_clk_phase $end
   $var wire 1 U status_read_req $end
   $var wire 2 < status_bits [1:0] $end
   $var wire 1 = busy $end
   $var wire 1 > done_q $end
   $var wire 1 , gnt_for_read $end
   $var wire 1 D gnt_for_write $end
   $var wire 1 ? read_req_accepted $end
   $var wire 1 @ done $end
   $scope module unnamedblk1 $end
    $var wire 4 A next_bit_idx_calc [3:0] $end
   $upscope $end
  $upscope $end
 $upscope $end
$enddefinitions $end


#0
0#
0$
b00000000000000000000000000000000 %
b00000000000000000000000000000000 &
b0000 '
0(
b00000000000000000000000000000000 )
b00000000000000000000000000000000 *
0+
0,
0-
b00000000000000000000000000000000 .
0/
00
11
b00 2
b00 3
04
05
b00000000 6
b000 7
b000 8
b000 9
b000 :
0;
b00 <
0=
0>
0?
0@
b0000 A
0B
0C
0D
r49.99999999999999 E
r99.99999999999999 G
b00000000000000000000001111101000 I
b00000000000000000001001110001000 J
b00000000000000000000000000000000 K
b00000000000000000000000000000100 L
b00000000000000000000000000001000 M
0N
b00000000000000000000000000100000 O
b00000000000000000000000000001000 P
b00000000000000000000000000000100 Q
b000000000000 R
b000000000100 S
b000000001000 T
0U
#12500
1B
#25000
0B
#37500
1B
#50000
0B
#62500
1B
#75000
0B
#87500
1B
#100000
1#
0B
#112500
1B
#125000
0B
#137500
1B
#150000
0B
#162500
1$
b00000000000000000000000000001000 %
1,
1?
1B
1C
#175000
0B
#187500
1-
1B
#200000
0B
#212500
0$
0?
1B
0C
#225000
0B
#237500
0-
1B
#250000
0B
#262500
1$
1?
1B
1C
#275000
0B
#287500
1-
1B
#300000
0B
#312500
0$
0?
1B
0C
#325000
0B
#337500
0-
1B
#350000
0B
#362500
1$
b00000000000000000000000000000100 %
b00000000000000000000000010101010 &
b0001 '
1(
0,
10
b10101010 6
1B
1C
1D
#375000
0B
#387500
1B
#400000
0B
#412500
0$
1B
0C
#425000
0B
#437500
b0000 '
0(
1B
0D
#450000
0B
#462500
1$
b00000000000000000000000000000000 %
b00000000000000000000000000000001 &
b0001 '
1(
b01 3
14
1B
1C
1D
#475000
0B
#487500
01
b01 2
b10 3
15
b111 8
b01 <
1=
1B
0C
0D
#500000
0B
#512500
0$
00
b10 2
b111 7
b001 :
1B
#525000
0B
#537500
b0000 '
0(
b001 9
b010 :
1B
#550000
0B
#562500
b010 9
b011 :
1B
#575000
0B
#587500
1$
b00000000000000000000000000001000 %
b00000000000000000000000000000000 &
1,
b011 9
b100 :
1?
1B
1C
#600000
0B
#612500
1-
b00000000000000000000000000000001 .
1/
b100 9
b101 :
1;
1B
#625000
0B
#637500
0$
b101 9
b110 :
0?
1B
0C
#650000
0B
#662500
0-
b110 9
b111 :
1B
#675000
0B
#687500
b00000000000000000000000000000000 .
10
b110 8
b111 9
b000 :
b0001 A
1B
#700000
0B
#712500
1$
0/
b110 7
b000 9
b001 :
0;
1?
b0000 A
1B
1C
#725000
0B
#737500
1-
b00000000000000000000000000000001 .
b001 9
b010 :
1B
#750000
0B
#762500
0$
b010 9
b011 :
0?
1B
0C
#775000
0B
#787500
0-
b011 9
b100 :
1B
#800000
0B
#812500
b00000000000000000000000000000000 .
1/
b100 9
b101 :
1;
1B
#825000
0B
#837500
1$
b101 9
b110 :
1?
1B
1C
#850000
0B
#862500
1-
b00000000000000000000000000000001 .
b110 9
b111 :
1B
#875000
0B
#887500
0$
00
b101 8
b111 9
b000 :
0?
b0010 A
1B
0C
#900000
0B
#912500
0-
0/
b101 7
b000 9
b001 :
0;
b0000 A
1B
#925000
0B
#937500
b00000000000000000000000000000000 .
b001 9
b010 :
1B
#950000
0B
#962500
1$
b010 9
b011 :
1?
1B
1C
#975000
0B
#987500
1-
b00000000000000000000000000000001 .
b011 9
b100 :
1B
#1000000
0B
#1012500
0$
1/
b100 9
b101 :
1;
0?
1B
0C
#1025000
0B
#1037500
0-
b101 9
b110 :
1B
#1050000
0B
#1062500
b00000000000000000000000000000000 .
b110 9
b111 :
1B
#1075000
0B
#1087500
1$
10
b100 8
b111 9
b000 :
1?
b0011 A
1B
1C
#1100000
0B
#1112500
1-
b00000000000000000000000000000001 .
0/
b100 7
b000 9
b001 :
0;
b0000 A
1B
#1125000
0B
#1137500
0$
b001 9
b010 :
0?
1B
0C
#1150000
0B
#1162500
0-
b010 9
b011 :
1B
#1175000
0B
#1187500
b00000000000000000000000000000000 .
b011 9
b100 :
1B
#1200000
0B
#1212500
1$
1/
b100 9
b101 :
1;
1?
1B
1C
#1225000
0B
#1237500
1-
b00000000000000000000000000000001 .
b101 9
b110 :
1B
#1250000
0B
#1262500
0$
b110 9
b111 :
0?
1B
0C
#1275000
0B
#1287500
0-
00
b011 8
b111 9
b000 :
b0100 A
1B
#1300000
0B
#1312500
b00000000000000000000000000000000 .
0/
b011 7
b000 9
b001 :
0;
b0000 A
1B
#1325000
0B
#1337500
1$
b001 9
b010 :
1?
1B
1C
#1350000
0B
#1362500
1-
b00000000000000000000000000000001 .
b010 9
b011 :
1B
#1375000
0B
#1387500
0$
b011 9
b100 :
0?
1B
0C
#1400000
0B
#1412500
0-
1/
b100 9
b101 :
1;
1B
#1425000
0B
#1437500
b00000000000000000000000000000000 .
b101 9
b110 :
1B
#1450000
0B
#1462500
1$
b110 9
b111 :
1?
1B
1C
#1475000
0B
#1487500
1-
b00000000000000000000000000000001 .
10
b010 8
b111 9
b000 :
b0101 A
1B
#1500000
0B
#1512500
0$
0/
b010 7
b000 9
b001 :
0;
0?
b0000 A
1B
0C
#1525000
0B
#1537500
0-
b001 9
b010 :
1B
#1550000
0B
#1562500
b00000000000000000000000000000000 .
b010 9
b011 :
1B
#1575000
0B
#1587500
1$
b011 9
b100 :
1?
1B
1C
#1600000
0B
#1612500
1-
b00000000000000000000000000000001 .
1/
b100 9
b101 :
1;
1B
#1625000
0B
#1637500
0$
b101 9
b110 :
0?
1B
0C
#1650000
0B
#1662500
0-
b110 9
b111 :
1B
#1675000
0B
#1687500
b00000000000000000000000000000000 .
00
b001 8
b111 9
b000 :
b0110 A
1B
#1700000
0B
#1712500
1$
0/
b001 7
b000 9
b001 :
0;
1?
b0000 A
1B
1C
#1725000
0B
#1737500
1-
b00000000000000000000000000000001 .
b001 9
b010 :
1B
#1750000
0B
#1762500
0$
b010 9
b011 :
0?
1B
0C
#1775000
0B
#1787500
0-
b011 9
b100 :
1B
#1800000
0B
#1812500
b00000000000000000000000000000000 .
1/
b100 9
b101 :
1;
1B
#1825000
0B
#1837500
1$
b101 9
b110 :
1?
1B
1C
#1850000
0B
#1862500
1-
b00000000000000000000000000000001 .
b110 9
b111 :
1B
#1875000
0B
#1887500
0$
10
b000 8
b111 9
b000 :
0?
b0111 A
1B
0C
#1900000
0B
#1912500
0-
0/
b000 7
b000 9
b001 :
0;
b0000 A
1B
#1925000
0B
#1937500
b00000000000000000000000000000000 .
b001 9
b010 :
1B
#1950000
0B
#1962500
1$
b010 9
b011 :
1?
1B
1C
#1975000
0B
#1987500
1-
b00000000000000000000000000000001 .
b011 9
b100 :
1B
#2000000
0B
#2012500
0$
1/
b100 9
b101 :
1;
0?
1B
0C
#2025000
0B
#2037500
0-
b101 9
b110 :
1B
#2050000
0B
#2062500
b00000000000000000000000000000000 .
b110 9
b111 :
1B
#2075000
0B
#2087500
1$
00
b11 3
b111 9
b000 :
1?
1B
1C
#2100000
0B
#2112500
1-
b00000000000000000000000000000001 .
0/
10
11
b11 2
b00 3
b000 9
0;
b10 <
0=
1>
1@
1B
#2125000
0B
#2137500
0$
b00000000000000000000000000000010 .
b00 2
b01 3
05
b00 <
0>
0?
0@
1B
0C
#2150000
0B
#2162500
0-
01
b01 2
b10 3
04
b111 8
b01 <
1=
1B
#2175000
0B
#2187500
b00000000000000000000000000000000 .
00
b10 2
b111 7
b001 :
1B
#2200000
0B
#2212500
1$
b001 9
b010 :
1?
1B
1C
#2225000
0B
#2237500
1-
b00000000000000000000000000000001 .
b010 9
b011 :
1B
#2250000
0B
#2262500
0$
b011 9
b100 :
0?
1B
0C
#2275000
0B
#2287500
0-
1/
b100 9
b101 :
1;
1B
#2300000
0B
#2312500
b00000000000000000000000000000000 .
b101 9
b110 :
1B
#2325000
0B
#2337500
1$
b110 9
b111 :
1?
1B
1C
#2350000
0B
#2362500
1-
b00000000000000000000000000000001 .
10
b110 8
b111 9
b000 :
b0001 A
1B
#2375000
0B
#2387500
0$
0/
b110 7
b000 9
b001 :
0;
0?
b0000 A
1B
0C
#2400000
0B
#2412500
0-
b001 9
b010 :
1B
#2425000
0B
#2437500
b00000000000000000000000000000000 .
b010 9
b011 :
1B
#2450000
0B
#2462500
1$
b011 9
b100 :
1?
1B
1C
#2475000
0B
#2487500
1-
b00000000000000000000000000000001 .
1/
b100 9
b101 :
1;
1B
#2500000
0B
#2512500
0$
b101 9
b110 :
0?
1B
0C
#2525000
0B
#2537500
0-
b110 9
b111 :
1B
#2550000
0B
#2562500
b00000000000000000000000000000000 .
00
b101 8
b111 9
b000 :
b0010 A
1B
#2575000
0B
#2587500
1$
0/
b101 7
b000 9
b001 :
0;
1?
b0000 A
1B
1C
#2600000
0B
#2612500
1-
b00000000000000000000000000000001 .
b001 9
b010 :
1B
#2625000
0B
#2637500
0$
b010 9
b011 :
0?
1B
0C
#2650000
0B
#2662500
0-
b011 9
b100 :
1B
#2675000
0B
#2687500
b00000000000000000000000000000000 .
1/
b100 9
b101 :
1;
1B
#2700000
0B
#2712500
1$
b101 9
b110 :
1?
1B
1C
#2725000
0B
#2737500
1-
b00000000000000000000000000000001 .
b110 9
b111 :
1B
#2750000
0B
#2762500
0$
10
b100 8
b111 9
b000 :
0?
b0011 A
1B
0C
#2775000
0B
#2787500
0-
0/
b100 7
b000 9
b001 :
0;
b0000 A
1B
#2800000
0B
#2812500
b00000000000000000000000000000000 .
b001 9
b010 :
1B
#2825000
0B
#2837500
1$
b010 9
b011 :
1?
1B
1C
#2850000
0B
#2862500
1-
b00000000000000000000000000000001 .
b011 9
b100 :
1B
#2875000
0B
#2887500
0$
1/
b100 9
b101 :
1;
0?
1B
0C
#2900000
0B
#2912500
0-
b101 9
b110 :
1B
#2925000
0B
#2937500
b00000000000000000000000000000000 .
b110 9
b111 :
1B
#2950000
0B
#2962500
1$
00
b011 8
b111 9
b000 :
1?
b0100 A
1B
1C
#2975000
0B
#2987500
1-
b00000000000000000000000000000001 .
0/
b011 7
b000 9
b001 :
0;
b0000 A
1B
#3000000
0B
#3012500
0$
b001 9
b010 :
0?
1B
0C
#3025000
0B
#3037500
0-
b010 9
b011 :
1B
#3050000
0B
#3062500
b00000000000000000000000000000000 .
b011 9
b100 :
1B
#3075000
0B
#3087500
1$
1/
b100 9
b101 :
1;
1?
1B
1C
#3100000
0B
#3112500
1-
b00000000000000000000000000000001 .
b101 9
b110 :
1B
#3125000
0B
#3137500
0$
b110 9
b111 :
0?
1B
0C
#3150000
0B
#3162500
0-
10
b010 8
b111 9
b000 :
b0101 A
1B
#3175000
0B
#3187500
b00000000000000000000000000000000 .
0/
b010 7
b000 9
b001 :
0;
b0000 A
1B
#3200000
0B
#3212500
1$
b001 9
b010 :
1?
1B
1C
#3225000
0B
#3237500
1-
b00000000000000000000000000000001 .
b010 9
b011 :
1B
#3250000
0B
#3262500
0$
b011 9
b100 :
0?
1B
0C
#3275000
0B
#3287500
0-
1/
b100 9
b101 :
1;
1B
#3300000
0B
#3312500
b00000000000000000000000000000000 .
b101 9
b110 :
1B
#3325000
0B
#3337500
1$
b110 9
b111 :
1?
1B
1C
#3350000
0B
#3362500
1-
b00000000000000000000000000000001 .
00
b001 8
b111 9
b000 :
b0110 A
1B
#3375000
0B
#3387500
0$
0/
b001 7
b000 9
b001 :
0;
0?
b0000 A
1B
0C
#3400000
0B
#3412500
0-
b001 9
b010 :
1B
#3425000
0B
#3437500
b00000000000000000000000000000000 .
b010 9
b011 :
1B
#3450000
0B
#3462500
1$
b011 9
b100 :
1?
1B
1C
#3475000
0B
#3487500
1-
b00000000000000000000000000000001 .
1/
b100 9
b101 :
1;
1B
#3500000
0B
#3512500
0$
b101 9
b110 :
0?
1B
0C
#3525000
0B
#3537500
0-
b110 9
b111 :
1B
#3550000
0B
#3562500
b00000000000000000000000000000000 .
10
b000 8
b111 9
b000 :
b0111 A
1B
#3575000
0B
#3587500
1$
0/
b000 7
b000 9
b001 :
0;
1?
b0000 A
1B
1C
#3600000
0B
#3612500
1-
b00000000000000000000000000000001 .
b001 9
b010 :
1B
#3625000
0B
#3637500
0$
b010 9
b011 :
0?
1B
0C
#3650000
0B
#3662500
0-
b011 9
b100 :
1B
#3675000
0B
#3687500
b00000000000000000000000000000000 .
1/
b100 9
b101 :
1;
1B
#3700000
0B
#3712500
1$
b101 9
b110 :
1?
1B
1C
#3725000
0B
#3737500
1-
b00000000000000000000000000000001 .
b110 9
b111 :
1B
#3750000
0B
#3762500
0$
00
b11 3
b111 9
b000 :
0?
1B
0C
#3775000
0B
#3787500
0-
0/
10
11
b11 2
b00 3
b000 9
0;
b10 <
0=
1>
1@
1B
#3800000
0B
#3812500
b00000000000000000000000000000000 .
b00 2
b00 <
0>
0@
1B
#3825000
0B
#3837500
1$
1?
1B
1C
#3850000
0B
#3862500
1-
1B
#3875000
0B
#3887500
0$
0?
1B
0C
#3900000
0B
#3912500
0-
1B
#3925000
0B
#3937500
1$
1?
1B
1C
#3950000
0B
#3962500
1-
1B
#3975000
0B
#3987500
0$
0?
1B
0C
#4000000
0B
#4012500
0-
1B
#4025000
0B
#4037500
1B
#4050000
0B
#4062500
1$
1?
1B
1C
#4075000
0B
#4087500
1-
1B
#4100000
0B
#4112500
0$
0?
1B
0C
#4125000
0B
#4137500
0-
1B
#4150000
0B
#4162500
1$
1?
1B
1C
#4175000
0B
#4187500
1-
1B
#4200000
0B
#4212500
0$
0?
1B
0C
#4225000
0B
#4237500
0-
1B
#4250000
0B
#4262500
1$
b00000000000000000000000000000100 %
b00000000000000000000000001010101 &
b0001 '
1(
0,
00
b01010101 6
1B
1C
1D
#4275000
0B
#4287500
1B
#4300000
0B
#4312500
0$
1B
0C
#4325000
0B
#4337500
b0000 '
0(
1B
0D
#4350000
0B
#4362500
1$
b00000000000000000000000000000000 %
b00000000000000000000000000000001 &
b0001 '
1(
b01 3
14
1B
1C
1D
#4375000
0B
#4387500
01
b01 2
b10 3
15
b111 8
b01 <
1=
1B
0C
0D
#4400000
0B
#4412500
0$
10
b10 2
b111 7
b001 :
1B
#4425000
0B
#4437500
b0000 '
0(
b001 9
b010 :
1B
#4450000
0B
#4462500
b010 9
b011 :
1B
#4475000
0B
#4487500
1$
b00000000000000000000000000001000 %
b00000000000000000000000000000000 &
1,
b011 9
b100 :
1?
1B
1C
#4500000
0B
#4512500
1-
b00000000000000000000000000000001 .
1/
b100 9
b101 :
1;
1B
#4525000
0B
#4537500
0$
b101 9
b110 :
0?
1B
0C
#4550000
0B
#4562500
0-
b110 9
b111 :
1B
#4575000
0B
#4587500
b00000000000000000000000000000000 .
00
b110 8
b111 9
b000 :
b0001 A
1B
#4600000
0B
#4612500
1$
0/
b110 7
b000 9
b001 :
0;
1?
b0000 A
1B
1C
#4625000
0B
#4637500
1-
b00000000000000000000000000000001 .
b001 9
b010 :
1B
#4650000
0B
#4662500
0$
b010 9
b011 :
0?
1B
0C
#4675000
0B
#4687500
0-
b011 9
b100 :
1B
#4700000
0B
#4712500
b00000000000000000000000000000000 .
1/
b100 9
b101 :
1;
1B
#4725000
0B
#4737500
1$
b101 9
b110 :
1?
1B
1C
#4750000
0B
#4762500
1-
b00000000000000000000000000000001 .
b110 9
b111 :
1B
#4775000
0B
#4787500
0$
10
b101 8
b111 9
b000 :
0?
b0010 A
1B
0C
#4800000
0B
#4812500
0-
0/
b101 7
b000 9
b001 :
0;
b0000 A
1B
#4825000
0B
#4837500
b00000000000000000000000000000000 .
b001 9
b010 :
1B
#4850000
0B
#4862500
1$
b010 9
b011 :
1?
1B
1C
#4875000
0B
#4887500
1-
b00000000000000000000000000000001 .
b011 9
b100 :
1B
#4900000
0B
#4912500
0$
1/
b100 9
b101 :
1;
0?
1B
0C
#4925000
0B
#4937500
0-
b101 9
b110 :
1B
#4950000
0B
#4962500
b00000000000000000000000000000000 .
b110 9
b111 :
1B
#4975000
0B
#4987500
1$
00
b100 8
b111 9
b000 :
1?
b0011 A
1B
1C
#5000000
0B
#5012500
1-
b00000000000000000000000000000001 .
0/
b100 7
b000 9
b001 :
0;
b0000 A
1B
#5025000
0B
#5037500
0$
b001 9
b010 :
0?
1B
0C
#5050000
0B
#5062500
0-
b010 9
b011 :
1B
#5075000
0B
#5087500
b00000000000000000000000000000000 .
b011 9
b100 :
1B
#5100000
0B
#5112500
1$
1/
b100 9
b101 :
1;
1?
1B
1C
#5125000
0B
#5137500
1-
b00000000000000000000000000000001 .
b101 9
b110 :
1B
#5150000
0B
#5162500
0$
b110 9
b111 :
0?
1B
0C
#5175000
0B
#5187500
0-
10
b011 8
b111 9
b000 :
b0100 A
1B
#5200000
0B
#5212500
b00000000000000000000000000000000 .
0/
b011 7
b000 9
b001 :
0;
b0000 A
1B
#5225000
0B
#5237500
1$
b001 9
b010 :
1?
1B
1C
#5250000
0B
#5262500
1-
b00000000000000000000000000000001 .
b010 9
b011 :
1B
#5275000
0B
#5287500
0$
b011 9
b100 :
0?
1B
0C
#5300000
0B
#5312500
0-
1/
b100 9
b101 :
1;
1B
#5325000
0B
#5337500
b00000000000000000000000000000000 .
b101 9
b110 :
1B
#5350000
0B
#5362500
1$
b110 9
b111 :
1?
1B
1C
#5375000
0B
#5387500
1-
b00000000000000000000000000000001 .
00
b010 8
b111 9
b000 :
b0101 A
1B
#5400000
0B
#5412500
0$
0/
b010 7
b000 9
b001 :
0;
0?
b0000 A
1B
0C
#5425000
0B
#5437500
0-
b001 9
b010 :
1B
#5450000
0B
#5462500
b00000000000000000000000000000000 .
b010 9
b011 :
1B
#5475000
0B
#5487500
1$
b011 9
b100 :
1?
1B
1C
#5500000
0B
#5512500
1-
b00000000000000000000000000000001 .
1/
b100 9
b101 :
1;
1B
#5525000
0B
#5537500
0$
b101 9
b110 :
0?
1B
0C
#5550000
0B
#5562500
0-
b110 9
b111 :
1B
#5575000
0B
#5587500
b00000000000000000000000000000000 .
10
b001 8
b111 9
b000 :
b0110 A
1B
#5600000
0B
#5612500
1$
0/
b001 7
b000 9
b001 :
0;
1?
b0000 A
1B
1C
#5625000
0B
#5637500
1-
b00000000000000000000000000000001 .
b001 9
b010 :
1B
#5650000
0B
#5662500
0$
b010 9
b011 :
0?
1B
0C
#5675000
0B
#5687500
0-
b011 9
b100 :
1B
#5700000
0B
#5712500
b00000000000000000000000000000000 .
1/
b100 9
b101 :
1;
1B
#5725000
0B
#5737500
1$
b101 9
b110 :
1?
1B
1C
#5750000
0B
#5762500
1-
b00000000000000000000000000000001 .
b110 9
b111 :
1B
#5775000
0B
#5787500
0$
00
b000 8
b111 9
b000 :
0?
b0111 A
1B
0C
#5800000
0B
#5812500
0-
0/
b000 7
b000 9
b001 :
0;
b0000 A
1B
#5825000
0B
#5837500
b00000000000000000000000000000000 .
b001 9
b010 :
1B
#5850000
0B
#5862500
1$
b010 9
b011 :
1?
1B
1C
#5875000
0B
#5887500
1-
b00000000000000000000000000000001 .
b011 9
b100 :
1B
#5900000
0B
#5912500
0$
1/
b100 9
b101 :
1;
0?
1B
0C
#5925000
0B
#5937500
0-
b101 9
b110 :
1B
#5950000
0B
#5962500
b00000000000000000000000000000000 .
b110 9
b111 :
1B
#5975000
0B
#5987500
1$
10
b11 3
b111 9
b000 :
1?
1B
1C
#6000000
0B
#6012500
1-
b00000000000000000000000000000001 .
0/
00
11
b11 2
b00 3
b000 9
0;
b10 <
0=
1>
1@
1B
#6025000
0B
#6037500
0$
b00000000000000000000000000000010 .
b00 2
b01 3
05
b00 <
0>
0?
0@
1B
0C
#6050000
0B
#6062500
0-
01
b01 2
b10 3
04
b111 8
b01 <
1=
1B
#6075000
0B
#6087500
b00000000000000000000000000000000 .
10
b10 2
b111 7
b001 :
1B
#6100000
0B
#6112500
1$
b001 9
b010 :
1?
1B
1C
#6125000
0B
#6137500
1-
b00000000000000000000000000000001 .
b010 9
b011 :
1B
#6150000
0B
#6162500
0$
b011 9
b100 :
0?
1B
0C
#6175000
0B
#6187500
0-
1/
b100 9
b101 :
1;
1B
#6200000
0B
#6212500
b00000000000000000000000000000000 .
b101 9
b110 :
1B
#6225000
0B
#6237500
1$
b110 9
b111 :
1?
1B
1C
#6250000
0B
#6262500
1-
b00000000000000000000000000000001 .
00
b110 8
b111 9
b000 :
b0001 A
1B
#6275000
0B
#6287500
0$
0/
b110 7
b000 9
b001 :
0;
0?
b0000 A
1B
0C
#6300000
0B
#6312500
0-
b001 9
b010 :
1B
#6325000
0B
#6337500
b00000000000000000000000000000000 .
b010 9
b011 :
1B
#6350000
0B
#6362500
1$
b011 9
b100 :
1?
1B
1C
#6375000
0B
#6387500
1-
b00000000000000000000000000000001 .
1/
b100 9
b101 :
1;
1B
#6400000
0B
#6412500
0$
b101 9
b110 :
0?
1B
0C
#6425000
0B
#6437500
0-
b110 9
b111 :
1B
#6450000
0B
#6462500
b00000000000000000000000000000000 .
10
b101 8
b111 9
b000 :
b0010 A
1B
#6475000
0B
#6487500
1$
0/
b101 7
b000 9
b001 :
0;
1?
b0000 A
1B
1C
#6500000
0B
#6512500
1-
b00000000000000000000000000000001 .
b001 9
b010 :
1B
#6525000
0B
#6537500
0$
b010 9
b011 :
0?
1B
0C
#6550000
0B
#6562500
0-
b011 9
b100 :
1B
#6575000
0B
#6587500
b00000000000000000000000000000000 .
1/
b100 9
b101 :
1;
1B
#6600000
0B
#6612500
1$
b101 9
b110 :
1?
1B
1C
#6625000
0B
#6637500
1-
b00000000000000000000000000000001 .
b110 9
b111 :
1B
#6650000
0B
#6662500
0$
00
b100 8
b111 9
b000 :
0?
b0011 A
1B
0C
#6675000
0B
#6687500
0-
0/
b100 7
b000 9
b001 :
0;
b0000 A
1B
#6700000
0B
#6712500
b00000000000000000000000000000000 .
b001 9
b010 :
1B
#6725000
0B
#6737500
1$
b010 9
b011 :
1?
1B
1C
#6750000
0B
#6762500
1-
b00000000000000000000000000000001 .
b011 9
b100 :
1B
#6775000
0B
#6787500
0$
1/
b100 9
b101 :
1;
0?
1B
0C
#6800000
0B
#6812500
0-
b101 9
b110 :
1B
#6825000
0B
#6837500
b00000000000000000000000000000000 .
b110 9
b111 :
1B
#6850000
0B
#6862500
1$
10
b011 8
b111 9
b000 :
1?
b0100 A
1B
1C
#6875000
0B
#6887500
1-
b00000000000000000000000000000001 .
0/
b011 7
b000 9
b001 :
0;
b0000 A
1B
#6900000
0B
#6912500
0$
b001 9
b010 :
0?
1B
0C
#6925000
0B
#6937500
0-
b010 9
b011 :
1B
#6950000
0B
#6962500
b00000000000000000000000000000000 .
b011 9
b100 :
1B
#6975000
0B
#6987500
1$
1/
b100 9
b101 :
1;
1?
1B
1C
#7000000
0B
#7012500
1-
b00000000000000000000000000000001 .
b101 9
b110 :
1B
#7025000
0B
#7037500
0$
b110 9
b111 :
0?
1B
0C
#7050000
0B
#7062500
0-
00
b010 8
b111 9
b000 :
b0101 A
1B
#7075000
0B
#7087500
b00000000000000000000000000000000 .
0/
b010 7
b000 9
b001 :
0;
b0000 A
1B
#7100000
0B
#7112500
1$
b001 9
b010 :
1?
1B
1C
#7125000
0B
#7137500
1-
b00000000000000000000000000000001 .
b010 9
b011 :
1B
#7150000
0B
#7162500
0$
b011 9
b100 :
0?
1B
0C
#7175000
0B
#7187500
0-
1/
b100 9
b101 :
1;
1B
#7200000
0B
#7212500
b00000000000000000000000000000000 .
b101 9
b110 :
1B
#7225000
0B
#7237500
1$
b110 9
b111 :
1?
1B
1C
#7250000
0B
#7262500
1-
b00000000000000000000000000000001 .
10
b001 8
b111 9
b000 :
b0110 A
1B
#7275000
0B
#7287500
0$
0/
b001 7
b000 9
b001 :
0;
0?
b0000 A
1B
0C
#7300000
0B
#7312500
0-
b001 9
b010 :
1B
#7325000
0B
#7337500
b00000000000000000000000000000000 .
b010 9
b011 :
1B
#7350000
0B
#7362500
1$
b011 9
b100 :
1?
1B
1C
#7375000
0B
#7387500
1-
b00000000000000000000000000000001 .
1/
b100 9
b101 :
1;
1B
#7400000
0B
#7412500
0$
b101 9
b110 :
0?
1B
0C
#7425000
0B
#7437500
0-
b110 9
b111 :
1B
#7450000
0B
#7462500
b00000000000000000000000000000000 .
00
b000 8
b111 9
b000 :
b0111 A
1B
#7475000
0B
#7487500
1$
0/
b000 7
b000 9
b001 :
0;
1?
b0000 A
1B
1C
#7500000
0B
#7512500
1-
b00000000000000000000000000000001 .
b001 9
b010 :
1B
#7525000
0B
#7537500
0$
b010 9
b011 :
0?
1B
0C
#7550000
0B
#7562500
0-
b011 9
b100 :
1B
#7575000
0B
#7587500
b00000000000000000000000000000000 .
1/
b100 9
b101 :
1;
1B
#7600000
0B
#7612500
1$
b101 9
b110 :
1?
1B
1C
#7625000
0B
#7637500
1-
b00000000000000000000000000000001 .
b110 9
b111 :
1B
#7650000
0B
#7662500
0$
10
b11 3
b111 9
b000 :
0?
1B
0C
#7675000
0B
#7687500
0-
0/
00
11
b11 2
b00 3
b000 9
0;
b10 <
0=
1>
1@
1B
#7700000
0B
#7712500
b00000000000000000000000000000000 .
b00 2
b00 <
0>
0@
1B
#7725000
0B
#7737500
1$
1?
1B
1C
#7750000
0B
#7762500
1-
1B
#7775000
0B
#7787500
0$
0?
1B
0C
#7800000
0B
#7812500
0-
1B
#7825000
0B
#7837500
1$
1?
1B
1C
#7850000
0B
#7862500
1-
1B
#7875000
0B
#7887500
0$
0?
1B
0C
#7900000
0B
#7912500
0-
1B
