tb_user_spi_ctrl.vcd
$version Generated by VerilatedVcd $end
$timescale 1ps $end
 $scope module $rootio $end
 $upscope $end
 $scope module cb_filter_pkg $end
  $scope module EgSeeds[0] $end
   $var wire 32 \ PermuteSeed [31:0] $end
   $var wire 32 ] XorSeed [31:0] $end
  $upscope $end
  $scope module EgSeeds[1] $end
   $var wire 32 ^ PermuteSeed [31:0] $end
   $var wire 32 _ XorSeed [31:0] $end
  $upscope $end
  $scope module EgSeeds[2] $end
   $var wire 32 ` PermuteSeed [31:0] $end
   $var wire 32 a XorSeed [31:0] $end
  $upscope $end
 $upscope $end
 $scope module cve2_pkg $end
  $var wire 32 Q! PMP_MAX_REGIONS [31:0] $end
  $var wire 32 R! PMP_CFG_W [31:0] $end
  $var wire 32 s PMP_I [31:0] $end
  $var wire 32 u PMP_I2 [31:0] $end
  $var wire 32 4! PMP_D [31:0] $end
  $var wire 12 S! CSR_OFF_PMP_CFG [11:0] $end
  $var wire 12 T! CSR_OFF_PMP_ADDR [11:0] $end
  $var wire 32 v CSR_MSTATUS_MIE_BIT [31:0] $end
  $var wire 32 U! CSR_MSTATUS_MPIE_BIT [31:0] $end
  $var wire 32 V! CSR_MSTATUS_MPP_BIT_LOW [31:0] $end
  $var wire 32 W! CSR_MSTATUS_MPP_BIT_HIGH [31:0] $end
  $var wire 32 X! CSR_MSTATUS_MPRV_BIT [31:0] $end
  $var wire 32 Y! CSR_MSTATUS_TW_BIT [31:0] $end
  $var wire 2 Z! CSR_MISA_MXL [1:0] $end
  $var wire 32 v CSR_MSIX_BIT [31:0] $end
  $var wire 32 U! CSR_MTIX_BIT [31:0] $end
  $var wire 32 V! CSR_MEIX_BIT [31:0] $end
  $var wire 32 Q! CSR_MFIX_BIT_LOW [31:0] $end
  $var wire 32 [! CSR_MFIX_BIT_HIGH [31:0] $end
  $var wire 32 s CSR_MSECCFG_MML_BIT [31:0] $end
  $var wire 32 u CSR_MSECCFG_MMWP_BIT [31:0] $end
  $var wire 32 4! CSR_MSECCFG_RLB_BIT [31:0] $end
  $var wire 7 \! MVENDORID_OFFSET [6:0] $end
  $var wire 25 ]! MVENDORID_BANK [24:0] $end
  $var wire 32 ^! MARCHID [31:0] $end
  $var wire 32 _! CSR_MVENDORID_VALUE [31:0] $end
  $var wire 32 ^! CSR_MARCHID_VALUE [31:0] $end
  $var wire 32 :! CSR_MIMPID_VALUE [31:0] $end
  $var wire 32 :! CSR_MCONFIGPTR_VALUE [31:0] $end
 $upscope $end
 $scope module obi_pkg $end
  $var wire 6 o DefaultAtop [5:0] $end
  $var wire 2 p DefaultMemtype [1:0] $end
  $var wire 3 q DefaultProt [2:0] $end
  $scope module ObiMinimalOptionalConfig $end
   $var wire 1 r UseAtop $end
   $var wire 1 r UseMemtype $end
   $var wire 1 r UseProt $end
   $var wire 1 r UseDbg $end
   $var wire 32 s AUserWidth [31:0] $end
   $var wire 32 s WUserWidth [31:0] $end
   $var wire 32 s RUserWidth [31:0] $end
   $var wire 32 s MidWidth [31:0] $end
   $var wire 32 s AChkWidth [31:0] $end
   $var wire 32 s RChkWidth [31:0] $end
  $upscope $end
  $scope module ObiAtopOptionalConfig $end
   $var wire 1 t UseAtop $end
   $var wire 1 r UseMemtype $end
   $var wire 1 r UseProt $end
   $var wire 1 r UseDbg $end
   $var wire 32 s AUserWidth [31:0] $end
   $var wire 32 s WUserWidth [31:0] $end
   $var wire 32 s RUserWidth [31:0] $end
   $var wire 32 s MidWidth [31:0] $end
   $var wire 32 s AChkWidth [31:0] $end
   $var wire 32 s RChkWidth [31:0] $end
  $upscope $end
  $scope module ObiDefaultConfig $end
   $var wire 1 r UseRReady $end
   $var wire 1 r CombGnt $end
   $var wire 32 X AddrWidth [31:0] $end
   $var wire 32 X DataWidth [31:0] $end
   $var wire 32 u IdWidth [31:0] $end
   $var wire 1 r Integrity $end
   $var wire 1 t BeFull $end
   $scope module OptionalCfg $end
    $var wire 1 r UseAtop $end
    $var wire 1 r UseMemtype $end
    $var wire 1 r UseProt $end
    $var wire 1 r UseDbg $end
    $var wire 32 s AUserWidth [31:0] $end
    $var wire 32 s WUserWidth [31:0] $end
    $var wire 32 s RUserWidth [31:0] $end
    $var wire 32 s MidWidth [31:0] $end
    $var wire 32 s AChkWidth [31:0] $end
    $var wire 32 s RChkWidth [31:0] $end
   $upscope $end
  $upscope $end
 $upscope $end
 $scope module dm $end
  $var wire 4 b DbgVersion013 [3:0] $end
  $var wire 5 c ProgBufSize [4:0] $end
  $var wire 4 b DataCount [3:0] $end
  $var wire 64 d HaltAddress [63:0] $end
  $var wire 64 f ResumeAddress [63:0] $end
  $var wire 64 h ExceptionAddress [63:0] $end
  $var wire 12 j DataAddr [11:0] $end
  $var wire 3 k CauseBreakpoint [2:0] $end
  $var wire 3 l CauseTrigger [2:0] $end
  $var wire 3 m CauseRequest [2:0] $end
  $var wire 3 n CauseSingleStep [2:0] $end
 $upscope $end
 $scope module croc_pkg $end
  $var wire 32 s HartId [31:0] $end
  $var wire 11 /! JtagPulpManufacturer [10:0] $end
  $var wire 16 0! JtagCrocPartNum [15:0] $end
  $var wire 4 1! JtagCrocVersion [3:0] $end
  $scope module PulpJtagIdCode $end
   $var wire 4 1! version [3:0] $end
   $var wire 16 0! part_num [15:0] $end
   $var wire 11 /! manufacturer [10:0] $end
   $var wire 1 t _one $end
  $upscope $end
  $var wire 32 | NumExternalIrqs [31:0] $end
  $var wire 32 2! PeriphBaseAddr [31:0] $end
  $var wire 32 3! PeriphAddrRange [31:0] $end
  $var wire 32 3! SramBaseAddr [31:0] $end
  $var wire 32 4! NumSramBanks [31:0] $end
  $var wire 32 5! SramBankNumWords [31:0] $end
  $var wire 32 6! SramBankAddrWidth [31:0] $end
  $var wire 32 7! SramAddrRange [31:0] $end
  $var wire 32 w UserBaseAddr [31:0] $end
  $var wire 32 8! UserAddrRange [31:0] $end
  $var wire 32 | NumCrocDomainSubordinates [31:0] $end
  $var wire 32 | NumXbarManagers [31:0] $end
  $var wire 32 | NumXbarSbrRules [31:0] $end
  $var wire 32 9! NumXbarSbr [31:0] $end
  $scope module croc_addr_map[0] $end
   $var wire 32 } idx [31:0] $end
   $var wire 32 :! start_addr [31:0] $end
   $var wire 32 ;! end_addr [31:0] $end
  $upscope $end
  $scope module croc_addr_map[1] $end
   $var wire 32 "! idx [31:0] $end
   $var wire 32 ;! start_addr [31:0] $end
   $var wire 32 <! end_addr [31:0] $end
  $upscope $end
  $scope module croc_addr_map[2] $end
   $var wire 32 $! idx [31:0] $end
   $var wire 32 <! start_addr [31:0] $end
   $var wire 32 =! end_addr [31:0] $end
  $upscope $end
  $scope module croc_addr_map[3] $end
   $var wire 32 >! idx [31:0] $end
   $var wire 32 ?! start_addr [31:0] $end
   $var wire 32 @! end_addr [31:0] $end
  $upscope $end
  $var wire 32 2! DebugAddrOffset [31:0] $end
  $var wire 32 A! DebugAddrRange [31:0] $end
  $var wire 32 B! SocCtrlAddrOffset [31:0] $end
  $var wire 32 x SocCtrlAddrRange [31:0] $end
  $var wire 32 C! UartAddrOffset [31:0] $end
  $var wire 32 x UartAddrRange [31:0] $end
  $var wire 32 D! GpioAddrOffset [31:0] $end
  $var wire 32 x GpioAddrRange [31:0] $end
  $var wire 32 E! TimerAddrOffset [31:0] $end
  $var wire 32 x TimerAddrRange [31:0] $end
  $var wire 32 9! NumPeriphRules [31:0] $end
  $var wire 32 F! NumPeriphs [31:0] $end
  $scope module periph_addr_map[0] $end
   $var wire 32 G! idx [31:0] $end
   $var wire 32 H! start_addr [31:0] $end
   $var wire 32 I! end_addr [31:0] $end
  $upscope $end
  $scope module periph_addr_map[1] $end
   $var wire 32 >! idx [31:0] $end
   $var wire 32 J! start_addr [31:0] $end
   $var wire 32 K! end_addr [31:0] $end
  $upscope $end
  $scope module periph_addr_map[2] $end
   $var wire 32 $! idx [31:0] $end
   $var wire 32 L! start_addr [31:0] $end
   $var wire 32 M! end_addr [31:0] $end
  $upscope $end
  $scope module periph_addr_map[3] $end
   $var wire 32 "! idx [31:0] $end
   $var wire 32 N! start_addr [31:0] $end
   $var wire 32 O! end_addr [31:0] $end
  $upscope $end
  $scope module periph_addr_map[4] $end
   $var wire 32 } idx [31:0] $end
   $var wire 32 :! start_addr [31:0] $end
   $var wire 32 P! end_addr [31:0] $end
  $upscope $end
  $scope module MgrObiCfg $end
   $var wire 1 r UseRReady $end
   $var wire 1 r CombGnt $end
   $var wire 32 X AddrWidth [31:0] $end
   $var wire 32 X DataWidth [31:0] $end
   $var wire 32 u IdWidth [31:0] $end
   $var wire 1 r Integrity $end
   $var wire 1 t BeFull $end
   $scope module OptionalCfg $end
    $var wire 1 r UseAtop $end
    $var wire 1 r UseMemtype $end
    $var wire 1 r UseProt $end
    $var wire 1 r UseDbg $end
    $var wire 32 s AUserWidth [31:0] $end
    $var wire 32 s WUserWidth [31:0] $end
    $var wire 32 s RUserWidth [31:0] $end
    $var wire 32 s MidWidth [31:0] $end
    $var wire 32 s AChkWidth [31:0] $end
    $var wire 32 s RChkWidth [31:0] $end
   $upscope $end
  $upscope $end
  $scope module SbrObiCfg $end
   $var wire 1 r UseRReady $end
   $var wire 1 r CombGnt $end
   $var wire 32 X AddrWidth [31:0] $end
   $var wire 32 X DataWidth [31:0] $end
   $var wire 32 v IdWidth [31:0] $end
   $var wire 1 r Integrity $end
   $var wire 1 t BeFull $end
   $scope module OptionalCfg $end
    $var wire 1 r UseAtop $end
    $var wire 1 r UseMemtype $end
    $var wire 1 r UseProt $end
    $var wire 1 r UseDbg $end
    $var wire 32 s AUserWidth [31:0] $end
    $var wire 32 s WUserWidth [31:0] $end
    $var wire 32 s RUserWidth [31:0] $end
    $var wire 32 s MidWidth [31:0] $end
    $var wire 32 s AChkWidth [31:0] $end
    $var wire 32 s RChkWidth [31:0] $end
   $upscope $end
  $upscope $end
 $upscope $end
 $scope module user_pkg $end
  $var wire 32 v NumUserDomainSubordinates [31:0] $end
  $var wire 32 w UserDomainBaseAddr [31:0] $end
  $var wire 32 x UserPeriphRange [31:0] $end
  $var wire 32 y UserSpiAddrOffset [31:0] $end
  $var wire 32 z UserSpiCtrlAddrOffset [31:0] $end
  $var wire 32 { UserFontRomAddrOffset [31:0] $end
  $var wire 32 v NumDemuxSbrRules [31:0] $end
  $var wire 32 | NumDemuxSbr [31:0] $end
  $scope module user_addr_map[0] $end
   $var wire 32 } idx [31:0] $end
   $var wire 32 ~ start_addr [31:0] $end
   $var wire 32 !! end_addr [31:0] $end
  $upscope $end
  $scope module user_addr_map[1] $end
   $var wire 32 "! idx [31:0] $end
   $var wire 32 !! start_addr [31:0] $end
   $var wire 32 #! end_addr [31:0] $end
  $upscope $end
  $scope module user_addr_map[2] $end
   $var wire 32 $! idx [31:0] $end
   $var wire 32 #! start_addr [31:0] $end
   $var wire 32 %! end_addr [31:0] $end
  $upscope $end
 $upscope $end
 $scope module soc_ctrl_reg_pkg $end
  $var wire 32 &! BlockAw [31:0] $end
  $var wire 4 '! SOC_CTRL_BOOTADDR_OFFSET [3:0] $end
  $var wire 4 (! SOC_CTRL_FETCHEN_OFFSET [3:0] $end
  $var wire 4 )! SOC_CTRL_CORESTATUS_OFFSET [3:0] $end
  $var wire 4 *! SOC_CTRL_BOOTMODE_OFFSET [3:0] $end
  $var wire 4 +! SOC_CTRL_PERMIT[0] [3:0] $end
  $var wire 4 ,! SOC_CTRL_PERMIT[1] [3:0] $end
  $var wire 4 -! SOC_CTRL_PERMIT[2] [3:0] $end
  $var wire 4 .! SOC_CTRL_PERMIT[3] [3:0] $end
 $upscope $end
 $scope module tb_user_spi_ctrl $end
  $var real 64 J CLK_PERIOD $end
  $var real 64 L RESET_DURATION $end
  $var wire 32 N OBI_TIMEOUT [31:0] $end
  $var wire 12 O GPIO_CTRL_OFFSET [11:0] $end
  $var wire 12 P PRNG_CTRL_OFFSET [11:0] $end
  $var wire 12 Q PRNG_READ_OFFSET [11:0] $end
  $var wire 32 R CS1_N_BIT [31:0] $end
  $var wire 32 S CS2_N_BIT [31:0] $end
  $var wire 32 T DC_BIT [31:0] $end
  $var wire 32 R PRNG_EN_BIT [31:0] $end
  $var wire 32 U PRNG_SEED [31:0] $end
  $var wire 1 D clk_i $end
  $var wire 1 # rst_ni $end
  $scope module obi_req $end
   $scope module a $end
    $var wire 32 $ addr [31:0] $end
    $var wire 1 % we $end
    $var wire 4 & be [3:0] $end
    $var wire 32 ' wdata [31:0] $end
    $var wire 3 ( aid [2:0] $end
    $var wire 1 ) a_optional $end
   $upscope $end
   $var wire 1 * req $end
  $upscope $end
  $scope module obi_rsp $end
   $scope module r $end
    $var wire 32 / rdata [31:0] $end
    $var wire 3 0 rid [2:0] $end
    $var wire 1 1 err $end
    $var wire 1 2 r_optional $end
   $upscope $end
   $var wire 1 3 gnt $end
   $var wire 1 4 rvalid $end
  $upscope $end
  $var wire 1 9 spi_cs1_no $end
  $var wire 1 : spi_cs2_no $end
  $var wire 1 ; spi_dc_o $end
  $var wire 1 + req_ongoing $end
  $var wire 32 , prng_val1 [31:0] $end
  $var wire 32 - prng_val2 [31:0] $end
  $scope module dut $end
   $var wire 32 U PRNG_SEED [31:0] $end
   $var wire 1 D clk_i $end
   $var wire 1 # rst_ni $end
   $scope module obi_req_i $end
    $scope module a $end
     $var wire 32 $ addr [31:0] $end
     $var wire 1 % we $end
     $var wire 4 & be [3:0] $end
     $var wire 32 ' wdata [31:0] $end
     $var wire 3 ( aid [2:0] $end
     $var wire 1 ) a_optional $end
    $upscope $end
    $var wire 1 * req $end
   $upscope $end
   $scope module obi_rsp_o $end
    $scope module r $end
     $var wire 32 / rdata [31:0] $end
     $var wire 3 0 rid [2:0] $end
     $var wire 1 1 err $end
     $var wire 1 2 r_optional $end
    $upscope $end
    $var wire 1 3 gnt $end
    $var wire 1 4 rvalid $end
   $upscope $end
   $var wire 1 9 spi_cs1_no $end
   $var wire 1 : spi_cs2_no $end
   $var wire 1 ; spi_dc_o $end
   $var wire 32 V ADDR_WIDTH [31:0] $end
   $var wire 32 W DATA_WIDTH [31:0] $end
   $var wire 12 O GPIO_CTRL_OFFSET [11:0] $end
   $var wire 12 P PRNG_CTRL_OFFSET [11:0] $end
   $var wire 12 Q PRNG_READ_OFFSET [11:0] $end
   $var wire 32 R CS1_N_BIT [31:0] $end
   $var wire 32 S CS2_N_BIT [31:0] $end
   $var wire 32 T DC_BIT [31:0] $end
   $var wire 32 R PRNG_EN_BIT [31:0] $end
   $var wire 1 9 cs1_n_q $end
   $var wire 1 5 cs1_n_d $end
   $var wire 1 : cs2_n_q $end
   $var wire 1 6 cs2_n_d $end
   $var wire 1 ; dc_q $end
   $var wire 1 7 dc_d $end
   $var wire 1 E prng_en $end
   $var wire 32 < prng_out_q [31:0] $end
   $var wire 32 = prng_out_w [31:0] $end
   $var wire 1 > rvalid_q $end
   $var wire 32 ? rdata_q [31:0] $end
   $var wire 1 @ read_req_accepted $end
   $var wire 1 F write_req $end
   $var wire 1 G read_req $end
   $var wire 12 . addr_offset [11:0] $end
   $var wire 32 ' reg_wdata [31:0] $end
   $var wire 32 8 reg_rdata [31:0] $end
   $var wire 1 H grant_w $end
   $var wire 1 I grant_r $end
   $scope module i_xorshift $end
    $var wire 32 X WIDTH [31:0] $end
    $var wire 32 U SEED [31:0] $end
    $var wire 1 D clk_i $end
    $var wire 1 # rst_ni $end
    $var wire 1 E en_i $end
    $var wire 32 = rand_o [31:0] $end
    $var wire 32 = state_q [31:0] $end
    $var wire 32 A state_d [31:0] $end
    $var wire 32 Y SHIFT_A [31:0] $end
    $var wire 32 Z SHIFT_B [31:0] $end
    $var wire 32 [ SHIFT_C [31:0] $end
    $var wire 32 B t1 [31:0] $end
    $var wire 32 C t2 [31:0] $end
   $upscope $end
  $upscope $end
 $upscope $end
$enddefinitions $end


#0
0#
b00000000000000000000000000000000 $
0%
b0000 &
b00000000000000000000000000000000 '
b000 (
0)
0*
0+
b00000000000000000000000000000000 ,
b00000000000000000000000000000000 -
b000000000000 .
b00000000000000000000000000000000 /
b000 0
01
02
03
04
05
06
07
b00000000000000000000000000000000 8
09
0:
0;
b00000000000000000000000000000000 <
b00000000000000000000000000000000 =
0>
b00000000000000000000000000000000 ?
0@
b00000000000000000000000000000000 A
b00000000000000000000000000000000 B
b00000000000000000000000000000000 C
0D
0E
0F
0G
0H
0I
r49.99999999999999 J
r99.99999999999999 L
b00000000000000000000001111101000 N
b000000000000 O
b000000000100 P
b000000001000 Q
b00000000000000000000000000000000 R
b00000000000000000000000000000001 S
b00000000000000000000000000000010 T
b11001010111111101011101010111110 U
b00000000000000000000000000001100 V
b00000000000000000000000000100000 W
b00000000000000000000000000100000 X
b00000000000000000000000000001101 Y
b00000000000000000000000000010001 Z
b00000000000000000000000000000101 [
b00000000000001000111110111110100 \
b00000011111000100000111010001111 ]
b00000001001011111111100010000110 ^
b00000000000011110011000110000001 _
b00010001110100101110100010000001 `
b00000000001111100111101101110010 a
b0010 b
b01000 c
b0000000000000000000000000000000000000000000000000000100000000000 d
b0000000000000000000000000000000000000000000000000000100000001000 f
b0000000000000000000000000000000000000000000000000000100000010000 h
b001110000000 j
b001 k
b010 l
b011 m
b100 n
b000000 o
b00 p
b111 q
0r
b00000000000000000000000000000000 s
1t
b00000000000000000000000000000001 u
b00000000000000000000000000000011 v
b00100000000000000000000000000000 w
b00000000000000000001000000000000 x
b00100000000000000001000000000000 y
b00100000000000000010000000000000 z
b00100000000000000011000000000000 {
b00000000000000000000000000000100 |
b00000000000000000000000000000001 }
b00100000000000000001000000000000 ~
b00100000000000000010000000000000 !!
b00000000000000000000000000000010 "!
b00100000000000000011000000000000 #!
b00000000000000000000000000000011 $!
b00100000000000000100000000000000 %!
b00000000000000000000000000000100 &!
b0000 '!
b0100 (!
b1000 )!
b1100 *!
b1111 +!
b0001 ,!
b1111 -!
b0001 .!
b11011011001 /!
b1100000011000101 0!
b0000 1!
b00000000000000000000000000000000 2!
b00010000000000000000000000000000 3!
b00000000000000000000000000000010 4!
b00000000000000000000001000000000 5!
b00000000000000000000000000001001 6!
b00000000000000000001000000000000 7!
b01100000000000000000000000000000 8!
b00000000000000000000000000000101 9!
b00000000000000000000000000000000 :!
b00010000000000000000000000000000 ;!
b00010000000000000000100000000000 <!
b00010000000000000001000000000000 =!
b00000000000000000000000000000100 >!
b00100000000000000000000000000000 ?!
b10000000000000000000000000000000 @!
b00000000000001000000000000000000 A!
b00000011000000000000000000000000 B!
b00000011000000000010000000000000 C!
b00000011000000000101000000000000 D!
b00000011000000001010000000000000 E!
b00000000000000000000000000000110 F!
b00000000000000000000000000000101 G!
b00000011000000001010000000000000 H!
b00000011000000001011000000000000 I!
b00000011000000000101000000000000 J!
b00000011000000000110000000000000 K!
b00000011000000000010000000000000 L!
b00000011000000000011000000000000 M!
b00000011000000000000000000000000 N!
b00000011000000000001000000000000 O!
b00000000000001000000000000000000 P!
b00000000000000000000000000010000 Q!
b00000000000000000000000000001000 R!
b001110100000 S!
b001110110000 T!
b00000000000000000000000000000111 U!
b00000000000000000000000000001011 V!
b00000000000000000000000000001100 W!
b00000000000000000000000000010001 X!
b00000000000000000000000000010101 Y!
b01 Z!
b00000000000000000000000000011111 [!
b0000010 \!
b0000000000000000000001100 ]!
b00000000000000000000000000100011 ^!
b00000000000000000000011000000010 _!
#25000
15
16
19
1:
b11001010111111101011101010111110 =
b10101000100001111111100100101010 A
b00011101101010010111101010111110 B
b00011101101010010111010001101010 C
1D
#50000
0D
#75000
1D
#100000
1#
0D
#125000
b11001010111111101011101010111110 <
1D
#150000
0D
#175000
1%
b1111 &
b00000000000000000000000000000010 '
1*
1+
13
05
09
1D
1F
1H
#200000
0D
#225000
1D
#250000
0D
#275000
0*
0+
03
1D
0F
0H
#300000
0D
#325000
0%
b0000 &
b00000000000000000000000000000000 '
1D
#350000
0D
#375000
1D
#400000
0D
#425000
1D
#450000
0D
#475000
1D
#500000
0D
#525000
1D
#550000
0D
#575000
1D
#600000
0D
#625000
1D
#650000
0D
#675000
1%
b1111 &
b00000000000000000000000000000101 '
1*
1+
13
15
06
17
19
0:
1;
1D
1F
1H
#700000
0D
#725000
1D
#750000
0D
#775000
0*
0+
03
1D
0F
0H
#800000
0D
#825000
0%
b0000 &
b00000000000000000000000000000000 '
1D
#850000
0D
#875000
1D
#900000
0D
#925000
1D
#950000
0D
#975000
1D
#1000000
0D
#1025000
1D
#1050000
0D
#1075000
1D
#1100000
0D
#1125000
1D
#1150000
0D
#1175000
b00000000000000000000000000000100 $
1%
b1111 &
b00000000000000000000000000000001 '
1*
1+
b000000000100 .
13
b10101000100001111111100100101010 =
b10100011111100001100110110011011 A
b01010111101000101011100100101010 B
b01010111101000101001001011111011 C
1D
1E
1F
1H
#1200000
0D
#1225000
b10101000100001111111100100101010 <
b10100011111100001100110110011011 =
b11110010001111011110011111111010 A
b10111010010000111010110110011011 B
b10111010010000111111000010111010 C
1D
#1250000
0D
#1275000
0*
0+
03
b10100011111100001100110110011011 <
1D
0E
0F
0H
#1300000
0D
#1325000
b00000000000000000000000000000000 $
0%
b0000 &
b00000000000000000000000000000000 '
b000000000000 .
1D
#1350000
0D
#1375000
1D
#1400000
0D
#1425000
1D
#1450000
0D
#1475000
b00000000000000000000000000001000 $
1*
1+
b000000001000 .
13
b10100011111100001100110110011011 8
1@
1D
1G
1I
#1500000
0D
#1525000
b10100011111100001100110110011011 /
14
1>
b10100011111100001100110110011011 ?
1D
#1550000
0D
#1575000
0*
0+
03
0@
1D
0G
0I
#1600000
0D
#1625000
b00000000000000000000000000000000 $
b10100011111100001100110110011011 ,
b000000000000 .
04
b00000000000000000000000000000000 8
0>
1D
#1650000
0D
#1675000
b00000000000000000000000000000000 /
b00000000000000000000000000000000 ?
1D
#1700000
0D
#1725000
1D
#1750000
0D
#1775000
1D
#1800000
0D
#1825000
1D
#1850000
0D
#1875000
1D
#1900000
0D
#1925000
b00000000000000000000000000000100 $
1%
b1111 &
b00000000000000000000000000000001 '
1*
1+
b000000000100 .
13
b11110010001111011110011111111010 =
b10010110100100101001001111111011 A
b01001110110000101010011111111010 B
b01001110110000101000000010011011 C
1D
1E
1F
1H
#1950000
0D
#1975000
b11110010001111011110011111111010 <
b10010110100100101001001111111011 =
b01011001010111111010000000101101 A
b11000100111011011111001111111011 B
b11000100111011011001000110001101 C
1D
#2000000
0D
#2025000
0*
0+
03
b10010110100100101001001111111011 <
1D
0E
0F
0H
#2050000
0D
#2075000
b00000000000000000000000000000000 $
0%
b0000 &
b00000000000000000000000000000000 '
b000000000000 .
1D
#2100000
0D
#2125000
1D
#2150000
0D
#2175000
1D
#2200000
0D
#2225000
b00000000000000000000000000001000 $
1*
1+
b000000001000 .
13
b10010110100100101001001111111011 8
1@
1D
1G
1I
#2250000
0D
#2275000
b10010110100100101001001111111011 /
14
1>
b10010110100100101001001111111011 ?
1D
#2300000
0D
#2325000
0*
0+
03
0@
1D
0G
0I
#2350000
0D
#2375000
b00000000000000000000000000000000 $
b10010110100100101001001111111011 -
b000000000000 .
04
b00000000000000000000000000000000 8
0>
1D
#2400000
0D
#2425000
b00000000000000000000000000000000 /
b00000000000000000000000000000000 ?
1D
