tb_user_font_rom.vcd
$version Generated by VerilatedVcd $end
$timescale 1ps $end
 $scope module $rootio $end
 $upscope $end
 $scope module cb_filter_pkg $end
  $scope module EgSeeds[0] $end
   $var wire 32 F PermuteSeed [31:0] $end
   $var wire 32 G XorSeed [31:0] $end
  $upscope $end
  $scope module EgSeeds[1] $end
   $var wire 32 H PermuteSeed [31:0] $end
   $var wire 32 I XorSeed [31:0] $end
  $upscope $end
  $scope module EgSeeds[2] $end
   $var wire 32 J PermuteSeed [31:0] $end
   $var wire 32 K XorSeed [31:0] $end
  $upscope $end
 $upscope $end
 $scope module cve2_pkg $end
  $var wire 32 >! PMP_MAX_REGIONS [31:0] $end
  $var wire 32 ?! PMP_CFG_W [31:0] $end
  $var wire 32 ] PMP_I [31:0] $end
  $var wire 32 ` PMP_I2 [31:0] $end
  $var wire 32 w PMP_D [31:0] $end
  $var wire 12 @! CSR_OFF_PMP_CFG [11:0] $end
  $var wire 12 A! CSR_OFF_PMP_ADDR [11:0] $end
  $var wire 32 4! CSR_MSTATUS_MIE_BIT [31:0] $end
  $var wire 32 B! CSR_MSTATUS_MPIE_BIT [31:0] $end
  $var wire 32 C CSR_MSTATUS_MPP_BIT_LOW [31:0] $end
  $var wire 32 C! CSR_MSTATUS_MPP_BIT_HIGH [31:0] $end
  $var wire 32 D! CSR_MSTATUS_MPRV_BIT [31:0] $end
  $var wire 32 E! CSR_MSTATUS_TW_BIT [31:0] $end
  $var wire 2 F! CSR_MISA_MXL [1:0] $end
  $var wire 32 4! CSR_MSIX_BIT [31:0] $end
  $var wire 32 B! CSR_MTIX_BIT [31:0] $end
  $var wire 32 C CSR_MEIX_BIT [31:0] $end
  $var wire 32 >! CSR_MFIX_BIT_LOW [31:0] $end
  $var wire 32 G! CSR_MFIX_BIT_HIGH [31:0] $end
  $var wire 32 ] CSR_MSECCFG_MML_BIT [31:0] $end
  $var wire 32 ` CSR_MSECCFG_MMWP_BIT [31:0] $end
  $var wire 32 w CSR_MSECCFG_RLB_BIT [31:0] $end
  $var wire 7 H! MVENDORID_OFFSET [6:0] $end
  $var wire 25 I! MVENDORID_BANK [24:0] $end
  $var wire 32 J! MARCHID [31:0] $end
  $var wire 32 K! CSR_MVENDORID_VALUE [31:0] $end
  $var wire 32 J! CSR_MARCHID_VALUE [31:0] $end
  $var wire 32 | CSR_MIMPID_VALUE [31:0] $end
  $var wire 32 | CSR_MCONFIGPTR_VALUE [31:0] $end
 $upscope $end
 $scope module obi_pkg $end
  $var wire 6 Y DefaultAtop [5:0] $end
  $var wire 2 Z DefaultMemtype [1:0] $end
  $var wire 3 [ DefaultProt [2:0] $end
  $scope module ObiMinimalOptionalConfig $end
   $var wire 1 \ UseAtop $end
   $var wire 1 \ UseMemtype $end
   $var wire 1 \ UseProt $end
   $var wire 1 \ UseDbg $end
   $var wire 32 ] AUserWidth [31:0] $end
   $var wire 32 ] WUserWidth [31:0] $end
   $var wire 32 ] RUserWidth [31:0] $end
   $var wire 32 ] MidWidth [31:0] $end
   $var wire 32 ] AChkWidth [31:0] $end
   $var wire 32 ] RChkWidth [31:0] $end
  $upscope $end
  $scope module ObiAtopOptionalConfig $end
   $var wire 1 ^ UseAtop $end
   $var wire 1 \ UseMemtype $end
   $var wire 1 \ UseProt $end
   $var wire 1 \ UseDbg $end
   $var wire 32 ] AUserWidth [31:0] $end
   $var wire 32 ] WUserWidth [31:0] $end
   $var wire 32 ] RUserWidth [31:0] $end
   $var wire 32 ] MidWidth [31:0] $end
   $var wire 32 ] AChkWidth [31:0] $end
   $var wire 32 ] RChkWidth [31:0] $end
  $upscope $end
  $scope module ObiDefaultConfig $end
   $var wire 1 \ UseRReady $end
   $var wire 1 \ CombGnt $end
   $var wire 32 _ AddrWidth [31:0] $end
   $var wire 32 _ DataWidth [31:0] $end
   $var wire 32 ` IdWidth [31:0] $end
   $var wire 1 \ Integrity $end
   $var wire 1 ^ BeFull $end
   $scope module OptionalCfg $end
    $var wire 1 \ UseAtop $end
    $var wire 1 \ UseMemtype $end
    $var wire 1 \ UseProt $end
    $var wire 1 \ UseDbg $end
    $var wire 32 ] AUserWidth [31:0] $end
    $var wire 32 ] WUserWidth [31:0] $end
    $var wire 32 ] RUserWidth [31:0] $end
    $var wire 32 ] MidWidth [31:0] $end
    $var wire 32 ] AChkWidth [31:0] $end
    $var wire 32 ] RChkWidth [31:0] $end
   $upscope $end
  $upscope $end
 $upscope $end
 $scope module dm $end
  $var wire 4 L DbgVersion013 [3:0] $end
  $var wire 5 M ProgBufSize [4:0] $end
  $var wire 4 L DataCount [3:0] $end
  $var wire 64 N HaltAddress [63:0] $end
  $var wire 64 P ResumeAddress [63:0] $end
  $var wire 64 R ExceptionAddress [63:0] $end
  $var wire 12 T DataAddr [11:0] $end
  $var wire 3 U CauseBreakpoint [2:0] $end
  $var wire 3 V CauseTrigger [2:0] $end
  $var wire 3 W CauseRequest [2:0] $end
  $var wire 3 X CauseSingleStep [2:0] $end
 $upscope $end
 $scope module croc_pkg $end
  $var wire 32 ] HartId [31:0] $end
  $var wire 11 r JtagPulpManufacturer [10:0] $end
  $var wire 16 s JtagCrocPartNum [15:0] $end
  $var wire 4 t JtagCrocVersion [3:0] $end
  $scope module PulpJtagIdCode $end
   $var wire 4 t version [3:0] $end
   $var wire 16 s part_num [15:0] $end
   $var wire 11 r manufacturer [10:0] $end
   $var wire 1 ^ _one $end
  $upscope $end
  $var wire 32 a NumExternalIrqs [31:0] $end
  $var wire 32 u PeriphBaseAddr [31:0] $end
  $var wire 32 v PeriphAddrRange [31:0] $end
  $var wire 32 v SramBaseAddr [31:0] $end
  $var wire 32 w NumSramBanks [31:0] $end
  $var wire 32 x SramBankNumWords [31:0] $end
  $var wire 32 y SramBankAddrWidth [31:0] $end
  $var wire 32 z SramAddrRange [31:0] $end
  $var wire 32 b UserBaseAddr [31:0] $end
  $var wire 32 { UserAddrRange [31:0] $end
  $var wire 32 a NumCrocDomainSubordinates [31:0] $end
  $var wire 32 a NumXbarManagers [31:0] $end
  $var wire 32 a NumXbarSbrRules [31:0] $end
  $var wire 32 h NumXbarSbr [31:0] $end
  $scope module croc_addr_map[0] $end
   $var wire 32 i idx [31:0] $end
   $var wire 32 | start_addr [31:0] $end
   $var wire 32 } end_addr [31:0] $end
  $upscope $end
  $scope module croc_addr_map[1] $end
   $var wire 32 l idx [31:0] $end
   $var wire 32 } start_addr [31:0] $end
   $var wire 32 ~ end_addr [31:0] $end
  $upscope $end
  $scope module croc_addr_map[2] $end
   $var wire 32 n idx [31:0] $end
   $var wire 32 ~ start_addr [31:0] $end
   $var wire 32 !! end_addr [31:0] $end
  $upscope $end
  $scope module croc_addr_map[3] $end
   $var wire 32 p idx [31:0] $end
   $var wire 32 "! start_addr [31:0] $end
   $var wire 32 #! end_addr [31:0] $end
  $upscope $end
  $var wire 32 u DebugAddrOffset [31:0] $end
  $var wire 32 $! DebugAddrRange [31:0] $end
  $var wire 32 %! SocCtrlAddrOffset [31:0] $end
  $var wire 32 c SocCtrlAddrRange [31:0] $end
  $var wire 32 &! UartAddrOffset [31:0] $end
  $var wire 32 c UartAddrRange [31:0] $end
  $var wire 32 '! GpioAddrOffset [31:0] $end
  $var wire 32 c GpioAddrRange [31:0] $end
  $var wire 32 (! TimerAddrOffset [31:0] $end
  $var wire 32 c TimerAddrRange [31:0] $end
  $var wire 32 h NumPeriphRules [31:0] $end
  $var wire 32 )! NumPeriphs [31:0] $end
  $scope module periph_addr_map[0] $end
   $var wire 32 *! idx [31:0] $end
   $var wire 32 +! start_addr [31:0] $end
   $var wire 32 ,! end_addr [31:0] $end
  $upscope $end
  $scope module periph_addr_map[1] $end
   $var wire 32 p idx [31:0] $end
   $var wire 32 -! start_addr [31:0] $end
   $var wire 32 .! end_addr [31:0] $end
  $upscope $end
  $scope module periph_addr_map[2] $end
   $var wire 32 n idx [31:0] $end
   $var wire 32 /! start_addr [31:0] $end
   $var wire 32 0! end_addr [31:0] $end
  $upscope $end
  $scope module periph_addr_map[3] $end
   $var wire 32 l idx [31:0] $end
   $var wire 32 1! start_addr [31:0] $end
   $var wire 32 2! end_addr [31:0] $end
  $upscope $end
  $scope module periph_addr_map[4] $end
   $var wire 32 i idx [31:0] $end
   $var wire 32 | start_addr [31:0] $end
   $var wire 32 3! end_addr [31:0] $end
  $upscope $end
  $scope module MgrObiCfg $end
   $var wire 1 \ UseRReady $end
   $var wire 1 \ CombGnt $end
   $var wire 32 _ AddrWidth [31:0] $end
   $var wire 32 _ DataWidth [31:0] $end
   $var wire 32 ` IdWidth [31:0] $end
   $var wire 1 \ Integrity $end
   $var wire 1 ^ BeFull $end
   $scope module OptionalCfg $end
    $var wire 1 \ UseAtop $end
    $var wire 1 \ UseMemtype $end
    $var wire 1 \ UseProt $end
    $var wire 1 \ UseDbg $end
    $var wire 32 ] AUserWidth [31:0] $end
    $var wire 32 ] WUserWidth [31:0] $end
    $var wire 32 ] RUserWidth [31:0] $end
    $var wire 32 ] MidWidth [31:0] $end
    $var wire 32 ] AChkWidth [31:0] $end
    $var wire 32 ] RChkWidth [31:0] $end
   $upscope $end
  $upscope $end
  $scope module SbrObiCfg $end
   $var wire 1 \ UseRReady $end
   $var wire 1 \ CombGnt $end
   $var wire 32 _ AddrWidth [31:0] $end
   $var wire 32 _ DataWidth [31:0] $end
   $var wire 32 4! IdWidth [31:0] $end
   $var wire 1 \ Integrity $end
   $var wire 1 ^ BeFull $end
   $scope module OptionalCfg $end
    $var wire 1 \ UseAtop $end
    $var wire 1 \ UseMemtype $end
    $var wire 1 \ UseProt $end
    $var wire 1 \ UseDbg $end
    $var wire 32 ] AUserWidth [31:0] $end
    $var wire 32 ] WUserWidth [31:0] $end
    $var wire 32 ] RUserWidth [31:0] $end
    $var wire 32 ] MidWidth [31:0] $end
    $var wire 32 ] AChkWidth [31:0] $end
    $var wire 32 ] RChkWidth [31:0] $end
   $upscope $end
  $upscope $end
 $upscope $end
 $scope module user_pkg $end
  $var wire 32 a NumUserDomainSubordinates [31:0] $end
  $var wire 32 b UserDomainBaseAddr [31:0] $end
  $var wire 32 c UserPeriphRange [31:0] $end
  $var wire 32 d UserSpiAddrOffset [31:0] $end
  $var wire 32 e UserSpiCtrlAddrOffset [31:0] $end
  $var wire 32 f UserFontRomAddrOffset [31:0] $end
  $var wire 32 g UserPrngAddrOffset [31:0] $end
  $var wire 32 a NumDemuxSbrRules [31:0] $end
  $var wire 32 h NumDemuxSbr [31:0] $end
  $scope module user_addr_map[0] $end
   $var wire 32 i idx [31:0] $end
   $var wire 32 j start_addr [31:0] $end
   $var wire 32 k end_addr [31:0] $end
  $upscope $end
  $scope module user_addr_map[1] $end
   $var wire 32 l idx [31:0] $end
   $var wire 32 k start_addr [31:0] $end
   $var wire 32 m end_addr [31:0] $end
  $upscope $end
  $scope module user_addr_map[2] $end
   $var wire 32 n idx [31:0] $end
   $var wire 32 m start_addr [31:0] $end
   $var wire 32 o end_addr [31:0] $end
  $upscope $end
  $scope module user_addr_map[3] $end
   $var wire 32 p idx [31:0] $end
   $var wire 32 o start_addr [31:0] $end
   $var wire 32 q end_addr [31:0] $end
  $upscope $end
 $upscope $end
 $scope module soc_ctrl_reg_pkg $end
  $var wire 32 5! BlockAw [31:0] $end
  $var wire 4 6! SOC_CTRL_BOOTADDR_OFFSET [3:0] $end
  $var wire 4 7! SOC_CTRL_FETCHEN_OFFSET [3:0] $end
  $var wire 4 8! SOC_CTRL_CORESTATUS_OFFSET [3:0] $end
  $var wire 4 9! SOC_CTRL_BOOTMODE_OFFSET [3:0] $end
  $var wire 4 :! SOC_CTRL_PERMIT[0] [3:0] $end
  $var wire 4 ;! SOC_CTRL_PERMIT[1] [3:0] $end
  $var wire 4 <! SOC_CTRL_PERMIT[2] [3:0] $end
  $var wire 4 =! SOC_CTRL_PERMIT[3] [3:0] $end
 $upscope $end
 $scope module tb_user_font_rom $end
  $var real 64 = CLK_PERIOD $end
  $var real 64 ? RESET_DURATION $end
  $var wire 32 A OBI_TIMEOUT [31:0] $end
  $var wire 32 B ROM_SIZE [31:0] $end
  $var wire 32 C ROM_ADDR_BITS [31:0] $end
  $var wire 1 9 clk_i $end
  $var wire 1 # rst_ni $end
  $scope module obi_req $end
   $scope module a $end
    $var wire 32 $ addr [31:0] $end
    $var wire 1 % we $end
    $var wire 4 & be [3:0] $end
    $var wire 32 ' wdata [31:0] $end
    $var wire 3 ( aid [2:0] $end
    $var wire 1 ) a_optional $end
   $upscope $end
   $var wire 1 * req $end
  $upscope $end
  $scope module obi_rsp $end
   $scope module r $end
    $var wire 32 0 rdata [31:0] $end
    $var wire 3 1 rid [2:0] $end
    $var wire 1 2 err $end
    $var wire 1 3 r_optional $end
   $upscope $end
   $var wire 1 4 gnt $end
   $var wire 1 5 rvalid $end
  $upscope $end
  $var wire 1 + req_ongoing $end
  $scope module dut $end
   $var wire 32 B ROM_SIZE [31:0] $end
   $var wire 32 C ROM_ADDR_BITS [31:0] $end
   $var wire 1 9 clk_i $end
   $var wire 1 # rst_ni $end
   $scope module obi_req_i $end
    $scope module a $end
     $var wire 32 $ addr [31:0] $end
     $var wire 1 % we $end
     $var wire 4 & be [3:0] $end
     $var wire 32 ' wdata [31:0] $end
     $var wire 3 ( aid [2:0] $end
     $var wire 1 ) a_optional $end
    $upscope $end
    $var wire 1 * req $end
   $upscope $end
   $scope module obi_rsp_o $end
    $scope module r $end
     $var wire 32 0 rdata [31:0] $end
     $var wire 3 1 rid [2:0] $end
     $var wire 1 2 err $end
     $var wire 1 3 r_optional $end
    $upscope $end
    $var wire 1 4 gnt $end
    $var wire 1 5 rvalid $end
   $upscope $end
   $var wire 32 D ADDR_WIDTH [31:0] $end
   $var wire 32 E DATA_WIDTH [31:0] $end
   $var wire 1 6 rvalid_q $end
   $var wire 32 7 rdata_q [31:0] $end
   $var wire 1 8 read_req_accepted $end
   $var wire 12 , addr_offset [11:0] $end
   $var wire 1 - read_addr_valid $end
   $var wire 1 : read_req $end
   $var wire 8 ; rom_byte_data_comb [7:0] $end
   $scope module check_file_exists_label $end
    $var wire 32 < file_handle [31:0] $end
   $upscope $end
  $upscope $end
  $scope module unnamedblk1 $end
   $var wire 32 . read_data [31:0] $end
   $var wire 1 / read_err $end
  $upscope $end
 $upscope $end
$enddefinitions $end


#0
0#
b00000000000000000000000000000000 $
0%
b0000 &
b00000000000000000000000000000000 '
b000 (
0)
0*
0+
b000000000000 ,
1-
b00000000000000000000000000000000 .
0/
b00000000000000000000000000000000 0
b000 1
02
03
04
05
06
b00000000000000000000000000000000 7
08
09
0:
b00000000 ;
b10000000000000000000000000101100 <
r49.99999999999999 =
r99.99999999999999 ?
b00000000000000000000001111101000 A
b00000000000000000000010001110100 B
b00000000000000000000000000001011 C
b00000000000000000000000000001100 D
b00000000000000000000000000100000 E
b00000000000001000111110111110100 F
b00000011111000100000111010001111 G
b00000001001011111111100010000110 H
b00000000000011110011000110000001 I
b00010001110100101110100010000001 J
b00000000001111100111101101110010 K
b0010 L
b01000 M
b0000000000000000000000000000000000000000000000000000100000000000 N
b0000000000000000000000000000000000000000000000000000100000001000 P
b0000000000000000000000000000000000000000000000000000100000010000 R
b001110000000 T
b001 U
b010 V
b011 W
b100 X
b000000 Y
b00 Z
b111 [
0\
b00000000000000000000000000000000 ]
1^
b00000000000000000000000000100000 _
b00000000000000000000000000000001 `
b00000000000000000000000000000100 a
b00100000000000000000000000000000 b
b00000000000000000001000000000000 c
b00100000000000000001000000000000 d
b00100000000000000010000000000000 e
b00100000000000000011000000000000 f
b00100000000000000100000000000000 g
b00000000000000000000000000000101 h
b00000000000000000000000000000001 i
b00100000000000000001000000000000 j
b00100000000000000010000000000000 k
b00000000000000000000000000000010 l
b00100000000000000011000000000000 m
b00000000000000000000000000000011 n
b00100000000000000100000000000000 o
b00000000000000000000000000000100 p
b00100000000000000101000000000000 q
b11011011001 r
b1100000011000101 s
b0000 t
b00000000000000000000000000000000 u
b00010000000000000000000000000000 v
b00000000000000000000000000000010 w
b00000000000000000000001000000000 x
b00000000000000000000000000001001 y
b00000000000000000001000000000000 z
b01100000000000000000000000000000 {
b00000000000000000000000000000000 |
b00010000000000000000000000000000 }
b00010000000000000000100000000000 ~
b00010000000000000001000000000000 !!
b00100000000000000000000000000000 "!
b10000000000000000000000000000000 #!
b00000000000001000000000000000000 $!
b00000011000000000000000000000000 %!
b00000011000000000010000000000000 &!
b00000011000000000101000000000000 '!
b00000011000000001010000000000000 (!
b00000000000000000000000000000110 )!
b00000000000000000000000000000101 *!
b00000011000000001010000000000000 +!
b00000011000000001011000000000000 ,!
b00000011000000000101000000000000 -!
b00000011000000000110000000000000 .!
b00000011000000000010000000000000 /!
b00000011000000000011000000000000 0!
b00000011000000000000000000000000 1!
b00000011000000000001000000000000 2!
b00000000000001000000000000000000 3!
b00000000000000000000000000000011 4!
b00000000000000000000000000000100 5!
b0000 6!
b0100 7!
b1000 8!
b1100 9!
b1111 :!
b0001 ;!
b1111 <!
b0001 =!
b00000000000000000000000000010000 >!
b00000000000000000000000000001000 ?!
b001110100000 @!
b001110110000 A!
b00000000000000000000000000000111 B!
b00000000000000000000000000001100 C!
b00000000000000000000000000010001 D!
b00000000000000000000000000010101 E!
b01 F!
b00000000000000000000000000011111 G!
b0000010 H!
b0000000000000000000001100 I!
b00000000000000000000000000100011 J!
b00000000000000000000011000000010 K!
#25000
19
#50000
09
#75000
19
#100000
1#
09
#125000
19
#150000
09
#175000
b00000000000000000000000110001100 $
1*
1+
b000110001100 ,
14
18
19
1:
#200000
09
#225000
15
16
19
#250000
09
#275000
0*
0+
04
08
19
0:
#300000
09
#325000
b00000000000000000000000000000000 $
b000000000000 ,
05
06
19
#350000
09
#375000
19
#400000
09
#425000
19
#450000
09
#475000
19
#500000
09
#525000
19
#550000
09
#575000
19
#600000
09
#625000
b00000000000000000000000110010111 $
1*
1+
b000110010111 ,
14
18
19
1:
b01000000 ;
#650000
09
#675000
b00000000000000000000000001000000 0
15
16
b00000000000000000000000001000000 7
19
#700000
09
#725000
0*
0+
04
08
19
0:
#750000
09
#775000
b00000000000000000000000000000000 $
b000000000000 ,
b00000000000000000000000001000000 .
05
06
19
b00000000 ;
#800000
09
#825000
b00000000000000000000000000000000 0
b00000000000000000000000000000000 7
19
#850000
09
#875000
19
#900000
09
#925000
19
#950000
09
#975000
19
#1000000
09
#1025000
19
#1050000
09
#1075000
b00000000000000000000001100001100 $
1*
1+
b001100001100 ,
14
18
19
1:
#1100000
09
#1125000
15
16
19
#1150000
09
#1175000
0*
0+
04
08
19
0:
#1200000
09
#1225000
b00000000000000000000000000000000 $
b000000000000 ,
b00000000000000000000000000000000 .
05
06
19
#1250000
09
#1275000
19
#1300000
09
#1325000
19
#1350000
09
#1375000
19
#1400000
09
#1425000
19
#1450000
09
#1475000
19
#1500000
09
#1525000
b00000000000000000000010001110011 $
1*
1+
b010001110011 ,
14
18
19
1:
#1550000
09
#1575000
15
16
19
#1600000
09
#1625000
0*
0+
04
08
19
0:
#1650000
09
#1675000
b00000000000000000000000000000000 $
b000000000000 ,
05
06
19
#1700000
09
#1725000
19
#1750000
09
#1775000
19
#1800000
09
#1825000
19
#1850000
09
#1875000
19
#1900000
09
#1925000
19
#1950000
09
#1975000
b00000000000000000000010001110100 $
1*
1+
b010001110100 ,
0-
12
19
1:
#2000000
09
#2025000
0*
0+
02
19
0:
#2050000
09
#2075000
b00000000000000000000000000000000 $
b000000000000 ,
1-
b11011110101011011011111011101111 .
1/
19
