tb_user_spi_ctrl.vcd
$version Generated by VerilatedVcd $end
$timescale 1ps $end
 $scope module $rootio $end
 $upscope $end
 $scope module cb_filter_pkg $end
  $scope module EgSeeds[0] $end
   $var wire 32 L PermuteSeed [31:0] $end
   $var wire 32 M XorSeed [31:0] $end
  $upscope $end
  $scope module EgSeeds[1] $end
   $var wire 32 N PermuteSeed [31:0] $end
   $var wire 32 O XorSeed [31:0] $end
  $upscope $end
  $scope module EgSeeds[2] $end
   $var wire 32 P PermuteSeed [31:0] $end
   $var wire 32 Q XorSeed [31:0] $end
  $upscope $end
 $upscope $end
 $scope module cve2_pkg $end
  $var wire 32 D! PMP_MAX_REGIONS [31:0] $end
  $var wire 32 E! PMP_CFG_W [31:0] $end
  $var wire 32 c PMP_I [31:0] $end
  $var wire 32 f PMP_I2 [31:0] $end
  $var wire 32 (! PMP_D [31:0] $end
  $var wire 12 F! CSR_OFF_PMP_CFG [11:0] $end
  $var wire 12 G! CSR_OFF_PMP_ADDR [11:0] $end
  $var wire 32 C! CSR_MSTATUS_MIE_BIT [31:0] $end
  $var wire 32 H! CSR_MSTATUS_MPIE_BIT [31:0] $end
  $var wire 32 I! CSR_MSTATUS_MPP_BIT_LOW [31:0] $end
  $var wire 32 J! CSR_MSTATUS_MPP_BIT_HIGH [31:0] $end
  $var wire 32 K! CSR_MSTATUS_MPRV_BIT [31:0] $end
  $var wire 32 L! CSR_MSTATUS_TW_BIT [31:0] $end
  $var wire 2 M! CSR_MISA_MXL [1:0] $end
  $var wire 32 C! CSR_MSIX_BIT [31:0] $end
  $var wire 32 H! CSR_MTIX_BIT [31:0] $end
  $var wire 32 I! CSR_MEIX_BIT [31:0] $end
  $var wire 32 D! CSR_MFIX_BIT_LOW [31:0] $end
  $var wire 32 N! CSR_MFIX_BIT_HIGH [31:0] $end
  $var wire 32 c CSR_MSECCFG_MML_BIT [31:0] $end
  $var wire 32 f CSR_MSECCFG_MMWP_BIT [31:0] $end
  $var wire 32 (! CSR_MSECCFG_RLB_BIT [31:0] $end
  $var wire 7 O! MVENDORID_OFFSET [6:0] $end
  $var wire 25 P! MVENDORID_BANK [24:0] $end
  $var wire 32 Q! MARCHID [31:0] $end
  $var wire 32 R! CSR_MVENDORID_VALUE [31:0] $end
  $var wire 32 Q! CSR_MARCHID_VALUE [31:0] $end
  $var wire 32 -! CSR_MIMPID_VALUE [31:0] $end
  $var wire 32 -! CSR_MCONFIGPTR_VALUE [31:0] $end
 $upscope $end
 $scope module obi_pkg $end
  $var wire 6 _ DefaultAtop [5:0] $end
  $var wire 2 ` DefaultMemtype [1:0] $end
  $var wire 3 a DefaultProt [2:0] $end
  $scope module ObiMinimalOptionalConfig $end
   $var wire 1 b UseAtop $end
   $var wire 1 b UseMemtype $end
   $var wire 1 b UseProt $end
   $var wire 1 b UseDbg $end
   $var wire 32 c AUserWidth [31:0] $end
   $var wire 32 c WUserWidth [31:0] $end
   $var wire 32 c RUserWidth [31:0] $end
   $var wire 32 c MidWidth [31:0] $end
   $var wire 32 c AChkWidth [31:0] $end
   $var wire 32 c RChkWidth [31:0] $end
  $upscope $end
  $scope module ObiAtopOptionalConfig $end
   $var wire 1 d UseAtop $end
   $var wire 1 b UseMemtype $end
   $var wire 1 b UseProt $end
   $var wire 1 b UseDbg $end
   $var wire 32 c AUserWidth [31:0] $end
   $var wire 32 c WUserWidth [31:0] $end
   $var wire 32 c RUserWidth [31:0] $end
   $var wire 32 c MidWidth [31:0] $end
   $var wire 32 c AChkWidth [31:0] $end
   $var wire 32 c RChkWidth [31:0] $end
  $upscope $end
  $scope module ObiDefaultConfig $end
   $var wire 1 b UseRReady $end
   $var wire 1 b CombGnt $end
   $var wire 32 e AddrWidth [31:0] $end
   $var wire 32 e DataWidth [31:0] $end
   $var wire 32 f IdWidth [31:0] $end
   $var wire 1 b Integrity $end
   $var wire 1 d BeFull $end
   $scope module OptionalCfg $end
    $var wire 1 b UseAtop $end
    $var wire 1 b UseMemtype $end
    $var wire 1 b UseProt $end
    $var wire 1 b UseDbg $end
    $var wire 32 c AUserWidth [31:0] $end
    $var wire 32 c WUserWidth [31:0] $end
    $var wire 32 c RUserWidth [31:0] $end
    $var wire 32 c MidWidth [31:0] $end
    $var wire 32 c AChkWidth [31:0] $end
    $var wire 32 c RChkWidth [31:0] $end
   $upscope $end
  $upscope $end
 $upscope $end
 $scope module dm $end
  $var wire 4 R DbgVersion013 [3:0] $end
  $var wire 5 S ProgBufSize [4:0] $end
  $var wire 4 R DataCount [3:0] $end
  $var wire 64 T HaltAddress [63:0] $end
  $var wire 64 V ResumeAddress [63:0] $end
  $var wire 64 X ExceptionAddress [63:0] $end
  $var wire 12 Z DataAddr [11:0] $end
  $var wire 3 [ CauseBreakpoint [2:0] $end
  $var wire 3 \ CauseTrigger [2:0] $end
  $var wire 3 ] CauseRequest [2:0] $end
  $var wire 3 ^ CauseSingleStep [2:0] $end
 $upscope $end
 $scope module croc_pkg $end
  $var wire 32 c HartId [31:0] $end
  $var wire 11 #! JtagPulpManufacturer [10:0] $end
  $var wire 16 $! JtagCrocPartNum [15:0] $end
  $var wire 4 %! JtagCrocVersion [3:0] $end
  $scope module PulpJtagIdCode $end
   $var wire 4 %! version [3:0] $end
   $var wire 16 $! part_num [15:0] $end
   $var wire 11 #! manufacturer [10:0] $end
   $var wire 1 d _one $end
  $upscope $end
  $var wire 32 g NumExternalIrqs [31:0] $end
  $var wire 32 &! PeriphBaseAddr [31:0] $end
  $var wire 32 '! PeriphAddrRange [31:0] $end
  $var wire 32 '! SramBaseAddr [31:0] $end
  $var wire 32 (! NumSramBanks [31:0] $end
  $var wire 32 )! SramBankNumWords [31:0] $end
  $var wire 32 *! SramBankAddrWidth [31:0] $end
  $var wire 32 +! SramAddrRange [31:0] $end
  $var wire 32 h UserBaseAddr [31:0] $end
  $var wire 32 ,! UserAddrRange [31:0] $end
  $var wire 32 g NumCrocDomainSubordinates [31:0] $end
  $var wire 32 g NumXbarManagers [31:0] $end
  $var wire 32 g NumXbarSbrRules [31:0] $end
  $var wire 32 n NumXbarSbr [31:0] $end
  $scope module croc_addr_map[0] $end
   $var wire 32 o idx [31:0] $end
   $var wire 32 -! start_addr [31:0] $end
   $var wire 32 .! end_addr [31:0] $end
  $upscope $end
  $scope module croc_addr_map[1] $end
   $var wire 32 r idx [31:0] $end
   $var wire 32 .! start_addr [31:0] $end
   $var wire 32 /! end_addr [31:0] $end
  $upscope $end
  $scope module croc_addr_map[2] $end
   $var wire 32 t idx [31:0] $end
   $var wire 32 /! start_addr [31:0] $end
   $var wire 32 0! end_addr [31:0] $end
  $upscope $end
  $scope module croc_addr_map[3] $end
   $var wire 32 v idx [31:0] $end
   $var wire 32 1! start_addr [31:0] $end
   $var wire 32 2! end_addr [31:0] $end
  $upscope $end
  $var wire 32 &! DebugAddrOffset [31:0] $end
  $var wire 32 3! DebugAddrRange [31:0] $end
  $var wire 32 4! SocCtrlAddrOffset [31:0] $end
  $var wire 32 i SocCtrlAddrRange [31:0] $end
  $var wire 32 5! UartAddrOffset [31:0] $end
  $var wire 32 i UartAddrRange [31:0] $end
  $var wire 32 6! GpioAddrOffset [31:0] $end
  $var wire 32 i GpioAddrRange [31:0] $end
  $var wire 32 7! TimerAddrOffset [31:0] $end
  $var wire 32 i TimerAddrRange [31:0] $end
  $var wire 32 n NumPeriphRules [31:0] $end
  $var wire 32 8! NumPeriphs [31:0] $end
  $scope module periph_addr_map[0] $end
   $var wire 32 9! idx [31:0] $end
   $var wire 32 :! start_addr [31:0] $end
   $var wire 32 ;! end_addr [31:0] $end
  $upscope $end
  $scope module periph_addr_map[1] $end
   $var wire 32 v idx [31:0] $end
   $var wire 32 <! start_addr [31:0] $end
   $var wire 32 =! end_addr [31:0] $end
  $upscope $end
  $scope module periph_addr_map[2] $end
   $var wire 32 t idx [31:0] $end
   $var wire 32 >! start_addr [31:0] $end
   $var wire 32 ?! end_addr [31:0] $end
  $upscope $end
  $scope module periph_addr_map[3] $end
   $var wire 32 r idx [31:0] $end
   $var wire 32 @! start_addr [31:0] $end
   $var wire 32 A! end_addr [31:0] $end
  $upscope $end
  $scope module periph_addr_map[4] $end
   $var wire 32 o idx [31:0] $end
   $var wire 32 -! start_addr [31:0] $end
   $var wire 32 B! end_addr [31:0] $end
  $upscope $end
  $scope module MgrObiCfg $end
   $var wire 1 b UseRReady $end
   $var wire 1 b CombGnt $end
   $var wire 32 e AddrWidth [31:0] $end
   $var wire 32 e DataWidth [31:0] $end
   $var wire 32 f IdWidth [31:0] $end
   $var wire 1 b Integrity $end
   $var wire 1 d BeFull $end
   $scope module OptionalCfg $end
    $var wire 1 b UseAtop $end
    $var wire 1 b UseMemtype $end
    $var wire 1 b UseProt $end
    $var wire 1 b UseDbg $end
    $var wire 32 c AUserWidth [31:0] $end
    $var wire 32 c WUserWidth [31:0] $end
    $var wire 32 c RUserWidth [31:0] $end
    $var wire 32 c MidWidth [31:0] $end
    $var wire 32 c AChkWidth [31:0] $end
    $var wire 32 c RChkWidth [31:0] $end
   $upscope $end
  $upscope $end
  $scope module SbrObiCfg $end
   $var wire 1 b UseRReady $end
   $var wire 1 b CombGnt $end
   $var wire 32 e AddrWidth [31:0] $end
   $var wire 32 e DataWidth [31:0] $end
   $var wire 32 C! IdWidth [31:0] $end
   $var wire 1 b Integrity $end
   $var wire 1 d BeFull $end
   $scope module OptionalCfg $end
    $var wire 1 b UseAtop $end
    $var wire 1 b UseMemtype $end
    $var wire 1 b UseProt $end
    $var wire 1 b UseDbg $end
    $var wire 32 c AUserWidth [31:0] $end
    $var wire 32 c WUserWidth [31:0] $end
    $var wire 32 c RUserWidth [31:0] $end
    $var wire 32 c MidWidth [31:0] $end
    $var wire 32 c AChkWidth [31:0] $end
    $var wire 32 c RChkWidth [31:0] $end
   $upscope $end
  $upscope $end
 $upscope $end
 $scope module user_pkg $end
  $var wire 32 g NumUserDomainSubordinates [31:0] $end
  $var wire 32 h UserDomainBaseAddr [31:0] $end
  $var wire 32 i UserPeriphRange [31:0] $end
  $var wire 32 j UserSpiAddrOffset [31:0] $end
  $var wire 32 k UserSpiCtrlAddrOffset [31:0] $end
  $var wire 32 l UserFontRomAddrOffset [31:0] $end
  $var wire 32 m UserPrngAddrOffset [31:0] $end
  $var wire 32 g NumDemuxSbrRules [31:0] $end
  $var wire 32 n NumDemuxSbr [31:0] $end
  $scope module user_addr_map[0] $end
   $var wire 32 o idx [31:0] $end
   $var wire 32 p start_addr [31:0] $end
   $var wire 32 q end_addr [31:0] $end
  $upscope $end
  $scope module user_addr_map[1] $end
   $var wire 32 r idx [31:0] $end
   $var wire 32 q start_addr [31:0] $end
   $var wire 32 s end_addr [31:0] $end
  $upscope $end
  $scope module user_addr_map[2] $end
   $var wire 32 t idx [31:0] $end
   $var wire 32 s start_addr [31:0] $end
   $var wire 32 u end_addr [31:0] $end
  $upscope $end
  $scope module user_addr_map[3] $end
   $var wire 32 v idx [31:0] $end
   $var wire 32 u start_addr [31:0] $end
   $var wire 32 w end_addr [31:0] $end
  $upscope $end
 $upscope $end
 $scope module soc_ctrl_reg_pkg $end
  $var wire 32 x BlockAw [31:0] $end
  $var wire 4 y SOC_CTRL_BOOTADDR_OFFSET [3:0] $end
  $var wire 4 z SOC_CTRL_FETCHEN_OFFSET [3:0] $end
  $var wire 4 { SOC_CTRL_CORESTATUS_OFFSET [3:0] $end
  $var wire 4 | SOC_CTRL_BOOTMODE_OFFSET [3:0] $end
  $var wire 4 } SOC_CTRL_PERMIT[0] [3:0] $end
  $var wire 4 ~ SOC_CTRL_PERMIT[1] [3:0] $end
  $var wire 4 !! SOC_CTRL_PERMIT[2] [3:0] $end
  $var wire 4 "! SOC_CTRL_PERMIT[3] [3:0] $end
 $upscope $end
 $scope module tb_user_spi_ctrl $end
  $var real 64 A CLK_PERIOD $end
  $var real 64 C RESET_DURATION $end
  $var wire 32 E OBI_TIMEOUT [31:0] $end
  $var wire 12 F GPIO_CTRL_OFFSET [11:0] $end
  $var wire 32 G CS1_N_BIT [31:0] $end
  $var wire 32 H CS2_N_BIT [31:0] $end
  $var wire 32 I DC_BIT [31:0] $end
  $var wire 1 < clk_i $end
  $var wire 1 # rst_ni $end
  $scope module obi_req_i_to_dut $end
   $scope module a $end
    $var wire 32 $ addr [31:0] $end
    $var wire 1 % we $end
    $var wire 4 & be [3:0] $end
    $var wire 32 ' wdata [31:0] $end
    $var wire 3 ( aid [2:0] $end
    $var wire 1 ) a_optional $end
   $upscope $end
   $var wire 1 * req $end
  $upscope $end
  $scope module obi_rsp_o_from_dut $end
   $scope module r $end
    $var wire 32 / rdata [31:0] $end
    $var wire 3 0 rid [2:0] $end
    $var wire 1 1 err $end
    $var wire 1 2 r_optional $end
   $upscope $end
   $var wire 1 3 gnt $end
   $var wire 1 4 rvalid $end
  $upscope $end
  $var wire 1 7 spi_cs1_no_tb $end
  $var wire 1 8 spi_cs2_no_tb $end
  $var wire 1 9 spi_dc_o_tb $end
  $var wire 1 + req_ongoing $end
  $scope module dut $end
   $var wire 1 < clk_i $end
   $var wire 1 # rst_ni $end
   $scope module obi_req_i $end
    $scope module a $end
     $var wire 32 $ addr [31:0] $end
     $var wire 1 % we $end
     $var wire 4 & be [3:0] $end
     $var wire 32 ' wdata [31:0] $end
     $var wire 3 ( aid [2:0] $end
     $var wire 1 ) a_optional $end
    $upscope $end
    $var wire 1 * req $end
   $upscope $end
   $scope module obi_rsp_o $end
    $scope module r $end
     $var wire 32 / rdata [31:0] $end
     $var wire 3 0 rid [2:0] $end
     $var wire 1 1 err $end
     $var wire 1 2 r_optional $end
    $upscope $end
    $var wire 1 3 gnt $end
    $var wire 1 4 rvalid $end
   $upscope $end
   $var wire 1 7 spi_cs1_no $end
   $var wire 1 8 spi_cs2_no $end
   $var wire 1 9 spi_dc_o $end
   $var wire 32 J ADDR_WIDTH [31:0] $end
   $var wire 32 K DATA_WIDTH [31:0] $end
   $var wire 12 F GPIO_CTRL_OFFSET [11:0] $end
   $var wire 32 G CS1_N_BIT [31:0] $end
   $var wire 32 H CS2_N_BIT [31:0] $end
   $var wire 32 I DC_BIT [31:0] $end
   $var wire 1 7 cs1_n_q $end
   $var wire 1 8 cs2_n_q $end
   $var wire 1 9 dc_q $end
   $var wire 1 : rvalid_q $end
   $var wire 32 ; rdata_q [31:0] $end
   $var wire 1 5 read_granted_this_cycle $end
   $var wire 1 = write_req $end
   $var wire 1 > read_req $end
   $var wire 12 , addr_offset_local [11:0] $end
   $var wire 32 ' reg_wdata_local [31:0] $end
   $var wire 32 6 reg_rdata_comb [31:0] $end
   $var wire 1 ? grant_w $end
   $var wire 1 @ grant_r $end
  $upscope $end
  $scope module unnamedblk1 $end
   $var wire 32 - read_back_data [31:0] $end
   $var wire 1 . read_error $end
  $upscope $end
 $upscope $end
$enddefinitions $end


#0
0#
b00000000000000000000000000000000 $
0%
b0000 &
b00000000000000000000000000000000 '
b000 (
0)
0*
0+
b000000000000 ,
b00000000000000000000000000000000 -
0.
b00000000000000000000000000000000 /
b000 0
01
02
03
04
05
b00000000000000000000000000000000 6
07
08
09
0:
b00000000000000000000000000000000 ;
0<
0=
0>
0?
0@
r49.99999999999999 A
r99.99999999999999 C
b00000000000000000000011111010000 E
b000000000000 F
b00000000000000000000000000000000 G
b00000000000000000000000000000001 H
b00000000000000000000000000000010 I
b00000000000000000000000000001100 J
b00000000000000000000000000100000 K
b00000000000001000111110111110100 L
b00000011111000100000111010001111 M
b00000001001011111111100010000110 N
b00000000000011110011000110000001 O
b00010001110100101110100010000001 P
b00000000001111100111101101110010 Q
b0010 R
b01000 S
b0000000000000000000000000000000000000000000000000000100000000000 T
b0000000000000000000000000000000000000000000000000000100000001000 V
b0000000000000000000000000000000000000000000000000000100000010000 X
b001110000000 Z
b001 [
b010 \
b011 ]
b100 ^
b000000 _
b00 `
b111 a
0b
b00000000000000000000000000000000 c
1d
b00000000000000000000000000100000 e
b00000000000000000000000000000001 f
b00000000000000000000000000000100 g
b00100000000000000000000000000000 h
b00000000000000000001000000000000 i
b00100000000000000001000000000000 j
b00100000000000000010000000000000 k
b00100000000000000011000000000000 l
b00100000000000000100000000000000 m
b00000000000000000000000000000101 n
b00000000000000000000000000000001 o
b00100000000000000001000000000000 p
b00100000000000000010000000000000 q
b00000000000000000000000000000010 r
b00100000000000000011000000000000 s
b00000000000000000000000000000011 t
b00100000000000000100000000000000 u
b00000000000000000000000000000100 v
b00100000000000000101000000000000 w
b00000000000000000000000000000100 x
b0000 y
b0100 z
b1000 {
b1100 |
b1111 }
b0001 ~
b1111 !!
b0001 "!
b11011011001 #!
b1100000011000101 $!
b0000 %!
b00000000000000000000000000000000 &!
b00010000000000000000000000000000 '!
b00000000000000000000000000000010 (!
b00000000000000000000001000000000 )!
b00000000000000000000000000001001 *!
b00000000000000000001000000000000 +!
b01100000000000000000000000000000 ,!
b00000000000000000000000000000000 -!
b00010000000000000000000000000000 .!
b00010000000000000000100000000000 /!
b00010000000000000001000000000000 0!
b00100000000000000000000000000000 1!
b10000000000000000000000000000000 2!
b00000000000001000000000000000000 3!
b00000011000000000000000000000000 4!
b00000011000000000010000000000000 5!
b00000011000000000101000000000000 6!
b00000011000000001010000000000000 7!
b00000000000000000000000000000110 8!
b00000000000000000000000000000101 9!
b00000011000000001010000000000000 :!
b00000011000000001011000000000000 ;!
b00000011000000000101000000000000 <!
b00000011000000000110000000000000 =!
b00000011000000000010000000000000 >!
b00000011000000000011000000000000 ?!
b00000011000000000000000000000000 @!
b00000011000000000001000000000000 A!
b00000000000001000000000000000000 B!
b00000000000000000000000000000011 C!
b00000000000000000000000000010000 D!
b00000000000000000000000000001000 E!
b001110100000 F!
b001110110000 G!
b00000000000000000000000000000111 H!
b00000000000000000000000000001011 I!
b00000000000000000000000000001100 J!
b00000000000000000000000000010001 K!
b00000000000000000000000000010101 L!
b01 M!
b00000000000000000000000000011111 N!
b0000010 O!
b0000000000000000000001100 P!
b00000000000000000000000000100011 Q!
b00000000000000000000011000000010 R!
#25000
b00000000000000000000000000000011 6
17
18
1<
#50000
0<
#75000
1<
#100000
1#
0<
#125000
1<
#150000
0<
#175000
1%
b0001 &
b00000000000000000000000000000010 '
1*
1+
13
b00000000000000000000000000000010 6
07
1<
1=
1?
#200000
0<
#225000
1<
#250000
0<
#275000
0*
0+
03
1<
0=
0?
#300000
0<
#325000
0%
b0000 &
b00000000000000000000000000000000 '
1<
#350000
0<
#375000
1<
#400000
0<
#425000
1<
#450000
0<
#475000
b1111 &
1*
1+
b00000000000000000000000000000010 /
13
14
15
1:
b00000000000000000000000000000010 ;
1<
1>
1@
#500000
0<
#525000
1<
#550000
0<
#575000
0*
0+
03
04
05
0:
1<
0>
0@
#600000
0<
#625000
b0000 &
b00000000000000000000000000000010 -
b00000000000000000000000000000000 /
b00000000000000000000000000000000 ;
1<
#650000
0<
#675000
1%
b0001 &
b00000000000000000000000000000101 '
1*
1+
13
b00000000000000000000000000000101 6
17
08
19
1<
1=
1?
#700000
0<
#725000
1<
#750000
0<
#775000
0*
0+
03
1<
0=
0?
#800000
0<
#825000
0%
b0000 &
b00000000000000000000000000000000 '
1<
#850000
0<
#875000
1<
#900000
0<
#925000
1<
#950000
0<
#975000
b1111 &
1*
1+
b00000000000000000000000000000101 /
13
14
15
1:
b00000000000000000000000000000101 ;
1<
1>
1@
#1000000
0<
#1025000
1<
#1050000
0<
#1075000
0*
0+
03
04
05
0:
1<
0>
0@
#1100000
0<
#1125000
b0000 &
b00000000000000000000000000000101 -
b00000000000000000000000000000000 /
b00000000000000000000000000000000 ;
1<
#1150000
0<
#1175000
1%
b0001 &
b00000000000000000000000000000011 '
1*
1+
13
b00000000000000000000000000000011 6
18
09
1<
1=
1?
#1200000
0<
#1225000
1<
#1250000
0<
#1275000
0*
0+
03
1<
0=
0?
#1300000
0<
#1325000
0%
b0000 &
b00000000000000000000000000000000 '
1<
#1350000
0<
#1375000
1<
#1400000
0<
#1425000
1<
#1450000
0<
#1475000
b1111 &
1*
1+
b00000000000000000000000000000011 /
13
14
15
1:
b00000000000000000000000000000011 ;
1<
1>
1@
#1500000
0<
#1525000
1<
#1550000
0<
#1575000
0*
0+
03
04
05
0:
1<
0>
0@
#1600000
0<
#1625000
b0000 &
b00000000000000000000000000000011 -
b00000000000000000000000000000000 /
b00000000000000000000000000000000 ;
1<
