tb_user_font_rom.vcd
$version Generated by VerilatedVcd $end
$timescale 1ps $end
 $scope module $rootio $end
 $upscope $end
 $scope module cb_filter_pkg $end
  $scope module EgSeeds[0] $end
   $var wire 32 F PermuteSeed [31:0] $end
   $var wire 32 G XorSeed [31:0] $end
  $upscope $end
  $scope module EgSeeds[1] $end
   $var wire 32 H PermuteSeed [31:0] $end
   $var wire 32 I XorSeed [31:0] $end
  $upscope $end
  $scope module EgSeeds[2] $end
   $var wire 32 J PermuteSeed [31:0] $end
   $var wire 32 K XorSeed [31:0] $end
  $upscope $end
 $upscope $end
 $scope module cve2_pkg $end
  $var wire 32 <! PMP_MAX_REGIONS [31:0] $end
  $var wire 32 =! PMP_CFG_W [31:0] $end
  $var wire 32 ] PMP_I [31:0] $end
  $var wire 32 ` PMP_I2 [31:0] $end
  $var wire 32 } PMP_D [31:0] $end
  $var wire 12 >! CSR_OFF_PMP_CFG [11:0] $end
  $var wire 12 ?! CSR_OFF_PMP_ADDR [11:0] $end
  $var wire 32 a CSR_MSTATUS_MIE_BIT [31:0] $end
  $var wire 32 @! CSR_MSTATUS_MPIE_BIT [31:0] $end
  $var wire 32 C CSR_MSTATUS_MPP_BIT_LOW [31:0] $end
  $var wire 32 A! CSR_MSTATUS_MPP_BIT_HIGH [31:0] $end
  $var wire 32 B! CSR_MSTATUS_MPRV_BIT [31:0] $end
  $var wire 32 C! CSR_MSTATUS_TW_BIT [31:0] $end
  $var wire 2 D! CSR_MISA_MXL [1:0] $end
  $var wire 32 a CSR_MSIX_BIT [31:0] $end
  $var wire 32 @! CSR_MTIX_BIT [31:0] $end
  $var wire 32 C CSR_MEIX_BIT [31:0] $end
  $var wire 32 <! CSR_MFIX_BIT_LOW [31:0] $end
  $var wire 32 E! CSR_MFIX_BIT_HIGH [31:0] $end
  $var wire 32 ] CSR_MSECCFG_MML_BIT [31:0] $end
  $var wire 32 ` CSR_MSECCFG_MMWP_BIT [31:0] $end
  $var wire 32 } CSR_MSECCFG_RLB_BIT [31:0] $end
  $var wire 7 F! MVENDORID_OFFSET [6:0] $end
  $var wire 25 G! MVENDORID_BANK [24:0] $end
  $var wire 32 H! MARCHID [31:0] $end
  $var wire 32 I! CSR_MVENDORID_VALUE [31:0] $end
  $var wire 32 H! CSR_MARCHID_VALUE [31:0] $end
  $var wire 32 %! CSR_MIMPID_VALUE [31:0] $end
  $var wire 32 %! CSR_MCONFIGPTR_VALUE [31:0] $end
 $upscope $end
 $scope module obi_pkg $end
  $var wire 6 Y DefaultAtop [5:0] $end
  $var wire 2 Z DefaultMemtype [1:0] $end
  $var wire 3 [ DefaultProt [2:0] $end
  $scope module ObiMinimalOptionalConfig $end
   $var wire 1 \ UseAtop $end
   $var wire 1 \ UseMemtype $end
   $var wire 1 \ UseProt $end
   $var wire 1 \ UseDbg $end
   $var wire 32 ] AUserWidth [31:0] $end
   $var wire 32 ] WUserWidth [31:0] $end
   $var wire 32 ] RUserWidth [31:0] $end
   $var wire 32 ] MidWidth [31:0] $end
   $var wire 32 ] AChkWidth [31:0] $end
   $var wire 32 ] RChkWidth [31:0] $end
  $upscope $end
  $scope module ObiAtopOptionalConfig $end
   $var wire 1 ^ UseAtop $end
   $var wire 1 \ UseMemtype $end
   $var wire 1 \ UseProt $end
   $var wire 1 \ UseDbg $end
   $var wire 32 ] AUserWidth [31:0] $end
   $var wire 32 ] WUserWidth [31:0] $end
   $var wire 32 ] RUserWidth [31:0] $end
   $var wire 32 ] MidWidth [31:0] $end
   $var wire 32 ] AChkWidth [31:0] $end
   $var wire 32 ] RChkWidth [31:0] $end
  $upscope $end
  $scope module ObiDefaultConfig $end
   $var wire 1 \ UseRReady $end
   $var wire 1 \ CombGnt $end
   $var wire 32 _ AddrWidth [31:0] $end
   $var wire 32 _ DataWidth [31:0] $end
   $var wire 32 ` IdWidth [31:0] $end
   $var wire 1 \ Integrity $end
   $var wire 1 ^ BeFull $end
   $scope module OptionalCfg $end
    $var wire 1 \ UseAtop $end
    $var wire 1 \ UseMemtype $end
    $var wire 1 \ UseProt $end
    $var wire 1 \ UseDbg $end
    $var wire 32 ] AUserWidth [31:0] $end
    $var wire 32 ] WUserWidth [31:0] $end
    $var wire 32 ] RUserWidth [31:0] $end
    $var wire 32 ] MidWidth [31:0] $end
    $var wire 32 ] AChkWidth [31:0] $end
    $var wire 32 ] RChkWidth [31:0] $end
   $upscope $end
  $upscope $end
 $upscope $end
 $scope module dm $end
  $var wire 4 L DbgVersion013 [3:0] $end
  $var wire 5 M ProgBufSize [4:0] $end
  $var wire 4 L DataCount [3:0] $end
  $var wire 64 N HaltAddress [63:0] $end
  $var wire 64 P ResumeAddress [63:0] $end
  $var wire 64 R ExceptionAddress [63:0] $end
  $var wire 12 T DataAddr [11:0] $end
  $var wire 3 U CauseBreakpoint [2:0] $end
  $var wire 3 V CauseTrigger [2:0] $end
  $var wire 3 W CauseRequest [2:0] $end
  $var wire 3 X CauseSingleStep [2:0] $end
 $upscope $end
 $scope module croc_pkg $end
  $var wire 32 ] HartId [31:0] $end
  $var wire 11 x JtagPulpManufacturer [10:0] $end
  $var wire 16 y JtagCrocPartNum [15:0] $end
  $var wire 4 z JtagCrocVersion [3:0] $end
  $scope module PulpJtagIdCode $end
   $var wire 4 z version [3:0] $end
   $var wire 16 y part_num [15:0] $end
   $var wire 11 x manufacturer [10:0] $end
   $var wire 1 ^ _one $end
  $upscope $end
  $var wire 32 g NumExternalIrqs [31:0] $end
  $var wire 32 { PeriphBaseAddr [31:0] $end
  $var wire 32 | PeriphAddrRange [31:0] $end
  $var wire 32 | SramBaseAddr [31:0] $end
  $var wire 32 } NumSramBanks [31:0] $end
  $var wire 32 ~ SramBankNumWords [31:0] $end
  $var wire 32 !! SramBankAddrWidth [31:0] $end
  $var wire 32 "! SramAddrRange [31:0] $end
  $var wire 32 b UserBaseAddr [31:0] $end
  $var wire 32 #! UserAddrRange [31:0] $end
  $var wire 32 g NumCrocDomainSubordinates [31:0] $end
  $var wire 32 g NumXbarManagers [31:0] $end
  $var wire 32 g NumXbarSbrRules [31:0] $end
  $var wire 32 $! NumXbarSbr [31:0] $end
  $scope module croc_addr_map[0] $end
   $var wire 32 h idx [31:0] $end
   $var wire 32 %! start_addr [31:0] $end
   $var wire 32 &! end_addr [31:0] $end
  $upscope $end
  $scope module croc_addr_map[1] $end
   $var wire 32 k idx [31:0] $end
   $var wire 32 &! start_addr [31:0] $end
   $var wire 32 '! end_addr [31:0] $end
  $upscope $end
  $scope module croc_addr_map[2] $end
   $var wire 32 m idx [31:0] $end
   $var wire 32 '! start_addr [31:0] $end
   $var wire 32 (! end_addr [31:0] $end
  $upscope $end
  $scope module croc_addr_map[3] $end
   $var wire 32 )! idx [31:0] $end
   $var wire 32 *! start_addr [31:0] $end
   $var wire 32 +! end_addr [31:0] $end
  $upscope $end
  $var wire 32 { DebugAddrOffset [31:0] $end
  $var wire 32 ,! DebugAddrRange [31:0] $end
  $var wire 32 -! SocCtrlAddrOffset [31:0] $end
  $var wire 32 c SocCtrlAddrRange [31:0] $end
  $var wire 32 .! UartAddrOffset [31:0] $end
  $var wire 32 c UartAddrRange [31:0] $end
  $var wire 32 /! GpioAddrOffset [31:0] $end
  $var wire 32 c GpioAddrRange [31:0] $end
  $var wire 32 0! TimerAddrOffset [31:0] $end
  $var wire 32 c TimerAddrRange [31:0] $end
  $var wire 32 $! NumPeriphRules [31:0] $end
  $var wire 32 1! NumPeriphs [31:0] $end
  $scope module periph_addr_map[0] $end
   $var wire 32 2! idx [31:0] $end
   $var wire 32 3! start_addr [31:0] $end
   $var wire 32 4! end_addr [31:0] $end
  $upscope $end
  $scope module periph_addr_map[1] $end
   $var wire 32 )! idx [31:0] $end
   $var wire 32 5! start_addr [31:0] $end
   $var wire 32 6! end_addr [31:0] $end
  $upscope $end
  $scope module periph_addr_map[2] $end
   $var wire 32 m idx [31:0] $end
   $var wire 32 7! start_addr [31:0] $end
   $var wire 32 8! end_addr [31:0] $end
  $upscope $end
  $scope module periph_addr_map[3] $end
   $var wire 32 k idx [31:0] $end
   $var wire 32 9! start_addr [31:0] $end
   $var wire 32 :! end_addr [31:0] $end
  $upscope $end
  $scope module periph_addr_map[4] $end
   $var wire 32 h idx [31:0] $end
   $var wire 32 %! start_addr [31:0] $end
   $var wire 32 ;! end_addr [31:0] $end
  $upscope $end
  $scope module MgrObiCfg $end
   $var wire 1 \ UseRReady $end
   $var wire 1 \ CombGnt $end
   $var wire 32 _ AddrWidth [31:0] $end
   $var wire 32 _ DataWidth [31:0] $end
   $var wire 32 ` IdWidth [31:0] $end
   $var wire 1 \ Integrity $end
   $var wire 1 ^ BeFull $end
   $scope module OptionalCfg $end
    $var wire 1 \ UseAtop $end
    $var wire 1 \ UseMemtype $end
    $var wire 1 \ UseProt $end
    $var wire 1 \ UseDbg $end
    $var wire 32 ] AUserWidth [31:0] $end
    $var wire 32 ] WUserWidth [31:0] $end
    $var wire 32 ] RUserWidth [31:0] $end
    $var wire 32 ] MidWidth [31:0] $end
    $var wire 32 ] AChkWidth [31:0] $end
    $var wire 32 ] RChkWidth [31:0] $end
   $upscope $end
  $upscope $end
  $scope module SbrObiCfg $end
   $var wire 1 \ UseRReady $end
   $var wire 1 \ CombGnt $end
   $var wire 32 _ AddrWidth [31:0] $end
   $var wire 32 _ DataWidth [31:0] $end
   $var wire 32 a IdWidth [31:0] $end
   $var wire 1 \ Integrity $end
   $var wire 1 ^ BeFull $end
   $scope module OptionalCfg $end
    $var wire 1 \ UseAtop $end
    $var wire 1 \ UseMemtype $end
    $var wire 1 \ UseProt $end
    $var wire 1 \ UseDbg $end
    $var wire 32 ] AUserWidth [31:0] $end
    $var wire 32 ] WUserWidth [31:0] $end
    $var wire 32 ] RUserWidth [31:0] $end
    $var wire 32 ] MidWidth [31:0] $end
    $var wire 32 ] AChkWidth [31:0] $end
    $var wire 32 ] RChkWidth [31:0] $end
   $upscope $end
  $upscope $end
 $upscope $end
 $scope module user_pkg $end
  $var wire 32 a NumUserDomainSubordinates [31:0] $end
  $var wire 32 b UserDomainBaseAddr [31:0] $end
  $var wire 32 c UserPeriphRange [31:0] $end
  $var wire 32 d UserSpiAddrOffset [31:0] $end
  $var wire 32 e UserSpiCtrlAddrOffset [31:0] $end
  $var wire 32 f UserFontRomAddrOffset [31:0] $end
  $var wire 32 a NumDemuxSbrRules [31:0] $end
  $var wire 32 g NumDemuxSbr [31:0] $end
  $scope module user_addr_map[0] $end
   $var wire 32 h idx [31:0] $end
   $var wire 32 i start_addr [31:0] $end
   $var wire 32 j end_addr [31:0] $end
  $upscope $end
  $scope module user_addr_map[1] $end
   $var wire 32 k idx [31:0] $end
   $var wire 32 j start_addr [31:0] $end
   $var wire 32 l end_addr [31:0] $end
  $upscope $end
  $scope module user_addr_map[2] $end
   $var wire 32 m idx [31:0] $end
   $var wire 32 l start_addr [31:0] $end
   $var wire 32 n end_addr [31:0] $end
  $upscope $end
 $upscope $end
 $scope module soc_ctrl_reg_pkg $end
  $var wire 32 o BlockAw [31:0] $end
  $var wire 4 p SOC_CTRL_BOOTADDR_OFFSET [3:0] $end
  $var wire 4 q SOC_CTRL_FETCHEN_OFFSET [3:0] $end
  $var wire 4 r SOC_CTRL_CORESTATUS_OFFSET [3:0] $end
  $var wire 4 s SOC_CTRL_BOOTMODE_OFFSET [3:0] $end
  $var wire 4 t SOC_CTRL_PERMIT[0] [3:0] $end
  $var wire 4 u SOC_CTRL_PERMIT[1] [3:0] $end
  $var wire 4 v SOC_CTRL_PERMIT[2] [3:0] $end
  $var wire 4 w SOC_CTRL_PERMIT[3] [3:0] $end
 $upscope $end
 $scope module tb_user_font_rom $end
  $var real 64 = CLK_PERIOD $end
  $var real 64 ? RESET_DURATION $end
  $var wire 32 A OBI_TIMEOUT [31:0] $end
  $var wire 32 B ROM_SIZE [31:0] $end
  $var wire 32 C ROM_ADDR_BITS [31:0] $end
  $var wire 1 ; clk_i $end
  $var wire 1 # rst_ni $end
  $scope module obi_req $end
   $scope module a $end
    $var wire 32 $ addr [31:0] $end
    $var wire 1 % we $end
    $var wire 4 & be [3:0] $end
    $var wire 32 ' wdata [31:0] $end
    $var wire 3 ( aid [2:0] $end
    $var wire 1 ) a_optional $end
   $upscope $end
   $var wire 1 * req $end
  $upscope $end
  $scope module obi_rsp $end
   $scope module r $end
    $var wire 32 2 rdata [31:0] $end
    $var wire 3 3 rid [2:0] $end
    $var wire 1 4 err $end
    $var wire 1 5 r_optional $end
   $upscope $end
   $var wire 1 6 gnt $end
   $var wire 1 7 rvalid $end
  $upscope $end
  $var wire 1 + req_ongoing $end
  $scope module dut $end
   $var wire 32 B ROM_SIZE [31:0] $end
   $var wire 32 C ROM_ADDR_BITS [31:0] $end
   $var wire 1 ; clk_i $end
   $var wire 1 # rst_ni $end
   $scope module obi_req_i $end
    $scope module a $end
     $var wire 32 $ addr [31:0] $end
     $var wire 1 % we $end
     $var wire 4 & be [3:0] $end
     $var wire 32 ' wdata [31:0] $end
     $var wire 3 ( aid [2:0] $end
     $var wire 1 ) a_optional $end
    $upscope $end
    $var wire 1 * req $end
   $upscope $end
   $scope module obi_rsp_o $end
    $scope module r $end
     $var wire 32 2 rdata [31:0] $end
     $var wire 3 3 rid [2:0] $end
     $var wire 1 4 err $end
     $var wire 1 5 r_optional $end
    $upscope $end
    $var wire 1 6 gnt $end
    $var wire 1 7 rvalid $end
   $upscope $end
   $var wire 32 D ADDR_WIDTH [31:0] $end
   $var wire 32 E DATA_WIDTH [31:0] $end
   $var wire 1 8 rvalid_q $end
   $var wire 32 9 rdata_q [31:0] $end
   $var wire 1 : read_req_accepted $end
   $var wire 12 , addr_offset [11:0] $end
   $var wire 1 - read_addr_valid $end
   $var wire 11 . rom_addr [10:0] $end
   $var wire 1 < read_req $end
   $var wire 8 / rom_byte_data [7:0] $end
  $upscope $end
  $scope module unnamedblk1 $end
   $var wire 32 0 read_data [31:0] $end
   $var wire 1 1 read_err $end
  $upscope $end
 $upscope $end
$enddefinitions $end


#0
0#
b00000000000000000000000000000000 $
0%
b0000 &
b00000000000000000000000000000000 '
b000 (
0)
0*
0+
b000000000000 ,
1-
b00000000000 .
b00000000 /
b00000000000000000000000000000000 0
01
b00000000000000000000000000000000 2
b000 3
04
05
06
07
08
b00000000000000000000000000000000 9
0:
0;
0<
r49.99999999999999 =
r99.99999999999999 ?
b00000000000000000000001111101000 A
b00000000000000000000010001110100 B
b00000000000000000000000000001011 C
b00000000000000000000000000001100 D
b00000000000000000000000000100000 E
b00000000000001000111110111110100 F
b00000011111000100000111010001111 G
b00000001001011111111100010000110 H
b00000000000011110011000110000001 I
b00010001110100101110100010000001 J
b00000000001111100111101101110010 K
b0010 L
b01000 M
b0000000000000000000000000000000000000000000000000000100000000000 N
b0000000000000000000000000000000000000000000000000000100000001000 P
b0000000000000000000000000000000000000000000000000000100000010000 R
b001110000000 T
b001 U
b010 V
b011 W
b100 X
b000000 Y
b00 Z
b111 [
0\
b00000000000000000000000000000000 ]
1^
b00000000000000000000000000100000 _
b00000000000000000000000000000001 `
b00000000000000000000000000000011 a
b00100000000000000000000000000000 b
b00000000000000000001000000000000 c
b00100000000000000001000000000000 d
b00100000000000000010000000000000 e
b00100000000000000011000000000000 f
b00000000000000000000000000000100 g
b00000000000000000000000000000001 h
b00100000000000000001000000000000 i
b00100000000000000010000000000000 j
b00000000000000000000000000000010 k
b00100000000000000011000000000000 l
b00000000000000000000000000000011 m
b00100000000000000100000000000000 n
b00000000000000000000000000000100 o
b0000 p
b0100 q
b1000 r
b1100 s
b1111 t
b0001 u
b1111 v
b0001 w
b11011011001 x
b1100000011000101 y
b0000 z
b00000000000000000000000000000000 {
b00010000000000000000000000000000 |
b00000000000000000000000000000010 }
b00000000000000000000001000000000 ~
b00000000000000000000000000001001 !!
b00000000000000000001000000000000 "!
b01100000000000000000000000000000 #!
b00000000000000000000000000000101 $!
b00000000000000000000000000000000 %!
b00010000000000000000000000000000 &!
b00010000000000000000100000000000 '!
b00010000000000000001000000000000 (!
b00000000000000000000000000000100 )!
b00100000000000000000000000000000 *!
b10000000000000000000000000000000 +!
b00000000000001000000000000000000 ,!
b00000011000000000000000000000000 -!
b00000011000000000010000000000000 .!
b00000011000000000101000000000000 /!
b00000011000000001010000000000000 0!
b00000000000000000000000000000110 1!
b00000000000000000000000000000101 2!
b00000011000000001010000000000000 3!
b00000011000000001011000000000000 4!
b00000011000000000101000000000000 5!
b00000011000000000110000000000000 6!
b00000011000000000010000000000000 7!
b00000011000000000011000000000000 8!
b00000011000000000000000000000000 9!
b00000011000000000001000000000000 :!
b00000000000001000000000000000000 ;!
b00000000000000000000000000010000 <!
b00000000000000000000000000001000 =!
b001110100000 >!
b001110110000 ?!
b00000000000000000000000000000111 @!
b00000000000000000000000000001100 A!
b00000000000000000000000000010001 B!
b00000000000000000000000000010101 C!
b01 D!
b00000000000000000000000000011111 E!
b0000010 F!
b0000000000000000000001100 G!
b00000000000000000000000000100011 H!
b00000000000000000000011000000010 I!
#25000
1;
#50000
0;
#75000
1;
#100000
1#
0;
#125000
1;
#150000
0;
#175000
b00000000000000000000000110001100 $
1*
1+
b000110001100 ,
b00110001100 .
16
1:
1;
1<
#200000
0;
#225000
17
18
1;
#250000
0;
#275000
0*
0+
06
0:
1;
0<
#300000
0;
#325000
b00000000000000000000000000000000 $
b000000000000 ,
b00000000000 .
07
08
1;
#350000
0;
#375000
1;
#400000
0;
#425000
1;
#450000
0;
#475000
1;
#500000
0;
#525000
1;
#550000
0;
#575000
1;
#600000
0;
#625000
b00000000000000000000000110010111 $
1*
1+
b000110010111 ,
b00110010111 .
b01000000 /
16
1:
1;
1<
#650000
0;
#675000
b00000000000000000000000001000000 2
17
18
b00000000000000000000000001000000 9
1;
#700000
0;
#725000
0*
0+
06
0:
1;
0<
#750000
0;
#775000
b00000000000000000000000000000000 $
b000000000000 ,
b00000000000 .
b00000000 /
b00000000000000000000000001000000 0
07
08
1;
#800000
0;
#825000
b00000000000000000000000000000000 2
b00000000000000000000000000000000 9
1;
#850000
0;
#875000
1;
#900000
0;
#925000
1;
#950000
0;
#975000
1;
#1000000
0;
#1025000
1;
#1050000
0;
#1075000
b00000000000000000000001100001100 $
1*
1+
b001100001100 ,
b01100001100 .
16
1:
1;
1<
#1100000
0;
#1125000
17
18
1;
#1150000
0;
#1175000
0*
0+
06
0:
1;
0<
#1200000
0;
#1225000
b00000000000000000000000000000000 $
b000000000000 ,
b00000000000 .
b00000000000000000000000000000000 0
07
08
1;
#1250000
0;
#1275000
1;
#1300000
0;
#1325000
1;
#1350000
0;
#1375000
1;
#1400000
0;
#1425000
1;
#1450000
0;
#1475000
1;
#1500000
0;
#1525000
b00000000000000000000010001110011 $
1*
1+
b010001110011 ,
b10001110011 .
16
1:
1;
1<
#1550000
0;
#1575000
17
18
1;
#1600000
0;
#1625000
0*
0+
06
0:
1;
0<
#1650000
0;
#1675000
b00000000000000000000000000000000 $
b000000000000 ,
b00000000000 .
07
08
1;
#1700000
0;
#1725000
1;
#1750000
0;
#1775000
1;
#1800000
0;
#1825000
1;
#1850000
0;
#1875000
1;
#1900000
0;
#1925000
1;
#1950000
0;
#1975000
b00000000000000000000010001110100 $
1*
1+
b010001110100 ,
0-
b10001110100 .
14
1;
1<
#2000000
0;
#2025000
0*
0+
04
1;
0<
#2050000
0;
#2075000
b00000000000000000000000000000000 $
b000000000000 ,
1-
b00000000000 .
b11011110101011011011111011101111 0
11
1;
