tb_user_spi_ctrl.vcd
$version Generated by VerilatedVcd $end
$timescale 1ps $end
 $scope module $rootio $end
 $upscope $end
 $scope module cb_filter_pkg $end
  $scope module EgSeeds[0] $end
   $var wire 32 L PermuteSeed [31:0] $end
   $var wire 32 M XorSeed [31:0] $end
  $upscope $end
  $scope module EgSeeds[1] $end
   $var wire 32 N PermuteSeed [31:0] $end
   $var wire 32 O XorSeed [31:0] $end
  $upscope $end
  $scope module EgSeeds[2] $end
   $var wire 32 P PermuteSeed [31:0] $end
   $var wire 32 Q XorSeed [31:0] $end
  $upscope $end
 $upscope $end
 $scope module cve2_pkg $end
  $var wire 32 @! PMP_MAX_REGIONS [31:0] $end
  $var wire 32 A! PMP_CFG_W [31:0] $end
  $var wire 32 n PMP_I [31:0] $end
  $var wire 32 q PMP_I2 [31:0] $end
  $var wire 32 _ PMP_D [31:0] $end
  $var wire 12 B! CSR_OFF_PMP_CFG [11:0] $end
  $var wire 12 C! CSR_OFF_PMP_ADDR [11:0] $end
  $var wire 32 d CSR_MSTATUS_MIE_BIT [31:0] $end
  $var wire 32 D! CSR_MSTATUS_MPIE_BIT [31:0] $end
  $var wire 32 E! CSR_MSTATUS_MPP_BIT_LOW [31:0] $end
  $var wire 32 F! CSR_MSTATUS_MPP_BIT_HIGH [31:0] $end
  $var wire 32 G! CSR_MSTATUS_MPRV_BIT [31:0] $end
  $var wire 32 H! CSR_MSTATUS_TW_BIT [31:0] $end
  $var wire 2 I! CSR_MISA_MXL [1:0] $end
  $var wire 32 d CSR_MSIX_BIT [31:0] $end
  $var wire 32 D! CSR_MTIX_BIT [31:0] $end
  $var wire 32 E! CSR_MEIX_BIT [31:0] $end
  $var wire 32 @! CSR_MFIX_BIT_LOW [31:0] $end
  $var wire 32 J! CSR_MFIX_BIT_HIGH [31:0] $end
  $var wire 32 n CSR_MSECCFG_MML_BIT [31:0] $end
  $var wire 32 q CSR_MSECCFG_MMWP_BIT [31:0] $end
  $var wire 32 _ CSR_MSECCFG_RLB_BIT [31:0] $end
  $var wire 7 K! MVENDORID_OFFSET [6:0] $end
  $var wire 25 L! MVENDORID_BANK [24:0] $end
  $var wire 32 M! MARCHID [31:0] $end
  $var wire 32 N! CSR_MVENDORID_VALUE [31:0] $end
  $var wire 32 M! CSR_MARCHID_VALUE [31:0] $end
  $var wire 32 } CSR_MIMPID_VALUE [31:0] $end
  $var wire 32 } CSR_MCONFIGPTR_VALUE [31:0] $end
 $upscope $end
 $scope module obi_pkg $end
  $var wire 6 j DefaultAtop [5:0] $end
  $var wire 2 k DefaultMemtype [1:0] $end
  $var wire 3 l DefaultProt [2:0] $end
  $scope module ObiMinimalOptionalConfig $end
   $var wire 1 m UseAtop $end
   $var wire 1 m UseMemtype $end
   $var wire 1 m UseProt $end
   $var wire 1 m UseDbg $end
   $var wire 32 n AUserWidth [31:0] $end
   $var wire 32 n WUserWidth [31:0] $end
   $var wire 32 n RUserWidth [31:0] $end
   $var wire 32 n MidWidth [31:0] $end
   $var wire 32 n AChkWidth [31:0] $end
   $var wire 32 n RChkWidth [31:0] $end
  $upscope $end
  $scope module ObiAtopOptionalConfig $end
   $var wire 1 o UseAtop $end
   $var wire 1 m UseMemtype $end
   $var wire 1 m UseProt $end
   $var wire 1 m UseDbg $end
   $var wire 32 n AUserWidth [31:0] $end
   $var wire 32 n WUserWidth [31:0] $end
   $var wire 32 n RUserWidth [31:0] $end
   $var wire 32 n MidWidth [31:0] $end
   $var wire 32 n AChkWidth [31:0] $end
   $var wire 32 n RChkWidth [31:0] $end
  $upscope $end
  $scope module ObiDefaultConfig $end
   $var wire 1 m UseRReady $end
   $var wire 1 m CombGnt $end
   $var wire 32 p AddrWidth [31:0] $end
   $var wire 32 p DataWidth [31:0] $end
   $var wire 32 q IdWidth [31:0] $end
   $var wire 1 m Integrity $end
   $var wire 1 o BeFull $end
   $scope module OptionalCfg $end
    $var wire 1 m UseAtop $end
    $var wire 1 m UseMemtype $end
    $var wire 1 m UseProt $end
    $var wire 1 m UseDbg $end
    $var wire 32 n AUserWidth [31:0] $end
    $var wire 32 n WUserWidth [31:0] $end
    $var wire 32 n RUserWidth [31:0] $end
    $var wire 32 n MidWidth [31:0] $end
    $var wire 32 n AChkWidth [31:0] $end
    $var wire 32 n RChkWidth [31:0] $end
   $upscope $end
  $upscope $end
 $upscope $end
 $scope module dm $end
  $var wire 4 R DbgVersion013 [3:0] $end
  $var wire 5 S ProgBufSize [4:0] $end
  $var wire 4 R DataCount [3:0] $end
  $var wire 64 T HaltAddress [63:0] $end
  $var wire 64 V ResumeAddress [63:0] $end
  $var wire 64 X ExceptionAddress [63:0] $end
  $var wire 12 Z DataAddr [11:0] $end
  $var wire 3 [ CauseBreakpoint [2:0] $end
  $var wire 3 \ CauseTrigger [2:0] $end
  $var wire 3 ] CauseRequest [2:0] $end
  $var wire 3 ^ CauseSingleStep [2:0] $end
 $upscope $end
 $scope module croc_pkg $end
  $var wire 32 n HartId [31:0] $end
  $var wire 11 r JtagPulpManufacturer [10:0] $end
  $var wire 16 s JtagCrocPartNum [15:0] $end
  $var wire 4 t JtagCrocVersion [3:0] $end
  $scope module PulpJtagIdCode $end
   $var wire 4 t version [3:0] $end
   $var wire 16 s part_num [15:0] $end
   $var wire 11 r manufacturer [10:0] $end
   $var wire 1 o _one $end
  $upscope $end
  $var wire 32 u NumExternalIrqs [31:0] $end
  $var wire 32 v PeriphBaseAddr [31:0] $end
  $var wire 32 w PeriphAddrRange [31:0] $end
  $var wire 32 w SramBaseAddr [31:0] $end
  $var wire 32 _ NumSramBanks [31:0] $end
  $var wire 32 x SramBankNumWords [31:0] $end
  $var wire 32 y SramBankAddrWidth [31:0] $end
  $var wire 32 z SramAddrRange [31:0] $end
  $var wire 32 ` UserBaseAddr [31:0] $end
  $var wire 32 { UserAddrRange [31:0] $end
  $var wire 32 u NumCrocDomainSubordinates [31:0] $end
  $var wire 32 u NumXbarManagers [31:0] $end
  $var wire 32 u NumXbarSbrRules [31:0] $end
  $var wire 32 | NumXbarSbr [31:0] $end
  $scope module croc_addr_map[0] $end
   $var wire 32 e idx [31:0] $end
   $var wire 32 } start_addr [31:0] $end
   $var wire 32 ~ end_addr [31:0] $end
  $upscope $end
  $scope module croc_addr_map[1] $end
   $var wire 32 h idx [31:0] $end
   $var wire 32 ~ start_addr [31:0] $end
   $var wire 32 !! end_addr [31:0] $end
  $upscope $end
  $scope module croc_addr_map[2] $end
   $var wire 32 "! idx [31:0] $end
   $var wire 32 !! start_addr [31:0] $end
   $var wire 32 #! end_addr [31:0] $end
  $upscope $end
  $scope module croc_addr_map[3] $end
   $var wire 32 $! idx [31:0] $end
   $var wire 32 %! start_addr [31:0] $end
   $var wire 32 &! end_addr [31:0] $end
  $upscope $end
  $var wire 32 v DebugAddrOffset [31:0] $end
  $var wire 32 '! DebugAddrRange [31:0] $end
  $var wire 32 (! SocCtrlAddrOffset [31:0] $end
  $var wire 32 a SocCtrlAddrRange [31:0] $end
  $var wire 32 )! UartAddrOffset [31:0] $end
  $var wire 32 a UartAddrRange [31:0] $end
  $var wire 32 *! GpioAddrOffset [31:0] $end
  $var wire 32 a GpioAddrRange [31:0] $end
  $var wire 32 +! TimerAddrOffset [31:0] $end
  $var wire 32 a TimerAddrRange [31:0] $end
  $var wire 32 | NumPeriphRules [31:0] $end
  $var wire 32 ,! NumPeriphs [31:0] $end
  $scope module periph_addr_map[0] $end
   $var wire 32 -! idx [31:0] $end
   $var wire 32 .! start_addr [31:0] $end
   $var wire 32 /! end_addr [31:0] $end
  $upscope $end
  $scope module periph_addr_map[1] $end
   $var wire 32 $! idx [31:0] $end
   $var wire 32 0! start_addr [31:0] $end
   $var wire 32 1! end_addr [31:0] $end
  $upscope $end
  $scope module periph_addr_map[2] $end
   $var wire 32 "! idx [31:0] $end
   $var wire 32 2! start_addr [31:0] $end
   $var wire 32 3! end_addr [31:0] $end
  $upscope $end
  $scope module periph_addr_map[3] $end
   $var wire 32 h idx [31:0] $end
   $var wire 32 4! start_addr [31:0] $end
   $var wire 32 5! end_addr [31:0] $end
  $upscope $end
  $scope module periph_addr_map[4] $end
   $var wire 32 e idx [31:0] $end
   $var wire 32 } start_addr [31:0] $end
   $var wire 32 6! end_addr [31:0] $end
  $upscope $end
  $scope module MgrObiCfg $end
   $var wire 1 m UseRReady $end
   $var wire 1 m CombGnt $end
   $var wire 32 p AddrWidth [31:0] $end
   $var wire 32 p DataWidth [31:0] $end
   $var wire 32 q IdWidth [31:0] $end
   $var wire 1 m Integrity $end
   $var wire 1 o BeFull $end
   $scope module OptionalCfg $end
    $var wire 1 m UseAtop $end
    $var wire 1 m UseMemtype $end
    $var wire 1 m UseProt $end
    $var wire 1 m UseDbg $end
    $var wire 32 n AUserWidth [31:0] $end
    $var wire 32 n WUserWidth [31:0] $end
    $var wire 32 n RUserWidth [31:0] $end
    $var wire 32 n MidWidth [31:0] $end
    $var wire 32 n AChkWidth [31:0] $end
    $var wire 32 n RChkWidth [31:0] $end
   $upscope $end
  $upscope $end
  $scope module SbrObiCfg $end
   $var wire 1 m UseRReady $end
   $var wire 1 m CombGnt $end
   $var wire 32 p AddrWidth [31:0] $end
   $var wire 32 p DataWidth [31:0] $end
   $var wire 32 d IdWidth [31:0] $end
   $var wire 1 m Integrity $end
   $var wire 1 o BeFull $end
   $scope module OptionalCfg $end
    $var wire 1 m UseAtop $end
    $var wire 1 m UseMemtype $end
    $var wire 1 m UseProt $end
    $var wire 1 m UseDbg $end
    $var wire 32 n AUserWidth [31:0] $end
    $var wire 32 n WUserWidth [31:0] $end
    $var wire 32 n RUserWidth [31:0] $end
    $var wire 32 n MidWidth [31:0] $end
    $var wire 32 n AChkWidth [31:0] $end
    $var wire 32 n RChkWidth [31:0] $end
   $upscope $end
  $upscope $end
 $upscope $end
 $scope module user_pkg $end
  $var wire 32 _ NUM_ACTIVE_USER_PERIPHERALS [31:0] $end
  $var wire 32 ` UserDomainBaseAddr [31:0] $end
  $var wire 32 a UserPeriphRange [31:0] $end
  $var wire 32 b UserSpiAddrOffset [31:0] $end
  $var wire 32 c UserSpiCtrlAddrOffset [31:0] $end
  $var wire 32 _ NumDemuxSbrRules [31:0] $end
  $var wire 32 d NumDemuxSbr [31:0] $end
  $scope module user_addr_map[0] $end
   $var wire 32 e idx [31:0] $end
   $var wire 32 f start_addr [31:0] $end
   $var wire 32 g end_addr [31:0] $end
  $upscope $end
  $scope module user_addr_map[1] $end
   $var wire 32 h idx [31:0] $end
   $var wire 32 g start_addr [31:0] $end
   $var wire 32 i end_addr [31:0] $end
  $upscope $end
 $upscope $end
 $scope module soc_ctrl_reg_pkg $end
  $var wire 32 7! BlockAw [31:0] $end
  $var wire 4 8! SOC_CTRL_BOOTADDR_OFFSET [3:0] $end
  $var wire 4 9! SOC_CTRL_FETCHEN_OFFSET [3:0] $end
  $var wire 4 :! SOC_CTRL_CORESTATUS_OFFSET [3:0] $end
  $var wire 4 ;! SOC_CTRL_BOOTMODE_OFFSET [3:0] $end
  $var wire 4 <! SOC_CTRL_PERMIT[0] [3:0] $end
  $var wire 4 =! SOC_CTRL_PERMIT[1] [3:0] $end
  $var wire 4 >! SOC_CTRL_PERMIT[2] [3:0] $end
  $var wire 4 ?! SOC_CTRL_PERMIT[3] [3:0] $end
 $upscope $end
 $scope module tb_user_spi_ctrl $end
  $var real 64 A CLK_PERIOD $end
  $var real 64 C RESET_DURATION $end
  $var wire 32 E OBI_TIMEOUT [31:0] $end
  $var wire 12 F GPIO_CTRL_OFFSET [11:0] $end
  $var wire 32 G CS1_N_BIT [31:0] $end
  $var wire 32 H CS2_N_BIT [31:0] $end
  $var wire 32 I DC_BIT [31:0] $end
  $var wire 1 < clk_i $end
  $var wire 1 # rst_ni $end
  $scope module obi_req_i_to_dut $end
   $scope module a $end
    $var wire 32 $ addr [31:0] $end
    $var wire 1 % we $end
    $var wire 4 & be [3:0] $end
    $var wire 32 ' wdata [31:0] $end
    $var wire 3 ( aid [2:0] $end
    $var wire 1 ) a_optional $end
   $upscope $end
   $var wire 1 * req $end
  $upscope $end
  $scope module obi_rsp_o_from_dut $end
   $scope module r $end
    $var wire 32 / rdata [31:0] $end
    $var wire 3 0 rid [2:0] $end
    $var wire 1 1 err $end
    $var wire 1 2 r_optional $end
   $upscope $end
   $var wire 1 3 gnt $end
   $var wire 1 4 rvalid $end
  $upscope $end
  $var wire 1 7 spi_cs1_no_tb $end
  $var wire 1 8 spi_cs2_no_tb $end
  $var wire 1 9 spi_dc_o_tb $end
  $var wire 1 + req_ongoing $end
  $scope module dut $end
   $var wire 1 < clk_i $end
   $var wire 1 # rst_ni $end
   $scope module obi_req_i $end
    $scope module a $end
     $var wire 32 $ addr [31:0] $end
     $var wire 1 % we $end
     $var wire 4 & be [3:0] $end
     $var wire 32 ' wdata [31:0] $end
     $var wire 3 ( aid [2:0] $end
     $var wire 1 ) a_optional $end
    $upscope $end
    $var wire 1 * req $end
   $upscope $end
   $scope module obi_rsp_o $end
    $scope module r $end
     $var wire 32 / rdata [31:0] $end
     $var wire 3 0 rid [2:0] $end
     $var wire 1 1 err $end
     $var wire 1 2 r_optional $end
    $upscope $end
    $var wire 1 3 gnt $end
    $var wire 1 4 rvalid $end
   $upscope $end
   $var wire 1 7 spi_cs1_no $end
   $var wire 1 8 spi_cs2_no $end
   $var wire 1 9 spi_dc_o $end
   $var wire 32 J ADDR_WIDTH [31:0] $end
   $var wire 32 K DATA_WIDTH [31:0] $end
   $var wire 12 F GPIO_CTRL_OFFSET [11:0] $end
   $var wire 32 G CS1_N_BIT [31:0] $end
   $var wire 32 H CS2_N_BIT [31:0] $end
   $var wire 32 I DC_BIT [31:0] $end
   $var wire 1 7 cs1_n_q $end
   $var wire 1 8 cs2_n_q $end
   $var wire 1 9 dc_q $end
   $var wire 1 : rvalid_q $end
   $var wire 32 ; rdata_q [31:0] $end
   $var wire 1 5 read_granted_this_cycle $end
   $var wire 1 = write_req $end
   $var wire 1 > read_req $end
   $var wire 12 , addr_offset_local [11:0] $end
   $var wire 32 ' reg_wdata_local [31:0] $end
   $var wire 32 6 reg_rdata_comb [31:0] $end
   $var wire 1 ? grant_w $end
   $var wire 1 @ grant_r $end
  $upscope $end
  $scope module unnamedblk1 $end
   $var wire 32 - read_back_data [31:0] $end
   $var wire 1 . read_error $end
  $upscope $end
 $upscope $end
$enddefinitions $end


#0
0#
b00000000000000000000000000000000 $
0%
b0000 &
b00000000000000000000000000000000 '
b000 (
0)
0*
0+
b000000000000 ,
b00000000000000000000000000000000 -
0.
b00000000000000000000000000000000 /
b000 0
01
02
03
04
05
b00000000000000000000000000000000 6
07
08
09
0:
b00000000000000000000000000000000 ;
0<
0=
0>
0?
0@
r49.99999999999999 A
r99.99999999999999 C
b00000000000000000000011111010000 E
b000000000000 F
b00000000000000000000000000000000 G
b00000000000000000000000000000001 H
b00000000000000000000000000000010 I
b00000000000000000000000000001100 J
b00000000000000000000000000100000 K
b00000000000001000111110111110100 L
b00000011111000100000111010001111 M
b00000001001011111111100010000110 N
b00000000000011110011000110000001 O
b00010001110100101110100010000001 P
b00000000001111100111101101110010 Q
b0010 R
b01000 S
b0000000000000000000000000000000000000000000000000000100000000000 T
b0000000000000000000000000000000000000000000000000000100000001000 V
b0000000000000000000000000000000000000000000000000000100000010000 X
b001110000000 Z
b001 [
b010 \
b011 ]
b100 ^
b00000000000000000000000000000010 _
b00100000000000000000000000000000 `
b00000000000000000001000000000000 a
b00100000000000000001000000000000 b
b00100000000000000010000000000000 c
b00000000000000000000000000000011 d
b00000000000000000000000000000001 e
b00100000000000000001000000000000 f
b00100000000000000010000000000000 g
b00000000000000000000000000000010 h
b00100000000000000011000000000000 i
b000000 j
b00 k
b111 l
0m
b00000000000000000000000000000000 n
1o
b00000000000000000000000000100000 p
b00000000000000000000000000000001 q
b11011011001 r
b1100000011000101 s
b0000 t
b00000000000000000000000000000100 u
b00000000000000000000000000000000 v
b00010000000000000000000000000000 w
b00000000000000000000001000000000 x
b00000000000000000000000000001001 y
b00000000000000000001000000000000 z
b01100000000000000000000000000000 {
b00000000000000000000000000000101 |
b00000000000000000000000000000000 }
b00010000000000000000000000000000 ~
b00010000000000000000100000000000 !!
b00000000000000000000000000000011 "!
b00010000000000000001000000000000 #!
b00000000000000000000000000000100 $!
b00100000000000000000000000000000 %!
b10000000000000000000000000000000 &!
b00000000000001000000000000000000 '!
b00000011000000000000000000000000 (!
b00000011000000000010000000000000 )!
b00000011000000000101000000000000 *!
b00000011000000001010000000000000 +!
b00000000000000000000000000000110 ,!
b00000000000000000000000000000101 -!
b00000011000000001010000000000000 .!
b00000011000000001011000000000000 /!
b00000011000000000101000000000000 0!
b00000011000000000110000000000000 1!
b00000011000000000010000000000000 2!
b00000011000000000011000000000000 3!
b00000011000000000000000000000000 4!
b00000011000000000001000000000000 5!
b00000000000001000000000000000000 6!
b00000000000000000000000000000100 7!
b0000 8!
b0100 9!
b1000 :!
b1100 ;!
b1111 <!
b0001 =!
b1111 >!
b0001 ?!
b00000000000000000000000000010000 @!
b00000000000000000000000000001000 A!
b001110100000 B!
b001110110000 C!
b00000000000000000000000000000111 D!
b00000000000000000000000000001011 E!
b00000000000000000000000000001100 F!
b00000000000000000000000000010001 G!
b00000000000000000000000000010101 H!
b01 I!
b00000000000000000000000000011111 J!
b0000010 K!
b0000000000000000000001100 L!
b00000000000000000000000000100011 M!
b00000000000000000000011000000010 N!
#25000
b00000000000000000000000000000011 6
17
18
1<
#50000
0<
#75000
1<
#100000
1#
0<
#125000
1<
#150000
0<
#175000
1%
b0001 &
b00000000000000000000000000000010 '
1*
1+
13
b00000000000000000000000000000010 6
07
1<
1=
1?
#200000
0<
#225000
1<
#250000
0<
#275000
0*
0+
03
1<
0=
0?
#300000
0<
#325000
0%
b0000 &
b00000000000000000000000000000000 '
1<
#350000
0<
#375000
1<
#400000
0<
#425000
1<
#450000
0<
#475000
b1111 &
1*
1+
b00000000000000000000000000000010 /
13
14
15
1:
b00000000000000000000000000000010 ;
1<
1>
1@
#500000
0<
#525000
1<
#550000
0<
#575000
0*
0+
03
04
05
0:
1<
0>
0@
#600000
0<
#625000
b0000 &
b00000000000000000000000000000010 -
b00000000000000000000000000000000 /
b00000000000000000000000000000000 ;
1<
#650000
0<
#675000
1%
b0001 &
b00000000000000000000000000000101 '
1*
1+
13
b00000000000000000000000000000101 6
17
08
19
1<
1=
1?
#700000
0<
#725000
1<
#750000
0<
#775000
0*
0+
03
1<
0=
0?
#800000
0<
#825000
0%
b0000 &
b00000000000000000000000000000000 '
1<
#850000
0<
#875000
1<
#900000
0<
#925000
1<
#950000
0<
#975000
b1111 &
1*
1+
b00000000000000000000000000000101 /
13
14
15
1:
b00000000000000000000000000000101 ;
1<
1>
1@
#1000000
0<
#1025000
1<
#1050000
0<
#1075000
0*
0+
03
04
05
0:
1<
0>
0@
#1100000
0<
#1125000
b0000 &
b00000000000000000000000000000101 -
b00000000000000000000000000000000 /
b00000000000000000000000000000000 ;
1<
#1150000
0<
#1175000
1%
b0001 &
b00000000000000000000000000000011 '
1*
1+
13
b00000000000000000000000000000011 6
18
09
1<
1=
1?
#1200000
0<
#1225000
1<
#1250000
0<
#1275000
0*
0+
03
1<
0=
0?
#1300000
0<
#1325000
0%
b0000 &
b00000000000000000000000000000000 '
1<
#1350000
0<
#1375000
1<
#1400000
0<
#1425000
1<
#1450000
0<
#1475000
b1111 &
1*
1+
b00000000000000000000000000000011 /
13
14
15
1:
b00000000000000000000000000000011 ;
1<
1>
1@
#1500000
0<
#1525000
1<
#1550000
0<
#1575000
0*
0+
03
04
05
0:
1<
0>
0@
#1600000
0<
#1625000
b0000 &
b00000000000000000000000000000011 -
b00000000000000000000000000000000 /
b00000000000000000000000000000000 ;
1<
