rtl/user_domain/obj_dir/spi_obi_tb.vcd
$version Generated by VerilatedVcd $end
$timescale 1ps $end
 $scope module $rootio $end
 $upscope $end
 $scope module spi_obi_tb $end
  $var real 64 A CLK_PERIOD $end
  $var real 64 C RESET_DURATION $end
  $var wire 32 E OBI_TIMEOUT [31:0] $end
  $var wire 32 F SPI_DONE_TIMEOUT [31:0] $end
  $var wire 32 G SPI_CTRL_ADDR [31:0] $end
  $var wire 32 H SPI_TX_ADDR [31:0] $end
  $var wire 32 I SPI_STATUS_ADDR [31:0] $end
  $var wire 1 = clk $end
  $var wire 1 # rst_ni $end
  $var wire 1 $ req $end
  $var wire 32 % addr [31:0] $end
  $var wire 32 & wdata [31:0] $end
  $var wire 4 ' be [3:0] $end
  $var wire 1 ( we $end
  $var wire 1 > gnt $end
  $var wire 1 * rvalid $end
  $var wire 32 + rdata [31:0] $end
  $var wire 1 , sck $end
  $var wire 1 - mosi $end
  $var wire 1 . cs $end
  $scope module dut $end
   $var wire 1 = clk_i $end
   $var wire 1 # rst_ni $end
   $var wire 1 $ req_i $end
   $var wire 1 ( we_i $end
   $var wire 4 ' be_i [3:0] $end
   $var wire 32 % addr_i [31:0] $end
   $var wire 32 & wdata_i [31:0] $end
   $var wire 1 > gnt_o $end
   $var wire 1 * rvalid_o $end
   $var wire 32 + rdata_o [31:0] $end
   $var wire 1 , sck_o $end
   $var wire 1 - mosi_o $end
   $var wire 1 . cs_o $end
   $var wire 32 J ADDR_WIDTH [31:0] $end
   $var wire 32 J DATA_WIDTH [31:0] $end
   $var wire 32 K SPI_DATA_BITS [31:0] $end
   $var wire 32 L SPI_CLK_DIVIDER [31:0] $end
   $var wire 32 G SPI_CTRL_ADDR [31:0] $end
   $var wire 32 H SPI_TX_ADDR [31:0] $end
   $var wire 32 I SPI_STATUS_ADDR [31:0] $end
   $var wire 2 / state_q [1:0] $end
   $var wire 2 0 state_d [1:0] $end
   $var wire 1 1 start_flag_q $end
   $var wire 8 2 tx_data_q [7:0] $end
   $var wire 3 3 bit_cnt_q [2:0] $end
   $var wire 3 4 spi_clk_cnt_q [2:0] $end
   $var wire 1 * rvalid_q $end
   $var wire 32 + rdata_q [31:0] $end
   $var wire 1 5 start_flag_d $end
   $var wire 8 2 tx_data_d [7:0] $end
   $var wire 3 6 bit_cnt_d [2:0] $end
   $var wire 3 7 spi_clk_cnt_d [2:0] $end
   $var wire 1 8 spi_clk_phase $end
   $var wire 1 ? status_read_req $end
   $var wire 2 9 status_bits [1:0] $end
   $var wire 1 : busy $end
   $var wire 1 ; done $end
   $var wire 1 ) gnt_for_read $end
   $var wire 1 @ gnt_for_write $end
   $scope module unnamedblk1 $end
    $var wire 4 < next_bit_idx_calc [3:0] $end
   $upscope $end
  $upscope $end
 $upscope $end
$enddefinitions $end


#0
0#
0$
b00000000000000000000000000000000 %
b00000000000000000000000000000000 &
b0000 '
0(
0)
0*
b00000000000000000000000000000000 +
0,
0-
1.
b00 /
b00 0
01
b00000000 2
b000 3
b000 4
05
b000 6
b000 7
08
b00 9
0:
0;
b0000 <
0=
0>
0?
0@
r10 A
r20 C
b00000000000000000000001111101000 E
b00000000000000000001001110001000 F
b00000000000000000000000000000000 G
b00000000000000000000000000000100 H
b00000000000000000000000000001000 I
b00000000000000000000000000100000 J
b00000000000000000000000000001000 K
b00000000000000000000000000000100 L
#5000
1=
#10000
0=
#15000
1=
#20000
1#
0=
#25000
1=
#30000
0=
#35000
1=
#40000
0=
#45000
1$
b00000000000000000000000000001000 %
1)
1*
1=
1>
1?
#50000
0=
#55000
1=
#60000
0=
#65000
0$
0*
1=
0>
0?
#70000
0=
#75000
1=
#80000
0=
#85000
1$
b00000000000000000000000000000100 %
b0001 '
1(
0)
1=
1>
1@
#90000
0=
#95000
1=
#100000
0=
#105000
0$
b0000 '
0(
1=
0>
0@
#110000
0=
#115000
1$
b00000000000000000000000000000000 %
b00000000000000000000000000000001 &
b0001 '
1(
b01 0
11
1=
1>
1@
#120000
0=
#125000
0.
b01 /
b10 0
15
b111 6
b01 9
1:
1=
0>
0@
#130000
0=
#135000
0$
b0000 '
0(
b10 /
b111 3
b001 7
1=
#140000
0=
#145000
b001 4
b010 7
1=
#150000
0=
#155000
1$
b00000000000000000000000000001000 %
b00000000000000000000000000000000 &
1)
1*
b00000000000000000000000000000001 +
b010 4
b011 7
1=
1>
1?
#160000
0=
#165000
b011 4
b100 7
1=
#170000
0=
#175000
0$
0*
b00000000000000000000000000000000 +
1,
b100 4
b101 7
18
1=
0>
0?
#180000
0=
#185000
b101 4
b110 7
1=
#190000
0=
#195000
b110 4
b111 7
1=
#200000
0=
#205000
1$
1*
b00000000000000000000000000000001 +
b111 4
b110 6
b000 7
b0001 <
1=
1>
1?
#210000
0=
#215000
0,
b110 3
b000 4
b001 7
08
b0000 <
1=
#220000
0=
#225000
0$
0*
b00000000000000000000000000000000 +
b001 4
b010 7
1=
0>
0?
#230000
0=
#235000
b010 4
b011 7
1=
#240000
0=
#245000
b011 4
b100 7
1=
#250000
0=
#255000
1$
1*
b00000000000000000000000000000001 +
1,
b100 4
b101 7
18
1=
1>
1?
#260000
0=
#265000
b101 4
b110 7
1=
#270000
0=
#275000
0$
0*
b00000000000000000000000000000000 +
b110 4
b111 7
1=
0>
0?
#280000
0=
#285000
b111 4
b101 6
b000 7
b0010 <
1=
#290000
0=
#295000
0,
b101 3
b000 4
b001 7
08
b0000 <
1=
#300000
0=
#305000
1$
1*
b00000000000000000000000000000001 +
b001 4
b010 7
1=
1>
1?
#310000
0=
#315000
b010 4
b011 7
1=
#320000
0=
#325000
0$
0*
b00000000000000000000000000000000 +
b011 4
b100 7
1=
0>
0?
#330000
0=
#335000
1,
b100 4
b101 7
18
1=
#340000
0=
#345000
b101 4
b110 7
1=
#350000
0=
#355000
1$
1*
b00000000000000000000000000000001 +
b110 4
b111 7
1=
1>
1?
#360000
0=
#365000
b111 4
b100 6
b000 7
b0011 <
1=
#370000
0=
#375000
0$
0*
b00000000000000000000000000000000 +
0,
b100 3
b000 4
b001 7
08
b0000 <
1=
0>
0?
#380000
0=
#385000
b001 4
b010 7
1=
#390000
0=
#395000
b010 4
b011 7
1=
#400000
0=
#405000
1$
1*
b00000000000000000000000000000001 +
b011 4
b100 7
1=
1>
1?
#410000
0=
#415000
1,
b100 4
b101 7
18
1=
#420000
0=
#425000
0$
0*
b00000000000000000000000000000000 +
b101 4
b110 7
1=
0>
0?
#430000
0=
#435000
b110 4
b111 7
1=
#440000
0=
#445000
b111 4
b011 6
b000 7
b0100 <
1=
#450000
0=
#455000
1$
1*
b00000000000000000000000000000001 +
0,
b011 3
b000 4
b001 7
08
b0000 <
1=
1>
1?
#460000
0=
#465000
b001 4
b010 7
1=
#470000
0=
#475000
0$
0*
b00000000000000000000000000000000 +
b010 4
b011 7
1=
0>
0?
#480000
0=
#485000
b011 4
b100 7
1=
#490000
0=
#495000
1,
b100 4
b101 7
18
1=
#500000
0=
#505000
1$
1*
b00000000000000000000000000000001 +
b101 4
b110 7
1=
1>
1?
#510000
0=
#515000
b110 4
b111 7
1=
#520000
0=
#525000
0$
0*
b00000000000000000000000000000000 +
b111 4
b010 6
b000 7
b0101 <
1=
0>
0?
#530000
0=
#535000
0,
b010 3
b000 4
b001 7
08
b0000 <
1=
#540000
0=
#545000
b001 4
b010 7
1=
#550000
0=
#555000
1$
1*
b00000000000000000000000000000001 +
b010 4
b011 7
1=
1>
1?
#560000
0=
#565000
b011 4
b100 7
1=
#570000
0=
#575000
0$
0*
b00000000000000000000000000000000 +
1,
b100 4
b101 7
18
1=
0>
0?
#580000
0=
#585000
b101 4
b110 7
1=
#590000
0=
#595000
b110 4
b111 7
1=
#600000
0=
#605000
1$
1*
b00000000000000000000000000000001 +
b111 4
b001 6
b000 7
b0110 <
1=
1>
1?
#610000
0=
#615000
0,
b001 3
b000 4
b001 7
08
b0000 <
1=
#620000
0=
#625000
0$
0*
b00000000000000000000000000000000 +
b001 4
b010 7
1=
0>
0?
#630000
0=
#635000
b010 4
b011 7
1=
#640000
0=
#645000
b011 4
b100 7
1=
#650000
0=
#655000
1$
1*
b00000000000000000000000000000001 +
1,
b100 4
b101 7
18
1=
1>
1?
#660000
0=
#665000
b101 4
b110 7
1=
#670000
0=
#675000
0$
0*
b00000000000000000000000000000000 +
b110 4
b111 7
1=
0>
0?
#680000
0=
#685000
b111 4
b000 6
b000 7
b0111 <
1=
#690000
0=
#695000
0,
b000 3
b000 4
b001 7
08
b0000 <
1=
#700000
0=
#705000
1$
1*
b00000000000000000000000000000001 +
b001 4
b010 7
1=
1>
1?
#710000
0=
#715000
b010 4
b011 7
1=
#720000
0=
#725000
0$
0*
b00000000000000000000000000000000 +
b011 4
b100 7
1=
0>
0?
#730000
0=
#735000
1,
b100 4
b101 7
18
1=
#740000
0=
#745000
b101 4
b110 7
1=
#750000
0=
#755000
1$
1*
b00000000000000000000000000000001 +
b110 4
b111 7
1=
1>
1?
#760000
0=
#765000
b11 0
b111 4
b000 7
1=
#770000
0=
#775000
0$
0*
b00000000000000000000000000000000 +
0,
1.
b11 /
b00 0
b000 4
08
b10 9
0:
1;
1=
0>
0?
#780000
0=
#785000
b00 /
b01 0
05
b00 9
0;
1=
#790000
0=
#795000
0.
b01 /
b10 0
01
b111 6
b01 9
1:
1=
#800000
0=
#805000
1$
1*
b00000000000000000000000000000001 +
b10 /
b111 3
b001 7
1=
1>
1?
#810000
0=
#815000
b001 4
b010 7
1=
#820000
0=
#825000
0$
0*
b00000000000000000000000000000000 +
b010 4
b011 7
1=
0>
0?
#830000
0=
#835000
b011 4
b100 7
1=
#840000
0=
#845000
1,
b100 4
b101 7
18
1=
#850000
0=
#855000
1$
1*
b00000000000000000000000000000001 +
b101 4
b110 7
1=
1>
1?
#860000
0=
#865000
b110 4
b111 7
1=
#870000
0=
#875000
0$
0*
b00000000000000000000000000000000 +
b111 4
b110 6
b000 7
b0001 <
1=
0>
0?
#880000
0=
#885000
0,
b110 3
b000 4
b001 7
08
b0000 <
1=
#890000
0=
#895000
b001 4
b010 7
1=
#900000
0=
#905000
1$
1*
b00000000000000000000000000000001 +
b010 4
b011 7
1=
1>
1?
#910000
0=
#915000
b011 4
b100 7
1=
#920000
0=
#925000
0$
0*
b00000000000000000000000000000000 +
1,
b100 4
b101 7
18
1=
0>
0?
#930000
0=
#935000
b101 4
b110 7
1=
#940000
0=
#945000
b110 4
b111 7
1=
#950000
0=
#955000
1$
1*
b00000000000000000000000000000001 +
b111 4
b101 6
b000 7
b0010 <
1=
1>
1?
#960000
0=
#965000
0,
b101 3
b000 4
b001 7
08
b0000 <
1=
#970000
0=
#975000
0$
0*
b00000000000000000000000000000000 +
b001 4
b010 7
1=
0>
0?
#980000
0=
#985000
b010 4
b011 7
1=
#990000
0=
#995000
b011 4
b100 7
1=
#1000000
0=
#1005000
1$
1*
b00000000000000000000000000000001 +
1,
b100 4
b101 7
18
1=
1>
1?
#1010000
0=
#1015000
b101 4
b110 7
1=
#1020000
0=
#1025000
0$
0*
b00000000000000000000000000000000 +
b110 4
b111 7
1=
0>
0?
#1030000
0=
#1035000
b111 4
b100 6
b000 7
b0011 <
1=
#1040000
0=
#1045000
0,
b100 3
b000 4
b001 7
08
b0000 <
1=
#1050000
0=
#1055000
1$
1*
b00000000000000000000000000000001 +
b001 4
b010 7
1=
1>
1?
#1060000
0=
#1065000
b010 4
b011 7
1=
#1070000
0=
#1075000
0$
0*
b00000000000000000000000000000000 +
b011 4
b100 7
1=
0>
0?
#1080000
0=
#1085000
1,
b100 4
b101 7
18
1=
#1090000
0=
#1095000
b101 4
b110 7
1=
#1100000
0=
#1105000
1$
1*
b00000000000000000000000000000001 +
b110 4
b111 7
1=
1>
1?
#1110000
0=
#1115000
b111 4
b011 6
b000 7
b0100 <
1=
#1120000
0=
#1125000
0$
0*
b00000000000000000000000000000000 +
0,
b011 3
b000 4
b001 7
08
b0000 <
1=
0>
0?
#1130000
0=
#1135000
b001 4
b010 7
1=
#1140000
0=
#1145000
b010 4
b011 7
1=
#1150000
0=
#1155000
1$
1*
b00000000000000000000000000000001 +
b011 4
b100 7
1=
1>
1?
#1160000
0=
#1165000
1,
b100 4
b101 7
18
1=
#1170000
0=
#1175000
0$
0*
b00000000000000000000000000000000 +
b101 4
b110 7
1=
0>
0?
#1180000
0=
#1185000
b110 4
b111 7
1=
#1190000
0=
#1195000
b111 4
b010 6
b000 7
b0101 <
1=
#1200000
0=
#1205000
1$
1*
b00000000000000000000000000000001 +
0,
b010 3
b000 4
b001 7
08
b0000 <
1=
1>
1?
#1210000
0=
#1215000
b001 4
b010 7
1=
#1220000
0=
#1225000
0$
0*
b00000000000000000000000000000000 +
b010 4
b011 7
1=
0>
0?
#1230000
0=
#1235000
b011 4
b100 7
1=
#1240000
0=
#1245000
1,
b100 4
b101 7
18
1=
#1250000
0=
#1255000
1$
1*
b00000000000000000000000000000001 +
b101 4
b110 7
1=
1>
1?
#1260000
0=
#1265000
b110 4
b111 7
1=
#1270000
0=
#1275000
0$
0*
b00000000000000000000000000000000 +
b111 4
b001 6
b000 7
b0110 <
1=
0>
0?
#1280000
0=
#1285000
0,
b001 3
b000 4
b001 7
08
b0000 <
1=
#1290000
0=
#1295000
b001 4
b010 7
1=
#1300000
0=
#1305000
1$
1*
b00000000000000000000000000000001 +
b010 4
b011 7
1=
1>
1?
#1310000
0=
#1315000
b011 4
b100 7
1=
#1320000
0=
#1325000
0$
0*
b00000000000000000000000000000000 +
1,
b100 4
b101 7
18
1=
0>
0?
#1330000
0=
#1335000
b101 4
b110 7
1=
#1340000
0=
#1345000
b110 4
b111 7
1=
#1350000
0=
#1355000
1$
1*
b00000000000000000000000000000001 +
b111 4
b000 6
b000 7
b0111 <
1=
1>
1?
#1360000
0=
#1365000
0,
b000 3
b000 4
b001 7
08
b0000 <
1=
#1370000
0=
#1375000
0$
0*
b00000000000000000000000000000000 +
b001 4
b010 7
1=
0>
0?
#1380000
0=
#1385000
b010 4
b011 7
1=
#1390000
0=
#1395000
b011 4
b100 7
1=
#1400000
0=
#1405000
1$
1*
b00000000000000000000000000000001 +
1,
b100 4
b101 7
18
1=
1>
1?
#1410000
0=
#1415000
b101 4
b110 7
1=
#1420000
0=
#1425000
0$
0*
b00000000000000000000000000000000 +
b110 4
b111 7
1=
0>
0?
#1430000
0=
#1435000
b11 0
b111 4
b000 7
1=
#1440000
0=
#1445000
0,
1.
b11 /
b00 0
b000 4
08
b10 9
0:
1;
1=
#1450000
0=
#1455000
1$
1*
b00000000000000000000000000000010 +
b00 /
b00 9
0;
1=
1>
1?
#1460000
0=
#1465000
b00000000000000000000000000000000 +
1=
#1470000
0=
#1475000
0$
0*
1=
0>
0?
#1480000
0=
#1485000
1=
#1490000
0=
#1495000
1=
#1500000
0=
#1505000
1$
1*
1=
1>
1?
#1510000
0=
#1515000
1=
#1520000
0=
#1525000
0$
0*
1=
0>
0?
#1530000
0=
#1535000
1=
#1540000
0=
#1545000
1$
b00000000000000000000000000000100 %
b00000000000000000000000010101110 &
b0001 '
1(
0)
1-
b10101110 2
1=
1>
1@
#1550000
0=
#1555000
1=
#1560000
0=
#1565000
0$
b0000 '
0(
1=
0>
0@
#1570000
0=
#1575000
1$
b00000000000000000000000000000000 %
b00000000000000000000000000000001 &
b0001 '
1(
b01 0
11
1=
1>
1@
#1580000
0=
#1585000
0.
b01 /
b10 0
15
b111 6
b01 9
1:
1=
0>
0@
#1590000
0=
#1595000
0$
b0000 '
0(
0-
b10 /
b111 3
b001 7
1=
#1600000
0=
#1605000
b001 4
b010 7
1=
#1610000
0=
#1615000
1$
b00000000000000000000000000001000 %
b00000000000000000000000000000000 &
1)
1*
b00000000000000000000000000000001 +
b010 4
b011 7
1=
1>
1?
#1620000
0=
#1625000
b011 4
b100 7
1=
#1630000
0=
#1635000
0$
0*
b00000000000000000000000000000000 +
1,
b100 4
b101 7
18
1=
0>
0?
#1640000
0=
#1645000
b101 4
b110 7
1=
#1650000
0=
#1655000
b110 4
b111 7
1=
#1660000
0=
#1665000
1$
1*
b00000000000000000000000000000001 +
1-
b111 4
b110 6
b000 7
b0001 <
1=
1>
1?
#1670000
0=
#1675000
0,
b110 3
b000 4
b001 7
08
b0000 <
1=
#1680000
0=
#1685000
0$
0*
b00000000000000000000000000000000 +
b001 4
b010 7
1=
0>
0?
#1690000
0=
#1695000
b010 4
b011 7
1=
#1700000
0=
#1705000
b011 4
b100 7
1=
#1710000
0=
#1715000
1$
1*
b00000000000000000000000000000001 +
1,
b100 4
b101 7
18
1=
1>
1?
#1720000
0=
#1725000
b101 4
b110 7
1=
#1730000
0=
#1735000
0$
0*
b00000000000000000000000000000000 +
b110 4
b111 7
1=
0>
0?
#1740000
0=
#1745000
b111 4
b101 6
b000 7
b0010 <
1=
#1750000
0=
#1755000
0,
b101 3
b000 4
b001 7
08
b0000 <
1=
#1760000
0=
#1765000
1$
1*
b00000000000000000000000000000001 +
b001 4
b010 7
1=
1>
1?
#1770000
0=
#1775000
b010 4
b011 7
1=
#1780000
0=
#1785000
0$
0*
b00000000000000000000000000000000 +
b011 4
b100 7
1=
0>
0?
#1790000
0=
#1795000
1,
b100 4
b101 7
18
1=
#1800000
0=
#1805000
b101 4
b110 7
1=
#1810000
0=
#1815000
1$
1*
b00000000000000000000000000000001 +
b110 4
b111 7
1=
1>
1?
#1820000
0=
#1825000
b111 4
b100 6
b000 7
b0011 <
1=
#1830000
0=
#1835000
0$
0*
b00000000000000000000000000000000 +
0,
b100 3
b000 4
b001 7
08
b0000 <
1=
0>
0?
#1840000
0=
#1845000
b001 4
b010 7
1=
#1850000
0=
#1855000
b010 4
b011 7
1=
#1860000
0=
#1865000
1$
1*
b00000000000000000000000000000001 +
b011 4
b100 7
1=
1>
1?
#1870000
0=
#1875000
1,
b100 4
b101 7
18
1=
#1880000
0=
#1885000
0$
0*
b00000000000000000000000000000000 +
b101 4
b110 7
1=
0>
0?
#1890000
0=
#1895000
b110 4
b111 7
1=
#1900000
0=
#1905000
0-
b111 4
b011 6
b000 7
b0100 <
1=
#1910000
0=
#1915000
1$
1*
b00000000000000000000000000000001 +
0,
b011 3
b000 4
b001 7
08
b0000 <
1=
1>
1?
#1920000
0=
#1925000
b001 4
b010 7
1=
#1930000
0=
#1935000
0$
0*
b00000000000000000000000000000000 +
b010 4
b011 7
1=
0>
0?
#1940000
0=
#1945000
b011 4
b100 7
1=
#1950000
0=
#1955000
1,
b100 4
b101 7
18
1=
#1960000
0=
#1965000
1$
1*
b00000000000000000000000000000001 +
b101 4
b110 7
1=
1>
1?
#1970000
0=
#1975000
b110 4
b111 7
1=
#1980000
0=
#1985000
0$
0*
b00000000000000000000000000000000 +
1-
b111 4
b010 6
b000 7
b0101 <
1=
0>
0?
#1990000
0=
#1995000
0,
b010 3
b000 4
b001 7
08
b0000 <
1=
#2000000
0=
#2005000
b001 4
b010 7
1=
#2010000
0=
#2015000
1$
1*
b00000000000000000000000000000001 +
b010 4
b011 7
1=
1>
1?
#2020000
0=
#2025000
b011 4
b100 7
1=
#2030000
0=
#2035000
0$
0*
b00000000000000000000000000000000 +
1,
b100 4
b101 7
18
1=
0>
0?
#2040000
0=
#2045000
b101 4
b110 7
1=
#2050000
0=
#2055000
b110 4
b111 7
1=
#2060000
0=
#2065000
1$
1*
b00000000000000000000000000000001 +
0-
b111 4
b001 6
b000 7
b0110 <
1=
1>
1?
#2070000
0=
#2075000
0,
b001 3
b000 4
b001 7
08
b0000 <
1=
#2080000
0=
#2085000
0$
0*
b00000000000000000000000000000000 +
b001 4
b010 7
1=
0>
0?
#2090000
0=
#2095000
b010 4
b011 7
1=
#2100000
0=
#2105000
b011 4
b100 7
1=
#2110000
0=
#2115000
1$
1*
b00000000000000000000000000000001 +
1,
b100 4
b101 7
18
1=
1>
1?
#2120000
0=
#2125000
b101 4
b110 7
1=
#2130000
0=
#2135000
0$
0*
b00000000000000000000000000000000 +
b110 4
b111 7
1=
0>
0?
#2140000
0=
#2145000
1-
b111 4
b000 6
b000 7
b0111 <
1=
#2150000
0=
#2155000
0,
b000 3
b000 4
b001 7
08
b0000 <
1=
#2160000
0=
#2165000
1$
1*
b00000000000000000000000000000001 +
b001 4
b010 7
1=
1>
1?
#2170000
0=
#2175000
b010 4
b011 7
1=
#2180000
0=
#2185000
0$
0*
b00000000000000000000000000000000 +
b011 4
b100 7
1=
0>
0?
#2190000
0=
#2195000
1,
b100 4
b101 7
18
1=
#2200000
0=
#2205000
b101 4
b110 7
1=
#2210000
0=
#2215000
1$
1*
b00000000000000000000000000000001 +
b110 4
b111 7
1=
1>
1?
#2220000
0=
#2225000
0-
b11 0
b111 4
b000 7
1=
#2230000
0=
#2235000
0$
0*
b00000000000000000000000000000000 +
0,
1-
1.
b11 /
b00 0
b000 4
08
b10 9
0:
1;
1=
0>
0?
#2240000
0=
#2245000
b00 /
b01 0
05
b00 9
0;
1=
#2250000
0=
#2255000
0.
b01 /
b10 0
01
b111 6
b01 9
1:
1=
#2260000
0=
#2265000
1$
1*
b00000000000000000000000000000001 +
0-
b10 /
b111 3
b001 7
1=
1>
1?
#2270000
0=
#2275000
b001 4
b010 7
1=
#2280000
0=
#2285000
0$
0*
b00000000000000000000000000000000 +
b010 4
b011 7
1=
0>
0?
#2290000
0=
#2295000
b011 4
b100 7
1=
#2300000
0=
#2305000
1,
b100 4
b101 7
18
1=
#2310000
0=
#2315000
1$
1*
b00000000000000000000000000000001 +
b101 4
b110 7
1=
1>
1?
#2320000
0=
#2325000
b110 4
b111 7
1=
#2330000
0=
#2335000
0$
0*
b00000000000000000000000000000000 +
1-
b111 4
b110 6
b000 7
b0001 <
1=
0>
0?
#2340000
0=
#2345000
0,
b110 3
b000 4
b001 7
08
b0000 <
1=
#2350000
0=
#2355000
b001 4
b010 7
1=
#2360000
0=
#2365000
1$
1*
b00000000000000000000000000000001 +
b010 4
b011 7
1=
1>
1?
#2370000
0=
#2375000
b011 4
b100 7
1=
#2380000
0=
#2385000
0$
0*
b00000000000000000000000000000000 +
1,
b100 4
b101 7
18
1=
0>
0?
#2390000
0=
#2395000
b101 4
b110 7
1=
#2400000
0=
#2405000
b110 4
b111 7
1=
#2410000
0=
#2415000
1$
1*
b00000000000000000000000000000001 +
b111 4
b101 6
b000 7
b0010 <
1=
1>
1?
#2420000
0=
#2425000
0,
b101 3
b000 4
b001 7
08
b0000 <
1=
#2430000
0=
#2435000
0$
0*
b00000000000000000000000000000000 +
b001 4
b010 7
1=
0>
0?
#2440000
0=
#2445000
b010 4
b011 7
1=
#2450000
0=
#2455000
b011 4
b100 7
1=
#2460000
0=
#2465000
1$
1*
b00000000000000000000000000000001 +
1,
b100 4
b101 7
18
1=
1>
1?
#2470000
0=
#2475000
b101 4
b110 7
1=
#2480000
0=
#2485000
0$
0*
b00000000000000000000000000000000 +
b110 4
b111 7
1=
0>
0?
#2490000
0=
#2495000
b111 4
b100 6
b000 7
b0011 <
1=
#2500000
0=
#2505000
0,
b100 3
b000 4
b001 7
08
b0000 <
1=
#2510000
0=
#2515000
1$
1*
b00000000000000000000000000000001 +
b001 4
b010 7
1=
1>
1?
#2520000
0=
#2525000
b010 4
b011 7
1=
#2530000
0=
#2535000
0$
0*
b00000000000000000000000000000000 +
b011 4
b100 7
1=
0>
0?
#2540000
0=
#2545000
1,
b100 4
b101 7
18
1=
#2550000
0=
#2555000
b101 4
b110 7
1=
#2560000
0=
#2565000
1$
1*
b00000000000000000000000000000001 +
b110 4
b111 7
1=
1>
1?
#2570000
0=
#2575000
0-
b111 4
b011 6
b000 7
b0100 <
1=
#2580000
0=
#2585000
0$
0*
b00000000000000000000000000000000 +
0,
b011 3
b000 4
b001 7
08
b0000 <
1=
0>
0?
#2590000
0=
#2595000
b001 4
b010 7
1=
#2600000
0=
#2605000
b010 4
b011 7
1=
#2610000
0=
#2615000
1$
1*
b00000000000000000000000000000001 +
b011 4
b100 7
1=
1>
1?
#2620000
0=
#2625000
1,
b100 4
b101 7
18
1=
#2630000
0=
#2635000
0$
0*
b00000000000000000000000000000000 +
b101 4
b110 7
1=
0>
0?
#2640000
0=
#2645000
b110 4
b111 7
1=
#2650000
0=
#2655000
1-
b111 4
b010 6
b000 7
b0101 <
1=
#2660000
0=
#2665000
1$
1*
b00000000000000000000000000000001 +
0,
b010 3
b000 4
b001 7
08
b0000 <
1=
1>
1?
#2670000
0=
#2675000
b001 4
b010 7
1=
#2680000
0=
#2685000
0$
0*
b00000000000000000000000000000000 +
b010 4
b011 7
1=
0>
0?
#2690000
0=
#2695000
b011 4
b100 7
1=
#2700000
0=
#2705000
1,
b100 4
b101 7
18
1=
#2710000
0=
#2715000
1$
1*
b00000000000000000000000000000001 +
b101 4
b110 7
1=
1>
1?
#2720000
0=
#2725000
b110 4
b111 7
1=
#2730000
0=
#2735000
0$
0*
b00000000000000000000000000000000 +
0-
b111 4
b001 6
b000 7
b0110 <
1=
0>
0?
#2740000
0=
#2745000
0,
b001 3
b000 4
b001 7
08
b0000 <
1=
#2750000
0=
#2755000
b001 4
b010 7
1=
#2760000
0=
#2765000
1$
1*
b00000000000000000000000000000001 +
b010 4
b011 7
1=
1>
1?
#2770000
0=
#2775000
b011 4
b100 7
1=
#2780000
0=
#2785000
0$
0*
b00000000000000000000000000000000 +
1,
b100 4
b101 7
18
1=
0>
0?
#2790000
0=
#2795000
b101 4
b110 7
1=
#2800000
0=
#2805000
b110 4
b111 7
1=
#2810000
0=
#2815000
1$
1*
b00000000000000000000000000000001 +
1-
b111 4
b000 6
b000 7
b0111 <
1=
1>
1?
#2820000
0=
#2825000
0,
b000 3
b000 4
b001 7
08
b0000 <
1=
#2830000
0=
#2835000
0$
0*
b00000000000000000000000000000000 +
b001 4
b010 7
1=
0>
0?
#2840000
0=
#2845000
b010 4
b011 7
1=
#2850000
0=
#2855000
b011 4
b100 7
1=
#2860000
0=
#2865000
1$
1*
b00000000000000000000000000000001 +
1,
b100 4
b101 7
18
1=
1>
1?
#2870000
0=
#2875000
b101 4
b110 7
1=
#2880000
0=
#2885000
0$
0*
b00000000000000000000000000000000 +
b110 4
b111 7
1=
0>
0?
#2890000
0=
#2895000
0-
b11 0
b111 4
b000 7
1=
#2900000
0=
#2905000
0,
1-
1.
b11 /
b00 0
b000 4
08
b10 9
0:
1;
1=
#2910000
0=
#2915000
1$
1*
b00000000000000000000000000000010 +
b00 /
b00 9
0;
1=
1>
1?
#2920000
0=
#2925000
b00000000000000000000000000000000 +
1=
#2930000
0=
#2935000
0$
0*
1=
0>
0?
